\select@language {ngerman}
\contentsline {section}{\numberline {1}Erstellung einer Einstellungs-Activity}{2}{section.2}
\contentsline {section}{\numberline {2}Men\IeC {\"u}f\IeC {\"u}hrung zur Einstellungs-Activity}{3}{section.6}
\contentsline {section}{\numberline {3}App Symbol}{3}{section.14}
\contentsline {section}{\numberline {4}Erstellen der UML Diagramme}{4}{section.16}
\contentsline {section}{Abbildungsverzeichnis}{5}{figure.caption.18}
