\relax 
\providecommand\hyper@newdestlabel[2]{}
\providecommand*\new@tpo@label[2]{}
\catcode `"\active 
\providecommand\HyperFirstAtBeginDocument{\AtBeginDocument}
\HyperFirstAtBeginDocument{\ifx\hyper@anchor\@undefined
\global\let\oldcontentsline\contentsline
\gdef\contentsline#1#2#3#4{\oldcontentsline{#1}{#2}{#3}}
\global\let\oldnewlabel\newlabel
\gdef\newlabel#1#2{\newlabelxx{#1}#2}
\gdef\newlabelxx#1#2#3#4#5#6{\oldnewlabel{#1}{{#2}{#3}}}
\AtEndDocument{\ifx\hyper@anchor\@undefined
\let\contentsline\oldcontentsline
\let\newlabel\oldnewlabel
\fi}
\fi}
\global\let\hyper@last\relax 
\gdef\HyperFirstAtBeginDocument#1{#1}
\providecommand\HyField@AuxAddToFields[1]{}
\providecommand\HyField@AuxAddToCoFields[2]{}
\bibstyle{alphadin}
\select@language{ngerman}
\@writefile{toc}{\select@language{ngerman}}
\@writefile{lof}{\select@language{ngerman}}
\@writefile{lot}{\select@language{ngerman}}
\@writefile{toc}{\contentsline {section}{\numberline {1}Erstellung einer Einstellungs-Activity}{2}{section.2}}
\newlabel{sec:erstellung-einer-einstellungs-activity}{{1}{2}{Erstellung einer Einstellungs-Activity}{section.2}{}}
\@writefile{lof}{\contentsline {figure}{\numberline {1}{\ignorespaces Gegen\IeC {\"u}berstellung der beiden Einstellungs Activitys.\relax }}{2}{figure.caption.3}}
\providecommand*\caption@xref[2]{\@setref\relax\@undefined{#1}}
\newlabel{fig:activity:preferences}{{1}{2}{Gegenüberstellung der beiden Einstellungs Activitys.\relax }{figure.caption.3}{}}
\@writefile{lof}{\contentsline {subfigure}{\numberline{(a)}{\ignorespaces {Finale Version der activity\_preferences.xml vor dem Ersetzen.}}}{2}{figure.caption.3}}
\@writefile{lof}{\contentsline {subfigure}{\numberline{(b)}{\ignorespaces {Aktuelle Version der activity\_menu.xml.}}}{2}{figure.caption.3}}
\@writefile{toc}{\contentsline {section}{\numberline {2}Men\IeC {\"u}f\IeC {\"u}hrung zur Einstellungs-Activity}{3}{section.6}}
\newlabel{sec:menufuhrung-zur-einstellungs-activity}{{2}{3}{Menüführung zur Einstellungs-Activity}{section.6}{}}
\newlabel{lst:main:menu}{{1}{3}{Benutzer Code in der \texttt {main\_menu.xml}}{lstlisting.7}{}}
\@writefile{lol}{\contentsline {lstlisting}{\numberline {1}Benutzer Code in der \texttt  {main\_menu.xml}.}{3}{lstlisting.7}}
\@writefile{lof}{\contentsline {figure}{\numberline {2}{\ignorespaces Aktuelle Version der main\_menu.xml\relax }}{3}{figure.caption.13}}
\newlabel{fig:main:menu}{{2}{3}{Aktuelle Version der main\_menu.xml\relax }{figure.caption.13}{}}
\@writefile{toc}{\contentsline {section}{\numberline {3}App Symbol}{3}{section.14}}
\newlabel{sec:app-symbol}{{3}{3}{App Symbol}{section.14}{}}
\@writefile{lof}{\contentsline {figure}{\numberline {3}{\ignorespaces App-Symbol der App Neglect Detect\relax }}{4}{figure.caption.15}}
\newlabel{fig:ic_launcher}{{3}{4}{App-Symbol der App Neglect Detect\relax }{figure.caption.15}{}}
\@writefile{toc}{\contentsline {section}{\numberline {4}Erstellen der UML Diagramme}{4}{section.16}}
\@writefile{lof}{\contentsline {figure}{\numberline {4}{\ignorespaces UML-Diagramm f\IeC {\"u}r die Activitys.\relax }}{4}{figure.caption.17}}
\newlabel{fig:uml:activitys}{{4}{4}{UML-Diagramm für die Activitys.\relax }{figure.caption.17}{}}
\@writefile{lof}{\contentsline {figure}{\numberline {5}{\ignorespaces UML-Diagramm f\IeC {\"u}r die Komponenten.\relax }}{5}{figure.caption.18}}
\newlabel{fig:uml:components}{{5}{5}{UML-Diagramm für die Komponenten.\relax }{figure.caption.18}{}}
\@writefile{toc}{\contentsline {section}{Abbildungsverzeichnis}{5}{figure.caption.18}}
\global\@namedef{scr@dte@section@lastmaxnumwidth}{11.47185pt}
