Index,	Timestamp,	AccX,	AccY,	AccZ,	OrienX,	OrienY,	OrienZ
1,	05.11.2016_09.44.44,	0.11420710384845734,	-0.3853778839111328,	-0.10114860534667969,	1.023879051208496,	-1.4076402187347412,	0.11343499273061752
2,	05.11.2016_09.44.44,	-0.07143441587686539,	-0.3860597610473633,	-0.23221158981323242,	0.9718533158302307,	-1.3989546298980713,	-0.0
3,	05.11.2016_09.44.44,	-0.1701207160949707,	-0.42238807678222656,	-0.20602965354919434,	1.099711537361145,	-1.4119718074798584,	0.11635516583919525
4,	05.11.2016_09.44.44,	-0.31406450271606445,	-0.29563045501708984,	-0.11769497394561768,	1.1708600521087646,	-1.4172868728637695,	0.21576622128486633
5,	05.11.2016_09.44.45,	-0.46388503909111023,	-0.7329006195068359,	0.48549938201904297,	1.3859025239944458,	-1.4249452352523804,	0.29544082283973694
6,	05.11.2016_09.44.45,	-0.5290390253067017,	-0.7043657302856445,	0.2880622148513794,	1.5853941440582275,	-1.3826262950897217,	0.23684874176979065
7,	05.11.2016_09.44.45,	0.4665186405181885,	-0.23637771606445313,	-1.396682620048523,	1.2595410346984863,	-1.3773951530456543,	0.2977001965045929
8,	05.11.2016_09.44.45,	-0.031969256699085236,	-0.889521598815918,	-0.2339552640914917,	-0.6450738310813904,	-1.5247485637664795,	-0.8478170037269592
9,	05.11.2016_09.44.45,	0.44797322154045105,	-0.6243000030517578,	0.550105094909668,	0.42225146293640137,	-1.3952573537826538,	0.03702011704444885
10,	05.11.2016_09.44.46,	0.1917123645544052,	0.26093387603759766,	1.0581319332122803,	-0.0906413272023201,	-1.3129762411117554,	-0.22740235924720764
11,	05.11.2016_09.44.46,	-0.12240296602249146,	1.9424772262573242,	-0.393863320350647,	0.22274942696094513,	-1.2797882556915283,	-0.0842159166932106
12,	05.11.2016_09.44.46,	-0.3035998046398163,	-0.07600116729736328,	-1.5317834615707397,	0.24998195469379425,	-1.4286624193191528,	-0.16324028372764587
13,	05.11.2016_09.44.46,	0.014612168073654175,	-1.2261734008789063,	-0.19755280017852783,	-0.7384343147277832,	-1.535131573677063,	-0.9048270583152771
14,	05.11.2016_09.44.46,	-0.5124897956848145,	-0.4227104187011719,	0.19588637351989746,	-0.24219875037670135,	-1.3781896829605103,	-0.24781149625778198
15,	05.11.2016_09.44.47,	-0.14491555094718933,	2.242105484008789,	0.11344790458679199,	0.10435869544744492,	-1.3432294130325317,	0.14444157481193542
16,	05.11.2016_09.44.47,	-0.1228702962398529,	-2.0994973182678223,	-0.07651162147521973,	-0.2904200255870819,	-1.3693784475326538,	0.09570671617984772
17,	05.11.2016_09.44.47,	0.3281514644622803,	-1.1285724639892578,	0.5272040367126465,	-0.35697489976882935,	-1.2880885601043701,	0.1331363171339035
18,	05.11.2016_09.44.47,	0.01508796215057373,	1.0448713302612305,	0.8496687412261963,	-0.7790979743003845,	-1.2662630081176758,	-0.09392571449279785
19,	05.11.2016_09.44.47,	-0.07575112581253052,	-1.8990135192871094,	-1.3132990598678589,	-0.193064346909523,	-1.2807406187057495,	0.1461888700723648
20,	05.11.2016_09.44.48,	0.04517535865306854,	-1.3250083923339844,	-0.6807273626327515,	0.27770793437957764,	-1.4484267234802246,	0.46364760398864746
21,	05.11.2016_09.44.48,	-0.4687155783176422,	-0.5202322006225586,	0.2256089448928833,	-0.10383327305316925,	-1.435162901878357,	0.20401796698570251
22,	05.11.2016_09.44.48,	0.8202682733535767,	1.9477977752685547,	-1.170255422592163,	-0.1246594488620758,	-1.3347457647323608,	0.4519294202327728
23,	05.11.2016_09.44.48,	0.04206627607345581,	-0.013363838195800781,	-0.5703566074371338,	-0.21391472220420837,	-1.520949363708496,	0.37433362007141113
24,	05.11.2016_09.44.48,	0.5656602382659912,	-0.8167734146118164,	1.0420018434524536,	0.11432984471321106,	-1.4291441440582275,	0.7162019610404968
25,	05.11.2016_09.44.49,	0.3516629934310913,	1.520155906677246,	0.4395928382873535,	-0.9301478266716003,	-1.271985650062561,	-0.007042137440294027
26,	05.11.2016_09.44.49,	-0.7094199061393738,	-0.3694572448730469,	-1.4132680892944336,	-0.6257087588310242,	-1.3432142734527588,	-0.037296127527952194
27,	05.11.2016_09.44.49,	-0.36541593074798584,	-0.9316024780273438,	-0.15872657299041748,	0.5828615427017212,	-1.4858624935150146,	0.7509291172027588
28,	05.11.2016_09.44.49,	-0.24751928448677063,	0.42352962493896484,	0.4522057771682739,	-0.25797581672668457,	-1.3791451454162598,	0.04542327672243118
29,	05.11.2016_09.44.49,	0.6036655902862549,	-1.4213676452636719,	-1.780527949333191,	-0.5011386871337891,	-1.330519437789917,	-0.04684071242809296
30,	05.11.2016_09.44.50,	0.2741311192512512,	-2.1905465126037598,	0.028596878051757813,	-1.6236732006072998,	-1.432993769645691,	-0.992272138595581
31,	05.11.2016_09.44.50,	0.34686052799224854,	-0.9114370346069336,	0.4655355215072632,	-1.273719072341919,	-1.2904095649719238,	-0.14444157481193542
32,	05.11.2016_09.44.50,	-0.024488545954227448,	1.923853874206543,	-0.37368452548980713,	-1.2525900602340698,	-1.2962307929992676,	-0.1175655648112297
33,	05.11.2016_09.44.50,	-0.4677388072013855,	0.19289302825927734,	-1.2139956951141357,	-0.47471946477890015,	-1.4102199077606201,	-0.02061563730239868
34,	05.11.2016_09.44.50,	-0.4476870894432068,	-0.5876741409301758,	-0.03336167335510254,	0.18334771692752838,	-1.4843746423721313,	0.32175055146217346
35,	05.11.2016_09.44.51,	-0.8020827174186707,	0.7297935485839844,	0.7343037128448486,	-0.11132071167230606,	-1.359879970550537,	0.12927500903606415
36,	05.11.2016_09.44.51,	0.965427041053772,	-2.5705623626708984,	-1.64845609664917,	-0.38762232661247253,	-1.290621042251587,	0.27475041151046753
37,	05.11.2016_09.44.51,	0.42055532336235046,	-1.8146333694458008,	0.22944915294647217,	-1.5570482015609741,	-1.4083672761917114,	-0.5549957752227783
38,	05.11.2016_09.44.51,	0.895459771156311,	-0.6906023025512695,	0.3039090633392334,	-1.550869107246399,	-1.2993313074111938,	-0.07067853957414627
39,	05.11.2016_09.44.51,	0.20136839151382446,	1.2281064987182617,	1.0154786109924316,	-1.5440881252288818,	-1.3302363157272339,	-0.2830957770347595
40,	05.11.2016_09.44.52,	-0.3077741265296936,	-1.4217214584350586,	-1.4165189266204834,	-0.9197855591773987,	-1.2979859113693237,	0.03163501247763634
41,	05.11.2016_09.44.52,	-0.4977174401283264,	-0.7839832305908203,	-0.24811625480651855,	0.45234552025794983,	-1.4850332736968994,	0.8238407373428345
42,	05.11.2016_09.44.52,	-0.6566168665885925,	-0.4365367889404297,	0.1836395263671875,	0.19031383097171783,	-1.3560725450515747,	0.41012734174728394
43,	05.11.2016_09.44.52,	0.695572018623352,	-0.9321117401123047,	-0.659408450126648,	0.16489534080028534,	-1.3069168329238892,	0.3733019232749939
44,	05.11.2016_09.44.52,	0.3274328112602234,	-1.824716567993164,	0.050760507583618164,	-0.8867720365524292,	-1.4044393301010132,	-0.32175058126449585
45,	05.11.2016_09.44.53,	0.4789867401123047,	-0.8938093185424805,	0.5555170774459839,	-0.7497342824935913,	-1.3274493217468262,	-0.029694238677620888
46,	05.11.2016_09.44.53,	0.471466600894928,	-0.47295475006103516,	0.5783839225769043,	-0.8724966049194336,	-1.3025859594345093,	-0.07187596708536148
47,	05.11.2016_09.44.53,	-0.08309972286224365,	-0.8540678024291992,	-0.6412907838821411,	-0.6130467653274536,	-1.2943750619888306,	-0.02221856266260147
48,	05.11.2016_09.44.53,	-0.6345838308334351,	-0.48505496978759766,	-0.5430608987808228,	0.1307111233472824,	-1.405185341835022,	0.3341980278491974
49,	05.11.2016_09.44.53,	-0.3494894206523895,	-0.5542488098144531,	-0.08284342288970947,	0.5364317893981934,	-1.3980764150619507,	0.5713374614715576
50,	05.11.2016_09.44.54,	-0.15671439468860626,	0.2622718811035156,	0.22595763206481934,	0.17889830470085144,	-1.3612778186798096,	0.30288487672805786
51,	05.11.2016_09.44.54,	0.6100305318832397,	-0.730555534362793,	-0.7033413648605347,	-0.20224381983280182,	-1.3134331703186035,	0.1492575854063034
52,	05.11.2016_09.44.54,	0.5210556983947754,	-0.03518199920654297,	-0.07996988296508789,	-0.8139984607696533,	-1.3913718461990356,	-0.24207168817520142
53,	05.11.2016_09.44.54,	0.7285956144332886,	-0.24821090698242188,	0.17645835876464844,	-0.813086986541748,	-1.3756260871887207,	-0.19342732429504395
