Index,	Timestamp,	AccX,	AccY,	AccZ,	OrienX,	OrienY,	OrienZ
1,	05.11.2016_10.39.01,	0.018009543418884277,	-0.34264469146728516,	-0.033148765563964844,	2.614912986755371,	-1.3820955753326416,	-0.032597143203020096
2,	05.11.2016_10.39.01,	0.03391556441783905,	-0.4752960205078125,	-0.17437565326690674,	2.5599758625030518,	-1.3783015012741089,	-0.10598434507846832
3,	05.11.2016_10.39.01,	-0.06104659289121628,	-0.3753633499145508,	0.0720435380935669,	2.5772688388824463,	-1.3893563747406006,	-0.12576942145824432
4,	05.11.2016_10.39.01,	0.010805457830429077,	-0.3536863327026367,	-0.09373617172241211,	2.6134815216064453,	-1.3643035888671875,	-0.059336207807064056
5,	05.11.2016_10.39.02,	-0.037061601877212524,	-0.3529491424560547,	-0.07925820350646973,	2.5541508197784424,	-1.379893183708191,	-0.10711531341075897
6,	05.11.2016_10.39.02,	-0.022970691323280334,	-0.36795711517333984,	-0.0980149507522583,	2.574131727218628,	-1.3784514665603638,	-0.0743308886885643
7,	05.11.2016_10.39.02,	-0.019581347703933716,	-0.3830690383911133,	-0.13586676120758057,	2.5498781204223633,	-1.3777247667312622,	-0.09545371681451797
8,	05.11.2016_10.39.02,	-0.008158162236213684,	-0.34017276763916016,	-0.06211662292480469,	2.590087413787842,	-1.379120111465454,	-0.10711531341075897
9,	05.11.2016_10.39.02,	-0.017729148268699646,	-0.3756103515625,	-0.09649407863616943,	2.5583746433258057,	-1.369796872138977,	-0.11177704483270645
10,	05.11.2016_10.39.03,	-0.02360387146472931,	-0.3535308837890625,	-0.0547182559967041,	2.5729384422302246,	-1.3711787462234497,	-0.10272986441850662
11,	05.11.2016_10.39.03,	-0.02354249358177185,	-0.3915290832519531,	-0.05622684955596924,	2.596126079559326,	-1.365838885307312,	-0.08975817263126373
12,	05.11.2016_10.39.03,	-0.024821430444717407,	-0.35636425018310547,	0.05503213405609131,	2.6080431938171387,	-1.3650106191635132,	-0.08975816518068314
13,	05.11.2016_10.39.03,	0.019834429025650024,	-0.3773775100708008,	-0.04939568042755127,	2.6237952709198,	-1.3559749126434326,	-0.08550529181957245
14,	05.11.2016_10.39.03,	0.02305704355239868,	-0.4000892639160156,	-0.06824064254760742,	2.5687429904937744,	-1.366776943206787,	-0.12062367051839828
15,	05.11.2016_10.39.04,	0.014606460928916931,	-0.4049816131591797,	0.0531313419342041,	2.5331294536590576,	-1.3700698614120483,	-0.13322675228118896
16,	05.11.2016_10.39.04,	0.07412774860858917,	-0.4099559783935547,	0.15483105182647705,	2.5357346534729004,	-1.3601927757263184,	-0.12676753103733063
17,	05.11.2016_10.39.04,	0.049109041690826416,	-0.39700889587402344,	-0.11874091625213623,	2.5428354740142822,	-1.351509690284729,	-0.1498124599456787
18,	05.11.2016_10.39.04,	0.07435104250907898,	-0.36575984954833984,	-0.005648255348205566,	2.506587266921997,	-1.3837121725082397,	-0.16514867544174194
19,	05.11.2016_10.39.04,	0.0879543125629425,	-0.38930511474609375,	-0.0552823543548584,	2.521315574645996,	-1.3762789964675903,	-0.16859693825244904
20,	05.11.2016_10.39.05,	0.05392813682556152,	-0.40514278411865234,	-0.03265202045440674,	2.488187551498413,	-1.383009433746338,	-0.19739556312561035
21,	05.11.2016_10.39.05,	0.05767813324928284,	-0.38344573974609375,	-0.04682028293609619,	2.5382795333862305,	-1.3790775537490845,	-0.1827215701341629
22,	05.11.2016_10.39.05,	0.07739406824111938,	-0.4188251495361328,	-0.007671833038330078,	2.4968416690826416,	-1.3794652223587036,	-0.1827215552330017
23,	05.11.2016_10.39.05,	0.06904737651348114,	-0.41553306579589844,	-0.06466972827911377,	2.5278937816619873,	-1.3727823495864868,	-0.1770731657743454
24,	05.11.2016_10.39.05,	0.031061798334121704,	-0.3759326934814453,	0.10094344615936279,	2.5309176445007324,	-1.3770687580108643,	-0.17037510871887207
25,	05.11.2016_10.39.05,	0.05078311264514923,	-0.45177364349365234,	0.058545708656311035,	2.56854510307312,	-1.3607791662216187,	-0.13640260696411133
26,	05.11.2016_10.39.05,	0.04935716092586517,	-0.3942384719848633,	-0.01827216148376465,	2.5423052310943604,	-1.362747073173523,	-0.1488899290561676
27,	05.11.2016_10.39.05,	0.08429187536239624,	-0.45162487030029297,	0.0583949089050293,	2.531095027923584,	-1.3718751668930054,	-0.15499673783779144
28,	05.11.2016_10.39.05,	-0.012436285614967346,	-0.35677528381347656,	-0.0707855224609375,	2.5277974605560303,	-1.3621153831481934,	-0.168390154838562
29,	05.11.2016_10.39.05,	0.07920637726783752,	-0.4335794448852539,	-0.14587557315826416,	2.5147218704223633,	-1.3794257640838623,	-0.12832322716712952
30,	05.11.2016_10.39.05,	0.002977117896080017,	-0.35648155212402344,	0.004788994789123535,	2.463233470916748,	-1.3842227458953857,	-0.18873776495456696
31,	05.11.2016_10.39.05,	0.03921118378639221,	-0.4329652786254883,	-0.1488426923751831,	2.499208688735962,	-1.3712815046310425,	-0.13322675228118896
32,	05.11.2016_10.39.05,	0.07816082239151001,	-0.4330577850341797,	-0.1292945146560669,	2.461890935897827,	-1.3849347829818726,	-0.1669701635837555
33,	05.11.2016_10.39.05,	0.02350275218486786,	-0.374786376953125,	-0.018944978713989258,	2.448418617248535,	-1.3822475671768188,	-0.1866893321275711
34,	05.11.2016_10.39.05,	0.024926498532295227,	-0.37269115447998047,	0.1998811960220337,	2.502337694168091,	-1.372573733329773,	-0.14481249451637268
35,	05.11.2016_10.39.06,	0.04212619364261627,	-0.40952014923095703,	0.2308499813079834,	2.5313429832458496,	-1.3490312099456787,	-0.12891077995300293
36,	05.11.2016_10.39.06,	0.020726710557937622,	-0.41013622283935547,	0.023623347282409668,	2.529763698577881,	-1.3439618349075317,	-0.13552770018577576
37,	05.11.2016_10.39.06,	0.0382024347782135,	-0.39240550994873047,	-0.16036653518676758,	2.5211479663848877,	-1.3658459186553955,	-0.14048264920711517
38,	05.11.2016_10.39.06,	0.05531302094459534,	-0.35506248474121094,	-0.25087451934814453,	2.485348701477051,	-1.3856885433197021,	-0.1669701486825943
39,	05.11.2016_10.39.06,	0.0738740861415863,	-0.3537130355834961,	-0.047083258628845215,	2.465862989425659,	-1.395926833152771,	-0.1882214993238449
40,	05.11.2016_10.39.06,	-0.0018169879913330078,	-0.40797901153564453,	0.2237001657485962,	2.4921863079071045,	-1.3739784955978394,	-0.1770731508731842
41,	05.11.2016_10.39.06,	-0.020228251814842224,	-0.36919116973876953,	0.10622859001159668,	2.558743953704834,	-1.344460129737854,	-0.11763615906238556
42,	05.11.2016_10.39.06,	-0.003209918737411499,	-0.3899211883544922,	-0.057805657386779785,	2.5615603923797607,	-1.3573484420776367,	-0.11487660557031631
43,	05.11.2016_10.39.06,	0.011932581663131714,	-0.39240550994873047,	-0.2551701068878174,	2.5335140228271484,	-1.3744274377822876,	-0.13599741458892822
44,	05.11.2016_10.39.06,	-0.009067684412002563,	-0.4304695129394531,	-0.198716402053833,	2.4943130016326904,	-1.3959227800369263,	-0.16514867544174194
45,	05.11.2016_10.39.06,	-0.011379331350326538,	-0.41019439697265625,	0.06398415565490723,	2.5087664127349854,	-1.3895450830459595,	-0.1483278125524521
46,	05.11.2016_10.39.06,	0.06359320878982544,	-0.40973758697509766,	0.11932659149169922,	2.5445973873138428,	-1.3621654510498047,	-0.12800905108451843
47,	05.11.2016_10.39.06,	-0.030663445591926575,	-0.4112129211425781,	0.030945658683776855,	2.5103814601898193,	-1.355117917060852,	-0.16202856600284576
48,	05.11.2016_10.39.06,	-0.08698971569538116,	-0.3941373825073242,	-0.14999592304229736,	2.5338876247406006,	-1.3663649559020996,	-0.12062366306781769
49,	05.11.2016_10.39.06,	-0.10787484049797058,	-0.39479541778564453,	-0.16548454761505127,	2.534074544906616,	-1.387294888496399,	-0.10078099370002747
50,	05.11.2016_10.39.06,	-0.017067164182662964,	-0.3938722610473633,	0.07941138744354248,	2.5669872760772705,	-1.38948392868042,	-0.09065988659858704
51,	05.11.2016_10.39.06,	-9.010434150695801E-4,	-0.37517261505126953,	-0.013569116592407227,	2.556793689727783,	-1.3625857830047607,	-0.12800906598567963
52,	05.11.2016_10.39.06,	-0.019809603691101074,	-0.3963441848754883,	-0.09884679317474365,	2.530111074447632,	-1.372573733329773,	-0.14481249451637268
53,	05.11.2016_10.39.06,	-0.019636154174804688,	-0.4166393280029297,	-0.1312105655670166,	2.5249598026275635,	-1.3823457956314087,	-0.141897052526474
54,	05.11.2016_10.39.06,	-0.05700358748435974,	-0.4158821105957031,	0.056223392486572266,	2.519728183746338,	-1.3859363794326782,	-0.14504168927669525
55,	05.11.2016_10.39.06,	-0.07449468970298767,	-0.3387880325317383,	0.14924538135528564,	2.571326971054077,	-1.366594672203064,	-0.1106572300195694
56,	05.11.2016_10.39.06,	-0.037180110812187195,	-0.3781766891479492,	0.0018230676651000977,	2.587897300720215,	-1.3586167097091675,	-0.09585914015769958
57,	05.11.2016_10.39.06,	0.017088353633880615,	-0.41797542572021484,	-0.06648766994476318,	2.5616586208343506,	-1.3731077909469604,	-0.12435499578714371
58,	05.11.2016_10.39.06,	-0.040098801255226135,	-0.3992023468017578,	0.0887000560760498,	2.5281999111175537,	-1.3793753385543823,	-0.1616213470697403
59,	05.11.2016_10.39.06,	-0.0578596293926239,	-0.3420858383178711,	0.09031808376312256,	2.5711023807525635,	-1.3648027181625366,	-0.11942892521619797
60,	05.11.2016_10.39.06,	-0.019326776266098022,	-0.36296939849853516,	0.09943830966949463,	2.5643842220306396,	-1.3662675619125366,	-0.10955952107906342
61,	05.11.2016_10.39.06,	0.056367069482803345,	-0.4230184555053711,	-0.039870262145996094,	2.5498669147491455,	-1.3653851747512817,	-0.12927499413490295
62,	05.11.2016_10.39.06,	-0.0549565851688385,	-0.38678550720214844,	-0.04843759536743164,	2.5187463760375977,	-1.3786888122558594,	-0.1827215701341629
63,	05.11.2016_10.39.06,	-0.0732739269733429,	-0.3296785354614258,	0.04911684989929199,	2.5641307830810547,	-1.3832496404647827,	-0.12029547989368439
64,	05.11.2016_10.39.06,	-0.0767781138420105,	-0.31057262420654297,	0.06905245780944824,	2.582791328430176,	-1.3747475147247314,	-0.10379233956336975
65,	05.11.2016_10.39.06,	-0.04365648329257965,	-0.35011863708496094,	0.03820908069610596,	2.5820152759552,	-1.3731753826141357,	-0.10272986441850662
66,	05.11.2016_10.39.06,	0.08520781993865967,	-0.3909730911254883,	-0.2344372272491455,	2.5624256134033203,	-1.3758702278137207,	-0.1256503313779831
67,	05.11.2016_10.39.06,	0.06465613842010498,	-0.3339405059814453,	-0.04033839702606201,	2.440962553024292,	-1.4021738767623901,	-0.23317980766296387
68,	05.11.2016_10.39.06,	0.006761878728866577,	-0.35250282287597656,	0.0905756950378418,	2.4845659732818604,	-1.3841418027877808,	-0.19739554822444916
69,	05.11.2016_10.39.06,	-0.11095394194126129,	-0.27683353424072266,	-0.057038187980651855,	2.5288944244384766,	-1.3711161613464355,	-0.15342392027378082
70,	05.11.2016_10.39.06,	0.12713205814361572,	-0.46853065490722656,	-0.016060948371887207,	2.5571937561035156,	-1.3898640871047974,	-0.10078099370002747
71,	05.11.2016_10.39.06,	-0.00866556167602539,	-0.39187145233154297,	-0.035170674324035645,	2.4576141834259033,	-1.3777772188186646,	-0.2372068166732788
72,	05.11.2016_10.39.06,	-0.013994336128234863,	-0.44995975494384766,	-0.18405425548553467,	2.5203535556793213,	-1.3840910196304321,	-0.16514867544174194
73,	05.11.2016_10.39.06,	0.002266913652420044,	-0.4700326919555664,	-0.1401759386062622,	2.4967329502105713,	-1.39884352684021,	-0.18092644214630127
74,	05.11.2016_10.39.06,	0.13350698351860046,	-0.4323558807373047,	-0.13620352745056152,	2.4944167137145996,	-1.394139051437378,	-0.1882215142250061
75,	05.11.2016_10.39.06,	0.07892915606498718,	-0.3557310104370117,	0.05476677417755127,	2.4525160789489746,	-1.3916723728179932,	-0.2672591209411621
76,	05.11.2016_10.39.06,	-0.03188258409500122,	-0.3367576599121094,	0.016745328903198242,	2.5112099647521973,	-1.375177264213562,	-0.20963984727859497
77,	05.11.2016_10.39.06,	-0.06818242371082306,	-0.3375720977783203,	-0.05570662021636963,	2.5526342391967773,	-1.3816065788269043,	-0.15101535618305206
78,	05.11.2016_10.39.06,	0.07843536138534546,	-0.41541099548339844,	-0.23929977416992188,	2.5590028762817383,	-1.3900446891784668,	-0.13552771508693695
79,	05.11.2016_10.39.06,	0.10986381769180298,	-0.4156513214111328,	-0.21758592128753662,	2.4543213844299316,	-1.4052644968032837,	-0.2510026693344116
80,	05.11.2016_10.39.06,	0.068145751953125,	-0.41445064544677734,	-0.012956500053405762,	2.440053939819336,	-1.402272343635559,	-0.27159959077835083
81,	05.11.2016_10.39.06,	0.01050037145614624,	-0.3751697540283203,	0.07744276523590088,	2.4991295337677,	-1.3818022012710571,	-0.21866893768310547
82,	05.11.2016_10.39.06,	0.028909116983413696,	-0.3566436767578125,	0.00444638729095459,	2.537555694580078,	-1.3739784955978394,	-0.1770731508731842
83,	05.11.2016_10.39.06,	0.008410245180130005,	-0.3579740524291992,	-0.1411421298980713,	2.517603635787964,	-1.3818142414093018,	-0.19528140127658844
84,	05.11.2016_10.39.06,	0.06448298692703247,	-0.4344291687011719,	-0.16093170642852783,	2.5000669956207275,	-1.3978545665740967,	-0.2020251750946045
85,	05.11.2016_10.39.07,	-0.013177454471588135,	-0.4144783020019531,	-0.05025303363800049,	2.4706571102142334,	-1.3970890045166016,	-0.23923158645629883
86,	05.11.2016_10.39.07,	0.09679725766181946,	-0.39476966857910156,	-0.033261656761169434,	2.5044448375701904,	-1.3873170614242554,	-0.17985348403453827
87,	05.11.2016_10.39.07,	0.09401348233222961,	-0.41364192962646484,	-0.015149593353271484,	2.457862138748169,	-1.3832170963287354,	-0.24233317375183105
88,	05.11.2016_10.39.07,	0.07250919938087463,	-0.4133634567260742,	0.022054553031921387,	2.457685708999634,	-1.3808932304382324,	-0.23974311351776123
89,	05.11.2016_10.39.07,	0.050865232944488525,	-0.4126863479614258,	-0.03867959976196289,	2.472571849822998,	-1.3774608373641968,	-0.22441600263118744
90,	05.11.2016_10.39.07,	0.08439546823501587,	-0.3544940948486328,	0.03481185436248779,	2.4703478813171387,	-1.383756399154663,	-0.221047043800354
91,	05.11.2016_10.39.07,	0.07814472913742065,	-0.3353157043457031,	-0.04072415828704834,	2.47139048576355,	-1.3762439489364624,	-0.23228898644447327
92,	05.11.2016_10.39.07,	0.09163928031921387,	-0.3929929733276367,	-0.09586751461029053,	2.4569451808929443,	-1.3843477964401245,	-0.24233315885066986
93,	05.11.2016_10.39.07,	0.049197882413864136,	-0.39285850524902344,	-1.1920928955078125E-6,	2.417048454284668,	-1.3885304927825928,	-0.26132598519325256
94,	05.11.2016_10.39.07,	0.010835140943527222,	-0.37381935119628906,	-0.09513270854949951,	2.451997995376587,	-1.3797959089279175,	-0.2267988622188568
95,	05.11.2016_10.39.07,	-0.009055137634277344,	-0.3734302520751953,	-0.0205155611038208,	2.450629711151123,	-1.3907952308654785,	-0.21743744611740112
96,	05.11.2016_10.39.07,	0.04515036940574646,	-0.3914175033569336,	-0.0071440935134887695,	2.4650821685791016,	-1.3833887577056885,	-0.19739556312561035
97,	05.11.2016_10.39.07,	0.060153305530548096,	-0.4093055725097656,	0.005897164344787598,	2.444415807723999,	-1.3797959089279175,	-0.2267988622188568
98,	05.11.2016_10.39.07,	0.05751127004623413,	-0.3893918991088867,	0.0597381591796875,	2.440220594406128,	-1.3770062923431396,	-0.23472261428833008
99,	05.11.2016_10.39.07,	0.0377655029296875,	-0.3707304000854492,	-0.05235850811004639,	2.4501731395721436,	-1.3715819120407104,	-0.22756747901439667
100,	05.11.2016_10.39.07,	0.05531755089759827,	-0.3716773986816406,	-0.12343990802764893,	2.4370195865631104,	-1.384063720703125,	-0.23171685636043549
101,	05.11.2016_10.39.07,	0.07251957058906555,	-0.4293832778930664,	-0.17913901805877686,	2.4203553199768066,	-1.3913410902023315,	-0.2532657980918884
102,	05.11.2016_10.39.07,	-0.002923041582107544,	-0.332061767578125,	0.0419236421585083,	2.4002654552459717,	-1.3955551385879517,	-0.2734609842300415
103,	05.11.2016_10.39.07,	-0.0029550492763519287,	-0.3298511505126953,	0.16392159461975098,	2.4785759449005127,	-1.3759721517562866,	-0.19944055378437042
104,	05.11.2016_10.39.07,	-0.004680544137954712,	-0.3285980224609375,	0.10000467300415039,	2.499199151992798,	-1.3624024391174316,	-0.18594567477703094
105,	05.11.2016_10.39.07,	0.10669863224029541,	-0.3866281509399414,	-0.04937744140625,	2.4906294345855713,	-1.3682135343551636,	-0.19150172173976898
106,	05.11.2016_10.39.07,	0.18339183926582336,	-0.4836721420288086,	-0.13822245597839355,	2.43818736076355,	-1.3797636032104492,	-0.2709468603134155
107,	05.11.2016_10.39.07,	0.03118935227394104,	-0.42646312713623047,	-0.27113866806030273,	2.387173652648926,	-1.3850725889205933,	-0.3287926912307739
108,	05.11.2016_10.39.07,	0.032728105783462524,	-0.3284587860107422,	0.09944760799407959,	2.4192676544189453,	-1.4044119119644165,	-0.2629947364330292
109,	05.11.2016_10.39.07,	-0.026785582304000854,	-0.3457059860229492,	0.12787652015686035,	2.4906790256500244,	-1.3674237728118896,	-0.21109333634376526
110,	05.11.2016_10.39.07,	0.027285337448120117,	-0.4228353500366211,	-0.11763441562652588,	2.5186920166015625,	-1.3642840385437012,	-0.17809292674064636
111,	05.11.2016_10.39.07,	0.09973171353340149,	-0.44257259368896484,	-0.2668243646621704,	2.461914539337158,	-1.3868322372436523,	-0.23684875667095184
112,	05.11.2016_10.39.07,	0.0984603762626648,	-0.403076171875,	-0.13890814781188965,	2.3943731784820557,	-1.3998531103134155,	-0.306484580039978
113,	05.11.2016_10.39.07,	0.005924850702285767,	-0.3440389633178711,	0.12007725238800049,	2.4246628284454346,	-1.3870819807052612,	-0.282900869846344
114,	05.11.2016_10.39.07,	-0.01089373230934143,	-0.32465457916259766,	0.1375117301940918,	2.5191898345947266,	-1.3635467290878296,	-0.19739553332328796
115,	05.11.2016_10.39.07,	0.1010521650314331,	-0.4218711853027344,	-0.198846697807312,	2.5288546085357666,	-1.3624024391174316,	-0.18594567477703094
116,	05.11.2016_10.39.07,	0.08055105805397034,	-0.40435028076171875,	-0.24720609188079834,	2.4206018447875977,	-1.3924951553344727,	-0.292561799287796
117,	05.11.2016_10.39.07,	0.02366727590560913,	-0.3865365982055664,	-0.3166769742965698,	2.4154932498931885,	-1.3992172479629517,	-0.29145678877830505
118,	05.11.2016_10.39.07,	-0.01309359073638916,	-0.3468160629272461,	-0.15228259563446045,	2.424560070037842,	-1.4089773893356323,	-0.26958906650543213
119,	05.11.2016_10.39.07,	0.06295520067214966,	-0.3642454147338867,	0.10667753219604492,	2.4765233993530273,	-1.3931071758270264,	-0.2199142873287201
120,	05.11.2016_10.39.07,	0.044772326946258545,	-0.36409759521484375,	0.029054880142211914,	2.4927818775177,	-1.3638110160827637,	-0.22827377915382385
121,	05.11.2016_10.39.07,	-0.03117343783378601,	-0.36552906036376953,	-0.17405247688293457,	2.5048670768737793,	-1.371982216835022,	-0.22756747901439667
122,	05.11.2016_10.39.07,	0.06541791558265686,	-0.40459442138671875,	-0.3233516216278076,	2.5002853870391846,	-1.3951318264007568,	-0.21109332144260406
123,	05.11.2016_10.39.07,	0.04724836349487305,	-0.36525917053222656,	-0.02265608310699463,	2.4227514266967773,	-1.4075243473052979,	-0.2938693165779114
124,	05.11.2016_10.39.07,	0.04866147041320801,	-0.3639049530029297,	0.02720654010772705,	2.4580512046813965,	-1.3777871131896973,	-0.23472261428833008
125,	05.11.2016_10.39.07,	0.012269258499145508,	-0.3447103500366211,	0.00743865966796875,	2.468330144882202,	-1.371982216835022,	-0.22756747901439667
126,	05.11.2016_10.39.07,	0.012606501579284668,	-0.3837604522705078,	-0.026940107345581055,	2.479273796081543,	-1.375177264213562,	-0.20963984727859497
127,	05.11.2016_10.39.07,	0.013498067855834961,	-0.38458824157714844,	-0.25250887870788574,	2.473323345184326,	-1.3782850503921509,	-0.2140606790781021
128,	05.11.2016_10.39.07,	0.07043486833572388,	-0.34576892852783203,	-0.10194003582000732,	2.4288182258605957,	-1.4016972780227661,	-0.244978666305542
129,	05.11.2016_10.39.07,	0.06956905126571655,	-0.36397266387939453,	-0.04940617084503174,	2.443882942199707,	-1.3854111433029175,	-0.25564491748809814
130,	05.11.2016_10.39.07,	0.050715893507003784,	-0.3636598587036133,	-0.012838363647460938,	2.455441951751709,	-1.3792452812194824,	-0.24756264686584473
131,	05.11.2016_10.39.07,	0.05053544044494629,	-0.3832511901855469,	-0.08706867694854736,	2.4625680446624756,	-1.375852108001709,	-0.23228898644447327
132,	05.11.2016_10.39.07,	0.06929171085357666,	-0.4029712677001953,	-0.19885611534118652,	2.4485859870910645,	-1.3832170963287354,	-0.24233317375183105
133,	05.11.2016_10.39.07,	-0.024711400270462036,	-0.3453330993652344,	-0.12356841564178467,	2.4169037342071533,	-1.39397394657135,	-0.27032533288002014
134,	05.11.2016_10.39.07,	-0.043392688035964966,	-0.3441457748413086,	0.0040367841720581055,	2.4846644401550293,	-1.3896241188049316,	-0.20401796698570251
135,	05.11.2016_10.39.08,	0.03195318579673767,	-0.3816566467285156,	-0.0191190242767334,	2.5147902965545654,	-1.376326560974121,	-0.17891716957092285
136,	05.11.2016_10.39.08,	0.08595335483551025,	-0.41974639892578125,	-0.019564509391784668,	2.47257924079895,	-1.3759071826934814,	-0.22208188474178314
137,	05.11.2016_10.39.08,	0.0480974018573761,	-0.40103816986083984,	-0.13219952583312988,	2.450399398803711,	-1.3737070560455322,	-0.2525542676448822
138,	05.11.2016_10.39.08,	0.010148882865905762,	-0.343475341796875,	-0.13282382488250732,	2.44342303276062,	-1.3867244720458984,	-0.2476813644170761
139,	05.11.2016_10.39.08,	-0.00888034701347351,	-0.3807544708251953,	-0.004270434379577637,	2.432014226913452,	-1.3887736797332764,	-0.2259591966867447
140,	05.11.2016_10.39.08,	0.047417014837265015,	-0.4179401397705078,	0.009149551391601563,	2.4646377563476563,	-1.374792456626892,	-0.19944055378437042
141,	05.11.2016_10.39.08,	0.04633447527885437,	-0.4175567626953125,	0.06479477882385254,	2.4666218757629395,	-1.3707751035690308,	-0.22756749391555786
142,	05.11.2016_10.39.08,	0.026074498891830444,	-0.3796710968017578,	-0.047655582427978516,	2.4764580726623535,	-1.364940881729126,	-0.22082878649234772
143,	05.11.2016_10.39.08,	-0.011361777782440186,	-0.37996578216552734,	-0.14203524589538574,	2.4634346961975098,	-1.3778514862060547,	-0.22441601753234863
144,	05.11.2016_10.39.08,	-0.011165380477905273,	-0.3596925735473633,	-0.03310263156890869,	2.442976236343384,	-1.3884738683700562,	-0.21501486003398895
145,	05.11.2016_10.39.08,	0.044598162174224854,	-0.3967275619506836,	-0.03949844837188721,	2.462879180908203,	-1.3771365880966187,	-0.20152775943279266
146,	05.11.2016_10.39.08,	0.0227583646774292,	-0.3765878677368164,	0.08992576599121094,	2.4401118755340576,	-1.3750637769699097,	-0.23228897154331207
147,	05.11.2016_10.39.08,	0.09535905718803406,	-0.472320556640625,	-0.04349076747894287,	2.457775354385376,	-1.3623149394989014,	-0.20699217915534973
148,	05.11.2016_10.39.08,	-0.05676451325416565,	-0.30210399627685547,	-0.20463883876800537,	2.4060769081115723,	-1.3719898462295532,	-0.26260906457901
149,	05.11.2016_10.39.08,	0.05580604076385498,	-0.4177255630493164,	-0.18126726150512695,	2.445805549621582,	-1.3965985774993896,	-0.19968387484550476
150,	05.11.2016_10.39.08,	0.054666668176651,	-0.34060001373291016,	-0.08797931671142578,	2.3989195823669434,	-1.3897310495376587,	-0.2642599940299988
151,	05.11.2016_10.39.08,	0.014620929956436157,	-0.45465660095214844,	-0.034737467765808105,	2.4172298908233643,	-1.3815574645996094,	-0.2502005398273468
152,	05.11.2016_10.39.08,	0.03309667110443115,	-0.4167490005493164,	-0.18570435047149658,	2.481023073196411,	-1.3743211030960083,	-0.22208189964294434
153,	05.11.2016_10.39.08,	0.03326237201690674,	-0.3785429000854492,	-0.16604924201965332,	2.4434802532196045,	-1.3902454376220703,	-0.25326576828956604
154,	05.11.2016_10.39.08,	0.05178117752075195,	-0.3775625228881836,	0.02042841911315918,	2.4341630935668945,	-1.3890372514724731,	-0.25044310092926025
155,	05.11.2016_10.39.08,	0.014121323823928833,	-0.3768463134765625,	0.05480360984802246,	2.4624712467193604,	-1.3691902160644531,	-0.23515096306800842
156,	05.11.2016_10.39.08,	0.01398235559463501,	-0.3771400451660156,	0.01807987689971924,	2.4836063385009766,	-1.3661953210830688,	-0.21109335124492645
157,	05.11.2016_10.39.08,	0.033035725355148315,	-0.3783693313598633,	-0.1286146640777588,	2.4911820888519287,	-1.370078206062317,	-0.2153576910495758
158,	05.11.2016_10.39.08,	0.05180281400680542,	-0.3602142333984375,	-0.29560625553131104,	2.4557719230651855,	-1.3851572275161743,	-0.244978666305542
159,	05.11.2016_10.39.08,	0.0341552197933197,	-0.37859439849853516,	-0.012739062309265137,	2.40211820602417,	-1.4024063348770142,	-0.2833079695701599
160,	05.11.2016_10.39.08,	-0.001567840576171875,	-0.3581886291503906,	0.018382668495178223,	2.4699862003326416,	-1.3735196590423584,	-0.2299044281244278
161,	05.11.2016_10.39.08,	0.019085228443145752,	-0.3577718734741211,	0.07332468032836914,	2.4911279678344727,	-1.370896339416504,	-0.2053953856229782
162,	05.11.2016_10.39.08,	0.020241856575012207,	-0.33907318115234375,	0.09464168548583984,	2.4748337268829346,	-1.364669919013977,	-0.20902295410633087
163,	05.11.2016_10.39.08,	0.01958000659942627,	-0.39793872833251953,	-0.3000035285949707,	2.477595090866089,	-1.3631500005722046,	-0.20699219405651093
164,	05.11.2016_10.39.08,	0.03964170813560486,	-0.41614818572998047,	-0.13281798362731934,	2.4197874069213867,	-1.4028019905090332,	-0.25981438159942627
165,	05.11.2016_10.39.08,	0.05852130055427551,	-0.3765239715576172,	-0.04395246505737305,	2.447535514831543,	-1.3844027519226074,	-0.244978666305542
166,	05.11.2016_10.39.08,	0.07842996716499329,	-0.37558841705322266,	0.04672896862030029,	2.4572410583496094,	-1.3749903440475464,	-0.24244701862335205
167,	05.11.2016_10.39.08,	0.00314486026763916,	-0.37578487396240234,	-0.009968400001525879,	2.4663267135620117,	-1.3648632764816284,	-0.24017101526260376
168,	05.11.2016_10.39.08,	0.004562169313430786,	-0.3957548141479492,	-0.10173249244689941,	2.4862301349639893,	-1.3724403381347656,	-0.20749621093273163
169,	05.11.2016_10.39.08,	0.04349035024642944,	-0.3959617614746094,	-0.06246614456176758,	2.451359272003174,	-1.3818022012710571,	-0.21866893768310547
170,	05.11.2016_10.39.08,	0.026068955659866333,	-0.35761165618896484,	-0.08220136165618896,	2.442605495452881,	-1.3770062923431396,	-0.23472261428833008
171,	05.11.2016_10.39.08,	0.046199291944503784,	-0.39556312561035156,	-0.02682197093963623,	2.4462461471557617,	-1.380180835723877,	-0.22679883241653442
172,	05.11.2016_10.39.08,	-0.008545279502868652,	-0.37606048583984375,	0.047394752502441406,	2.4907326698303223,	-1.3731213808059692,	-0.2299044281244278
173,	05.11.2016_10.39.08,	0.010730922222137451,	-0.39504051208496094,	-0.010995984077453613,	2.525050401687622,	-1.366989254951477,	-0.19150172173976898
174,	05.11.2016_10.39.08,	0.029659807682037354,	-0.3759269714355469,	-0.029900550842285156,	2.508911371231079,	-1.3720396757125854,	-0.20749621093273163
175,	05.11.2016_10.39.08,	-0.008126020431518555,	-0.3570232391357422,	-0.12445175647735596,	2.4395594596862793,	-1.3739638328552246,	-0.21979506313800812
176,	05.11.2016_10.39.08,	-0.007793724536895752,	-0.3756732940673828,	-0.06970667839050293,	2.4377665519714355,	-1.384938359260559,	-0.21032588183879852
177,	05.11.2016_10.39.08,	0.011456310749053955,	-0.39402294158935547,	0.04097139835357666,	2.456538200378418,	-1.3786985874176025,	-0.20365852117538452
178,	05.11.2016_10.39.08,	0.08855929970741272,	-0.43222522735595703,	-0.03628826141357422,	2.4683170318603516,	-1.36618971824646,	-0.20131710171699524
179,	05.11.2016_10.39.08,	0.03200694918632507,	-0.4132862091064453,	-0.016193628311157227,	2.425943613052368,	-1.3713675737380981,	-0.24997861683368683
180,	05.11.2016_10.39.08,	-0.024465888738632202,	-0.3560342788696289,	-0.05360817909240723,	2.468508720397949,	-1.3712159395217896,	-0.21755412220954895
181,	05.11.2016_10.39.08,	-0.04379397630691528,	-0.3557758331298828,	-0.05492508411407471,	2.4841983318328857,	-1.377524495124817,	-0.19118446111679077
182,	05.11.2016_10.39.08,	-0.005855739116668701,	-0.3935823440551758,	0.01914370059967041,	2.520582914352417,	-1.3778928518295288,	-0.18079957365989685
183,	05.11.2016_10.39.08,	0.014807373285293579,	-0.3744783401489258,	-0.05751335620880127,	2.5175440311431885,	-1.3685309886932373,	-0.19342732429504395
184,	05.11.2016_10.39.08,	0.034426867961883545,	-0.3744220733642578,	0.03786826133728027,	2.4973700046539307,	-1.3763364553451538,	-0.21182754635810852
185,	05.11.2016_10.39.09,	0.015419960021972656,	-0.3743886947631836,	-6.412267684936523E-4,	2.4515373706817627,	-1.3661953210830688,	-0.21109335124492645
186,	05.11.2016_10.39.09,	-0.022475898265838623,	-0.39374828338623047,	-0.07626557350158691,	2.452646493911743,	-1.3704932928085327,	-0.2053953856229782
187,	05.11.2016_10.39.09,	0.033566027879714966,	-0.43194007873535156,	-0.019129633903503418,	2.4672417640686035,	-1.3787041902542114,	-0.19321148097515106
188,	05.11.2016_10.39.09,	0.05143427848815918,	-0.4313926696777344,	-0.0408855676651001,	2.4541075229644775,	-1.370810866355896,	-0.21755410730838776
189,	05.11.2016_10.39.09,	0.01311841607093811,	-0.39238739013671875,	0.05124211311340332,	2.4431397914886475,	-1.3723183870315552,	-0.2299044132232666
190,	05.11.2016_10.39.09,	-0.005277067422866821,	-0.3728218078613281,	0.048941969871520996,	2.4967026710510254,	-1.364241361618042,	-0.19933728873729706
191,	05.11.2016_10.39.09,	-0.04309108853340149,	-0.35338401794433594,	0.009057760238647461,	2.5037083625793457,	-1.36504065990448,	-0.18961362540721893
192,	05.11.2016_10.39.09,	-0.006130307912826538,	-0.4107217788696289,	0.027833104133605957,	2.474217414855957,	-1.3700686693191528,	-0.17349573969841003
193,	05.11.2016_10.39.09,	0.049546271562576294,	-0.4299812316894531,	-0.06701946258544922,	2.463101863861084,	-1.3661648035049438,	-0.19150173664093018
194,	05.11.2016_10.39.09,	0.010510265827178955,	-0.4104280471801758,	-0.0689542293548584,	2.4244086742401123,	-1.374268889427185,	-0.23228900134563446
195,	05.11.2016_10.39.09,	0.009830325841903687,	-0.4098234176635742,	0.023818016052246094,	2.4629147052764893,	-1.3755483627319336,	-0.21182753145694733
196,	05.11.2016_10.39.09,	0.050128012895584106,	-0.40981197357177734,	-0.0915677547454834,	2.500789165496826,	-1.3657761812210083,	-0.20131710171699524
197,	05.11.2016_10.39.09,	0.010271966457366943,	-0.3741607666015625,	0.12949442863464355,	2.4702978134155273,	-1.3766132593154907,	-0.23472261428833008
198,	05.11.2016_10.39.09,	0.05245351791381836,	-0.41373538970947266,	-0.07884442806243896,	2.4991419315338135,	-1.357253909111023,	-0.1824154108762741
199,	05.11.2016_10.39.10,	0.021417886018753052,	-0.3911571502685547,	-0.07879412174224854,	2.4674882888793945,	-1.3775042295455933,	-0.2140606939792633
200,	05.11.2016_10.39.10,	-0.03743702173233032,	-0.36553955078125,	-0.03826570510864258,	2.4723079204559326,	-1.3767427206039429,	-0.19118446111679077
201,	05.11.2016_10.39.10,	0.00668606162071228,	-0.360809326171875,	-0.23539507389068604,	2.5144546031951904,	-1.3706047534942627,	-0.143340066075325
202,	05.11.2016_10.39.10,	-0.009370893239974976,	-0.3765144348144531,	0.024202585220336914,	2.4772281646728516,	-1.3876886367797852,	-0.17985349893569946
203,	05.11.2016_10.39.10,	0.02829962968826294,	-0.42230224609375,	-0.09347391128540039,	2.532911539077759,	-1.3492501974105835,	-0.15756158530712128
204,	05.11.2016_10.39.11,	0.12704071402549744,	-0.3690633773803711,	-0.15588903427124023,	2.5196266174316406,	-1.353806734085083,	-0.16202856600284576
205,	05.11.2016_10.39.11,	0.06557080149650574,	-0.3553638458251953,	-0.10944294929504395,	2.4658753871917725,	-1.3711793422698975,	-0.22756747901439667
206,	05.11.2016_10.39.11,	-0.005940228700637817,	-0.4220113754272461,	-0.12040162086486816,	2.4833967685699463,	-1.3708891868591309,	-0.19539156556129456
207,	05.11.2016_10.39.11,	-0.019829750061035156,	-0.36122894287109375,	0.07099199295043945,	2.4998044967651367,	-1.3667025566101074,	-0.15188245475292206
208,	05.11.2016_10.39.11,	0.07525178790092468,	-0.3819913864135742,	0.01652669906616211,	2.5581295490264893,	-1.3468719720840454,	-0.11870532482862473
209,	05.11.2016_10.39.12,	-0.03777459263801575,	-0.42220592498779297,	0.06162309646606445,	2.5581016540527344,	-1.351509690284729,	-0.1498124599456787
210,	05.11.2016_10.39.12,	-0.015988290309906006,	-0.3730754852294922,	-0.05163252353668213,	2.6317861080169678,	-1.3482909202575684,	-0.08314123004674911
211,	05.11.2016_10.39.12,	0.03700725734233856,	-0.3910350799560547,	-0.02063775062561035,	2.579667806625366,	-1.3652373552322388,	-0.09966864436864853
212,	05.11.2016_10.39.12,	0.039955005049705505,	-0.4288053512573242,	-0.08273446559906006,	2.5571486949920654,	-1.360434651374817,	-0.11710874736309052
213,	05.11.2016_10.39.12,	0.0020548850297927856,	-0.3743448257446289,	-0.03141045570373535,	2.5573337078094482,	-1.3657662868499756,	-0.1106572225689888
214,	05.11.2016_10.39.13,	0.018197044730186462,	-0.3975353240966797,	-0.01277005672454834,	2.5690255165100098,	-1.3636125326156616,	-0.07904288917779922
215,	05.11.2016_10.39.13,	0.0015279501676559448,	-0.3979034423828125,	0.0271761417388916,	2.607187509536743,	-1.363194465637207,	-0.07904289662837982
216,	05.11.2016_10.39.13,	-0.0022656098008155823,	-0.34301185607910156,	-0.018534541130065918,	2.6025755405426025,	-1.359372615814209,	-0.0678568184375763
217,	05.11.2016_10.39.13,	0.004671066999435425,	-0.38095760345458984,	-0.038704752922058105,	2.5941755771636963,	-1.3666952848434448,	-0.059928152710199356
218,	05.11.2016_10.39.13,	0.007298201322555542,	-0.383575439453125,	-0.02447044849395752,	2.587050199508667,	-1.3677276372909546,	-0.0705895870923996
219,	05.11.2016_10.39.14,	0.0178239643573761,	-0.40508079528808594,	-0.14605975151062012,	2.543724298477173,	-1.367577314376831,	-0.08063288033008575
220,	05.11.2016_10.39.14,	0.006971150636672974,	-0.37880897521972656,	-0.04951024055480957,	2.6041524410247803,	-1.3809294700622559,	-0.09751580655574799
221,	05.11.2016_10.39.14,	-0.12996625900268555,	-0.30141639709472656,	0.06177043914794922,	2.588484048843384,	-1.3677276372909546,	-0.0705895870923996
222,	05.11.2016_10.39.14,	0.07296104729175568,	-0.3370656967163086,	0.10669910907745361,	2.6501808166503906,	-1.3580172061920166,	-0.0
223,	05.11.2016_10.39.14,	0.09072831273078918,	-0.3759727478027344,	-0.08180391788482666,	2.5784497261047363,	-1.3501530885696411,	-0.10150182992219925
224,	05.11.2016_10.39.14,	0.03744988143444061,	-0.3947477340698242,	-0.12225806713104248,	2.5504846572875977,	-1.368753433227539,	-0.12184244394302368
225,	05.11.2016_10.39.14,	0.09907090663909912,	-0.3746004104614258,	-0.12739825248718262,	2.5681967735290527,	-1.3729591369628906,	-0.0934767797589302
226,	05.11.2016_10.39.14,	0.05741290748119354,	-0.40878772735595703,	-0.1483989953994751,	2.5447750091552734,	-1.3727084398269653,	-0.12435499578714371
227,	05.11.2016_10.39.14,	-0.011380940675735474,	-0.3120412826538086,	-0.23017656803131104,	2.5684826374053955,	-1.3725576400756836,	-0.0934767797589302
228,	05.11.2016_10.39.14,	0.009670913219451904,	-0.31153392791748047,	-0.13694417476654053,	2.5684826374053955,	-1.3725576400756836,	-0.0934767797589302
