\relax 
\providecommand\hyper@newdestlabel[2]{}
\providecommand\zref@newlabel[2]{}
\providecommand*\new@tpo@label[2]{}
\catcode `"\active 
\providecommand\HyperFirstAtBeginDocument{\AtBeginDocument}
\HyperFirstAtBeginDocument{\ifx\hyper@anchor\@undefined
\global\let\oldcontentsline\contentsline
\gdef\contentsline#1#2#3#4{\oldcontentsline{#1}{#2}{#3}}
\global\let\oldnewlabel\newlabel
\gdef\newlabel#1#2{\newlabelxx{#1}#2}
\gdef\newlabelxx#1#2#3#4#5#6{\oldnewlabel{#1}{{#2}{#3}}}
\AtEndDocument{\ifx\hyper@anchor\@undefined
\let\contentsline\oldcontentsline
\let\newlabel\oldnewlabel
\fi}
\fi}
\global\let\hyper@last\relax 
\gdef\HyperFirstAtBeginDocument#1{#1}
\providecommand*\HyPL@Entry[1]{}
\HyPL@Entry{0<</S/D>>}
\select@language{ngerman}
\@writefile{toc}{\select@language{ngerman}}
\@writefile{lof}{\select@language{ngerman}}
\@writefile{lot}{\select@language{ngerman}}
\citation{BROWN2010}
\citation{BROWN2010}
\@writefile{toc}{\contentsline {section}{\numberline {1}Aufgabenstellung und Problemanalyse}{4}{section.1}}
\newlabel{sec:aufgabenstellung-und-problemanalyse}{{1}{4}{Aufgabenstellung und Problemanalyse}{section.1}{}}
\@writefile{lof}{\contentsline {figure}{\numberline {1}{\ignorespaces Veranschaulichung der Auswirkung des Neglects.}}{4}{figure.caption.2}}
\providecommand*\caption@xref[2]{\@setref\relax\@undefined{#1}}
\newlabel{fig:veranschaulichung-neglect}{{1}{4}{Veranschaulichung der Auswirkung des Neglects}{figure.caption.2}{}}
\citation{BIG2010}
\@writefile{toc}{\contentsline {section}{\numberline {2}Problemanalyse}{6}{section.8}}
\@writefile{toc}{\contentsline {subsection}{\numberline {2.1}L\IeC {\"o}sungsans\IeC {\"a}tze}{6}{subsection.9}}
\@writefile{toc}{\contentsline {subsubsection}{\numberline {2.1.1}Global Positioning System (GPS)}{6}{subsubsection.10}}
\@writefile{toc}{\contentsline {subsubsection}{\numberline {2.1.2}Accelerometer}{7}{subsubsection.11}}
\@writefile{toc}{\contentsline {subsubsection}{\numberline {2.1.3}Kompass und Gyroskop}{7}{subsubsection.12}}
\@writefile{toc}{\contentsline {subsection}{\numberline {2.2}Verworfene Ans\IeC {\"a}tze}{8}{subsection.13}}
\@writefile{toc}{\contentsline {section}{\numberline {3}Technischer Entwurf}{9}{section.14}}
\newlabel{sec:technischer-entwurf}{{3}{9}{Technischer Entwurf}{section.14}{}}
\@writefile{toc}{\contentsline {subsection}{\numberline {3.1}Gesamt\IeC {\"u}bersicht}{9}{subsection.15}}
\newlabel{sec:gesamtubersicht}{{3.1}{9}{Gesamtübersicht}{subsection.15}{}}
\@writefile{toc}{\contentsline {subsubsection}{\numberline {3.1.1}Statische Systemstruktur}{9}{subsubsection.16}}
\@writefile{toc}{\contentsline {subsubsubsection}{\numberline {3.1.1.1}Activitys}{9}{subsubsubsection.17}}
\newlabel{sec:statische-activitys}{{3.1.1.1}{9}{Activitys}{subsubsubsection.17}{}}
\@writefile{lof}{\contentsline {figure}{\numberline {2}{\ignorespaces Aktivit\IeC {\"a}tsdiagramm der mobile Anwendung .\relax }}{9}{figure.caption.18}}
\newlabel{fig:aktivitaetsdiagram}{{2}{9}{Aktivitätsdiagramm der mobile Anwendung .\relax }{figure.caption.18}{}}
\@writefile{toc}{\contentsline {subsubsubsection}{\numberline {3.1.1.2}Komponenten}{10}{subsubsubsection.19}}
\@writefile{toc}{\contentsline {subsubsubsection}{\numberline {3.1.1.3}Paketdiagramm}{10}{subsubsubsection.20}}
\@writefile{lof}{\contentsline {figure}{\numberline {3}{\ignorespaces Paket-Diagramm von Neglect Detect.\relax }}{10}{figure.caption.21}}
\newlabel{fig:packet-diagramm}{{3}{10}{Paket-Diagramm von Neglect Detect.\relax }{figure.caption.21}{}}
\@writefile{toc}{\contentsline {subsubsection}{\numberline {3.1.2}dynamische Systemstruktur}{11}{subsubsection.22}}
\@writefile{toc}{\contentsline {subsubsubsection}{\numberline {3.1.2.1}Beziehungen zwischen den Activitys}{11}{subsubsubsection.23}}
\@writefile{toc}{\contentsline {subsubsubsection}{\numberline {3.1.2.2}Beziehungen zwischen den Komponenten}{11}{subsubsubsection.24}}
\@writefile{toc}{\contentsline {subsubsubsection}{\numberline {3.1.2.3}Beziehungen zwischen den Activitys und den Komponenten}{11}{subsubsubsection.25}}
\@writefile{toc}{\contentsline {subsubsubsection}{\numberline {3.1.2.4}Aktivit\IeC {\"a}tsdiagramm}{12}{subsubsubsection.26}}
\@writefile{lof}{\contentsline {figure}{\numberline {4}{\ignorespaces Aktivit\IeC {\"a}tsdiagramm von Neglect Detect.\relax }}{12}{figure.caption.27}}
\newlabel{fig:aktivit\IeC {\"a}tsdiagramm}{{4}{12}{Aktivitätsdiagramm von Neglect Detect.\relax }{figure.caption.27}{}}
\@writefile{toc}{\contentsline {subsection}{\numberline {3.2}\IeC {\"U}bergreifende Konzepte}{12}{subsection.28}}
\newlabel{sec:ubergreifende-konzepte}{{3.2}{12}{Übergreifende Konzepte}{subsection.28}{}}
\@writefile{toc}{\contentsline {subsubsection}{\numberline {3.2.1}Entwurfsentscheidungen}{12}{subsubsection.29}}
\@writefile{toc}{\contentsline {subsubsection}{\numberline {3.2.2}Durchg\IeC {\"a}ngig verwendete Standards}{13}{subsubsection.30}}
\@writefile{toc}{\contentsline {subsection}{\numberline {3.3}Spezifikation der Systembausteine}{14}{subsection.31}}
\newlabel{sec:spezifikation-der-systembausteine}{{3.3}{14}{Spezifikation der Systembausteine}{subsection.31}{}}
\@writefile{toc}{\contentsline {subsubsection}{\numberline {3.3.1}Activitys}{14}{subsubsection.32}}
\newlabel{sec:activitys}{{3.3.1}{14}{Activitys}{subsubsection.32}{}}
\@writefile{toc}{\contentsline {subsubsection}{\numberline {3.3.2}Components}{15}{subsubsection.33}}
\newlabel{sec:components}{{3.3.2}{15}{Components}{subsubsection.33}{}}
\@writefile{toc}{\contentsline {section}{\numberline {4}Realisierung}{18}{section.34}}
\newlabel{sec:realisierung-programmierung-test-und-integration}{{4}{18}{Realisierung}{section.34}{}}
\@writefile{toc}{\contentsline {subsection}{\numberline {4.1}Testen der Activitys}{18}{subsection.35}}
\@writefile{toc}{\contentsline {subsubsection}{\numberline {4.1.1}\texttt  {DebugActivity}}{18}{subsubsection.36}}
\@writefile{lof}{\contentsline {figure}{\numberline {5}{\ignorespaces Vor- und Nachbedingungen f\IeC {\"u}r den 1. Test der \texttt  {DebugActivity}.\relax }}{18}{figure.caption.37}}
\newlabel{fig:debugt1}{{5}{18}{Vor- und Nachbedingungen für den 1. Test der \texttt {DebugActivity}.\relax }{figure.caption.37}{}}
\@writefile{lof}{\contentsline {subfigure}{\numberline{(a)}{\ignorespaces {Vorbedingungen f\IeC {\"u}r den 1. Test.}}}{18}{figure.caption.37}}
\@writefile{lof}{\contentsline {subfigure}{\numberline{(b)}{\ignorespaces {Nachbedingungen f\IeC {\"u}r den 1. Test.}}}{18}{figure.caption.37}}
\@writefile{lof}{\contentsline {figure}{\numberline {6}{\ignorespaces Vor- und Nachbedingungen f\IeC {\"u}r den 2. Test der \texttt  {DebugActivity}.\relax }}{19}{figure.caption.40}}
\newlabel{fig:debugt2}{{6}{19}{Vor- und Nachbedingungen für den 2. Test der \texttt {DebugActivity}.\relax }{figure.caption.40}{}}
\@writefile{lof}{\contentsline {subfigure}{\numberline{(a)}{\ignorespaces {Vorbedingungen f\IeC {\"u}r den 2. Test.}}}{19}{figure.caption.40}}
\@writefile{lof}{\contentsline {subfigure}{\numberline{(b)}{\ignorespaces {Nachbedingungen f\IeC {\"u}r den 2. Test.}}}{19}{figure.caption.40}}
\@writefile{lof}{\contentsline {figure}{\numberline {7}{\ignorespaces Vor- und Nachbedingungen f\IeC {\"u}r den 3. Test der \texttt  {DebugActivity}.\relax }}{20}{figure.caption.43}}
\newlabel{fig:debugt3}{{7}{20}{Vor- und Nachbedingungen für den 3. Test der \texttt {DebugActivity}.\relax }{figure.caption.43}{}}
\@writefile{lof}{\contentsline {subfigure}{\numberline{(a)}{\ignorespaces {Vorbedingungen f\IeC {\"u}r den 3. Test.}}}{20}{figure.caption.43}}
\@writefile{lof}{\contentsline {subfigure}{\numberline{(b)}{\ignorespaces {Nachbedingungen f\IeC {\"u}r den 3. Test.}}}{20}{figure.caption.43}}
\@writefile{toc}{\contentsline {subsubsection}{\numberline {4.1.2}\texttt  {MenuActivity} / \texttt  {SensorActivity} / \texttt  {DiagnosisActivity}}{21}{subsubsection.46}}
\@writefile{lof}{\contentsline {figure}{\numberline {8}{\ignorespaces Nachbedingungen f\IeC {\"u}r den 5. Test der \texttt  {MenuActivity}}}{23}{figure.caption.47}}
\newlabel{fig:menusensirdiag5}{{8}{23}{Nachbedingungen für den 5. Test der \texttt {MenuActivity}}{figure.caption.47}{}}
\@writefile{lof}{\contentsline {figure}{\numberline {9}{\ignorespaces Nachbedingungen f\IeC {\"u}r den 6. Test der \texttt  {MenuActivity}}}{24}{figure.caption.48}}
\newlabel{fig:menusensirdiag6}{{9}{24}{Nachbedingungen für den 6. Test der \texttt {MenuActivity}}{figure.caption.48}{}}
\@writefile{lof}{\contentsline {subfigure}{\numberline{(a)}{\ignorespaces {Vorbedingungen f\IeC {\"u}r den 6. Test.}}}{24}{figure.caption.48}}
\@writefile{lof}{\contentsline {subfigure}{\numberline{(b)}{\ignorespaces {Nachbedingungen f\IeC {\"u}r den 6. Test.}}}{24}{figure.caption.48}}
\@writefile{lof}{\contentsline {figure}{\numberline {10}{\ignorespaces Vor- und Nachbedingungen f\IeC {\"u}r den 7. Test der \texttt  {MenuActivity}}}{25}{figure.caption.51}}
\newlabel{fig:menusensirdiag7}{{10}{25}{Vor- und Nachbedingungen für den 7. Test der \texttt {MenuActivity}}{figure.caption.51}{}}
\@writefile{lof}{\contentsline {subfigure}{\numberline{(a)}{\ignorespaces {Vorbedingungen f\IeC {\"u}r den 7. Test.}}}{25}{figure.caption.51}}
\@writefile{lof}{\contentsline {subfigure}{\numberline{(b)}{\ignorespaces {Nachbedingungen f\IeC {\"u}r den 7. Test.}}}{25}{figure.caption.51}}
\@writefile{lof}{\contentsline {figure}{\numberline {11}{\ignorespaces Vor- und Nachbedingungen f\IeC {\"u}r den 8. Test der \texttt  {MenuActivity}}}{26}{figure.caption.54}}
\newlabel{fig:menusensirdiag8}{{11}{26}{Vor- und Nachbedingungen für den 8. Test der \texttt {MenuActivity}}{figure.caption.54}{}}
\@writefile{lof}{\contentsline {subfigure}{\numberline{(a)}{\ignorespaces {Vorbedingung 1 f\IeC {\"u}r den 8. Test.}}}{26}{figure.caption.54}}
\@writefile{lof}{\contentsline {subfigure}{\numberline{(b)}{\ignorespaces {Vorbedingung 2 f\IeC {\"u}r den 8. Test.}}}{26}{figure.caption.54}}
\@writefile{lof}{\contentsline {subfigure}{\numberline{(c)}{\ignorespaces {Nachbedingung 1 f\IeC {\"u}r den 8. Test.}}}{26}{figure.caption.54}}
\@writefile{lof}{\contentsline {subfigure}{\numberline{(d)}{\ignorespaces {Nachbedingung 2 f\IeC {\"u}r den 8. Test.}}}{26}{figure.caption.54}}
\@writefile{toc}{\contentsline {subsubsection}{\numberline {4.1.3}\texttt  {LoadingFileActivity}}{27}{subsubsection.59}}
\@writefile{lof}{\contentsline {figure}{\numberline {12}{\ignorespaces Vorbedingungen f\IeC {\"u}r den 1. Test der \texttt  {LoadingFileActivity}.\relax }}{27}{figure.caption.60}}
\newlabel{fig:LoadingFileActivity1}{{12}{27}{Vorbedingungen für den 1. Test der \texttt {LoadingFileActivity}.\relax }{figure.caption.60}{}}
\@writefile{lof}{\contentsline {figure}{\numberline {13}{\ignorespaces Vor- und Nachbedingungen f\IeC {\"u}r den 2. Test der \texttt  {LoadingFileActivity}.\relax }}{28}{figure.caption.61}}
\newlabel{fig:LoadingFileActivity2}{{13}{28}{Vor- und Nachbedingungen für den 2. Test der \texttt {LoadingFileActivity}.\relax }{figure.caption.61}{}}
\@writefile{lof}{\contentsline {subfigure}{\numberline{(a)}{\ignorespaces {Vorbedingungen f\IeC {\"u}r den 2. Test.}}}{28}{figure.caption.61}}
\@writefile{lof}{\contentsline {subfigure}{\numberline{(b)}{\ignorespaces {Nachbedingungen f\IeC {\"u}r den 2. Test.}}}{28}{figure.caption.61}}
\@writefile{lof}{\contentsline {figure}{\numberline {14}{\ignorespaces Vor- und Nachbedingungen f\IeC {\"u}r den 3. Test der \texttt  {LoadingFileActivity}.\relax }}{29}{figure.caption.64}}
\newlabel{fig:LoadingFileActivity3}{{14}{29}{Vor- und Nachbedingungen für den 3. Test der \texttt {LoadingFileActivity}.\relax }{figure.caption.64}{}}
\@writefile{lof}{\contentsline {subfigure}{\numberline{(a)}{\ignorespaces {Vorbedingungen f\IeC {\"u}r den 3. Test.}}}{29}{figure.caption.64}}
\@writefile{lof}{\contentsline {subfigure}{\numberline{(b)}{\ignorespaces {Nachbedingungen f\IeC {\"u}r den 3. Test.}}}{29}{figure.caption.64}}
\@writefile{lof}{\contentsline {figure}{\numberline {15}{\ignorespaces Nachbedingungen f\IeC {\"u}r den 4. Test der \texttt  {LoadingFileActivity}.\relax }}{30}{figure.caption.67}}
\newlabel{fig:LoadingFileActivity4}{{15}{30}{Nachbedingungen für den 4. Test der \texttt {LoadingFileActivity}.\relax }{figure.caption.67}{}}
\@writefile{toc}{\contentsline {subsubsection}{\numberline {4.1.4}\texttt  {CalibrationActivity} / \texttt  {PreCalibrationActivity}}{31}{subsubsection.68}}
\@writefile{lof}{\contentsline {figure}{\numberline {16}{\ignorespaces Vor- und Nachbedingungen f\IeC {\"u}r den Test der \texttt  {CalibrationActivity}}}{32}{figure.caption.69}}
\newlabel{fig:CalibrationActivityPreCalibrationActivity}{{16}{32}{Vor- und Nachbedingungen für den Test der \texttt {CalibrationActivity}}{figure.caption.69}{}}
\@writefile{lof}{\contentsline {subfigure}{\numberline{(a)}{\ignorespaces {Vorbedingung f\IeC {\"u}r den Test.}}}{32}{figure.caption.69}}
\@writefile{lof}{\contentsline {subfigure}{\numberline{(b)}{\ignorespaces {Nachbedingung 1 f\IeC {\"u}r den Test.}}}{32}{figure.caption.69}}
\@writefile{lof}{\contentsline {subfigure}{\numberline{(c)}{\ignorespaces {Nachbeding 2 f\IeC {\"u}r den Test.}}}{32}{figure.caption.69}}
\@writefile{toc}{\contentsline {subsection}{\numberline {4.2}Testen der Erkennung von Schr\IeC {\"a}gg\IeC {\"a}ngen }{32}{subsection.73}}
\@writefile{toc}{\contentsline {section}{\numberline {5}Installation und Einsatz}{37}{section.74}}
\newlabel{sec:installation-und-einsatz}{{5}{37}{Installation und Einsatz}{section.74}{}}
\@writefile{toc}{\contentsline {subsection}{\numberline {5.1}Systemanforderungen}{37}{subsection.75}}
\newlabel{sec:systemanforderungen}{{5.1}{37}{Systemanforderungen}{subsection.75}{}}
\@writefile{toc}{\contentsline {subsection}{\numberline {5.2}Installation und Initialisierung der mobile Anwendung }{37}{subsection.76}}
\newlabel{sec:installation-und-initialisierung-der-app}{{5.2}{37}{Installation und Initialisierung der mobile Anwendung }{subsection.76}{}}
\@writefile{lof}{\contentsline {figure}{\numberline {17}{\ignorespaces Berechtigungsabfrage der mobile Anwendung.\relax }}{38}{figure.caption.83}}
\newlabel{fig:berechtigungen}{{17}{38}{Berechtigungsabfrage der mobile Anwendung.\relax }{figure.caption.83}{}}
\@writefile{lof}{\contentsline {subfigure}{\numberline{(a)}{\ignorespaces {Benachrichtigung, dass Berechtigungen fehlen.}}}{38}{figure.caption.83}}
\@writefile{lof}{\contentsline {subfigure}{\numberline{(b)}{\ignorespaces {Abfrage der Berechtigungen.}}}{38}{figure.caption.83}}
\@writefile{toc}{\contentsline {subsection}{\numberline {5.3}Positionierung des Ger\IeC {\"a}ts w\IeC {\"a}hrend der Benutzung}{38}{subsection.86}}
\newlabel{sec:positionierung-des-gerats-wahrend-der-benutzung}{{5.3}{38}{Positionierung des Geräts während der Benutzung}{subsection.86}{}}
\@writefile{toc}{\contentsline {subsection}{\numberline {5.4}Verwendung der mobile Anwendung}{38}{subsection.87}}
\newlabel{sec:verwendung-der-app}{{5.4}{38}{Verwendung der mobile Anwendung}{subsection.87}{}}
\@writefile{toc}{\contentsline {subsubsection}{\numberline {5.4.1}Erste Inbetriebnahme}{38}{subsubsection.88}}
\newlabel{sec:erste-inbetriebnahme-kalibrierung}{{5.4.1}{38}{Erste Inbetriebnahme}{subsubsection.88}{}}
\@writefile{lof}{\contentsline {figure}{\numberline {18}{\ignorespaces Hauptmen\IeC {\"u} und Einstellungsseite von Neglect Detect.\relax }}{39}{figure.caption.89}}
\newlabel{fig:menue-einstellungen}{{18}{39}{Hauptmenü und Einstellungsseite von Neglect Detect.\relax }{figure.caption.89}{}}
\@writefile{lof}{\contentsline {subfigure}{\numberline{(a)}{\ignorespaces {Hauptmen\IeC {\"u} der mobile Anwendung.}}}{39}{figure.caption.89}}
\@writefile{lof}{\contentsline {subfigure}{\numberline{(b)}{\ignorespaces {Einstellungsseite.}}}{39}{figure.caption.89}}
\@writefile{toc}{\contentsline {subsubsection}{\numberline {5.4.2}Einstellungen}{39}{subsubsection.92}}
\newlabel{sec:einstellungen}{{5.4.2}{39}{Einstellungen}{subsubsection.92}{}}
\@writefile{toc}{\contentsline {subsection}{\numberline {5.5}Messung durchf\IeC {\"u}hren}{40}{subsection.93}}
\newlabel{sec:messung-durchfuhren}{{5.5}{40}{Messung durchführen}{subsection.93}{}}
\@writefile{toc}{\contentsline {subsubsection}{\numberline {5.5.1}Standardmessung}{40}{subsubsection.94}}
\newlabel{sec:standardmessung-mit-alarm}{{5.5.1}{40}{Standardmessung}{subsubsection.94}{}}
\@writefile{toc}{\contentsline {subsubsection}{\numberline {5.5.2}Diagnosemodus}{41}{subsubsection.95}}
\newlabel{sec:diagnosemodus-ohne-alarm}{{5.5.2}{41}{Diagnosemodus}{subsubsection.95}{}}
\@writefile{toc}{\contentsline {subsection}{\numberline {5.6}Auswertung von Messdaten}{41}{subsection.96}}
\newlabel{sec:auswertung-von-messdaten}{{5.6}{41}{Auswertung von Messdaten}{subsection.96}{}}
\bibdata{Praktikumsbericht.bib}
\bibcite{BIG2010}{{Big10}{}{{}}{{}}}
\bibcite{BROWN2010}{{BRO10}{}{{}}{{}}}
\bibstyle{alphadin}
\@writefile{lof}{\contentsline {figure}{\numberline {19}{\ignorespaces Anzeige der Messdaten innerhalb der mobile Anwendung.\relax }}{42}{figure.caption.97}}
\newlabel{fig:messdaten}{{19}{42}{Anzeige der Messdaten innerhalb der mobile Anwendung.\relax }{figure.caption.97}{}}
\@writefile{toc}{\contentsline {section}{Literatur}{42}{figure.caption.97}}
\@writefile{toc}{\contentsline {section}{Abbildungsverzeichnis}{42}{figure.caption.97}}
\providecommand\NAT@force@numbers{}\NAT@force@numbers
\ulp@afterend
\global\@namedef{scr@dte@section@lastmaxnumwidth}{11.47185pt}
\global\@namedef{scr@dte@subsection@lastmaxnumwidth}{21.47964pt}
\global\@namedef{scr@dte@subsubsection@lastmaxnumwidth}{31.48744pt}
