%!PS-Adobe-3.0 EPSF-3.0
%%BoundingBox: 0 0 1563 760
%%Pages: 0
%%Creator: QtiPlot
%%CreationDate: 2016-11-07
%%Title: /Users/vincentcuccu/fopra2016-17/NeglectDetect/Documents/Testdaten/data_04.11.2016/data_04.11.2016 014420.eps
%%BeginProlog
/bd {bind def} bind def
/c {curveto} bd
/f {findfont} bd
/l {lineto} bd
/m {moveto} bd
/r {rotate} bd
/s {show} bd
/cp {clip} bd
/fl {fill} bd
/rf {rectfill} bd
/np {newpath} bd
/lw {setlinewidth} bd
/lc {setlinecap} bd
/lj {setlinejoin} bd
/ml {setmiterlimit} bd
/ld {setdash} bd
/gl {glyphshow} bd
/gs {gsave} bd
/gr {grestore} bd
/st {stroke} bd
/sf {scalefont setfont} bd
/tr {translate} bd
/sw {stringwidth pop neg 0 rmoveto} bind def
/col {setrgbcolor} bd
%%EndProlog
gs
np 136 706 m 1452 706 l 1452 83 l 136 83 l 136 706 l 
cp
0.627451 0.627451 0.643137 col
1 lw [4 2] 0 ld 2 lj 2 lc
np 189 706 m 189 83 l 
st
gr
gs
np 136 706 m 1452 706 l 1452 83 l 136 83 l 136 706 l 
cp
0.627451 0.627451 0.643137 col
1 lw [4 2] 0 ld 2 lj 2 lc
np 241 706 m 241 83 l 
st
gr
gs
np 136 706 m 1452 706 l 1452 83 l 136 83 l 136 706 l 
cp
0.627451 0.627451 0.643137 col
1 lw [4 2] 0 ld 2 lj 2 lc
np 294 706 m 294 83 l 
st
gr
gs
np 136 706 m 1452 706 l 1452 83 l 136 83 l 136 706 l 
cp
0.627451 0.627451 0.643137 col
1 lw [4 2] 0 ld 2 lj 2 lc
np 347 706 m 347 83 l 
st
gr
gs
np 136 706 m 1452 706 l 1452 83 l 136 83 l 136 706 l 
cp
0.627451 0.627451 0.643137 col
1 lw [4 2] 0 ld 2 lj 2 lc
np 452 706 m 452 83 l 
st
gr
gs
np 136 706 m 1452 706 l 1452 83 l 136 83 l 136 706 l 
cp
0.627451 0.627451 0.643137 col
1 lw [4 2] 0 ld 2 lj 2 lc
np 504 706 m 504 83 l 
st
gr
gs
np 136 706 m 1452 706 l 1452 83 l 136 83 l 136 706 l 
cp
0.627451 0.627451 0.643137 col
1 lw [4 2] 0 ld 2 lj 2 lc
np 557 706 m 557 83 l 
st
gr
gs
np 136 706 m 1452 706 l 1452 83 l 136 83 l 136 706 l 
cp
0.627451 0.627451 0.643137 col
1 lw [4 2] 0 ld 2 lj 2 lc
np 610 706 m 610 83 l 
st
gr
gs
np 136 706 m 1452 706 l 1452 83 l 136 83 l 136 706 l 
cp
0.627451 0.627451 0.643137 col
1 lw [4 2] 0 ld 2 lj 2 lc
np 715 706 m 715 83 l 
st
gr
gs
np 136 706 m 1452 706 l 1452 83 l 136 83 l 136 706 l 
cp
0.627451 0.627451 0.643137 col
1 lw [4 2] 0 ld 2 lj 2 lc
np 768 706 m 768 83 l 
st
gr
gs
np 136 706 m 1452 706 l 1452 83 l 136 83 l 136 706 l 
cp
0.627451 0.627451 0.643137 col
1 lw [4 2] 0 ld 2 lj 2 lc
np 820 706 m 820 83 l 
st
gr
gs
np 136 706 m 1452 706 l 1452 83 l 136 83 l 136 706 l 
cp
0.627451 0.627451 0.643137 col
1 lw [4 2] 0 ld 2 lj 2 lc
np 873 706 m 873 83 l 
st
gr
gs
np 136 706 m 1452 706 l 1452 83 l 136 83 l 136 706 l 
cp
0.627451 0.627451 0.643137 col
1 lw [4 2] 0 ld 2 lj 2 lc
np 978 706 m 978 83 l 
st
gr
gs
np 136 706 m 1452 706 l 1452 83 l 136 83 l 136 706 l 
cp
0.627451 0.627451 0.643137 col
1 lw [4 2] 0 ld 2 lj 2 lc
np 1031 706 m 1031 83 l 
st
gr
gs
np 136 706 m 1452 706 l 1452 83 l 136 83 l 136 706 l 
cp
0.627451 0.627451 0.643137 col
1 lw [4 2] 0 ld 2 lj 2 lc
np 1084 706 m 1084 83 l 
st
gr
gs
np 136 706 m 1452 706 l 1452 83 l 136 83 l 136 706 l 
cp
0.627451 0.627451 0.643137 col
1 lw [4 2] 0 ld 2 lj 2 lc
np 1136 706 m 1136 83 l 
st
gr
gs
np 136 706 m 1452 706 l 1452 83 l 136 83 l 136 706 l 
cp
0.627451 0.627451 0.643137 col
1 lw [4 2] 0 ld 2 lj 2 lc
np 1241 706 m 1241 83 l 
st
gr
gs
np 136 706 m 1452 706 l 1452 83 l 136 83 l 136 706 l 
cp
0.627451 0.627451 0.643137 col
1 lw [4 2] 0 ld 2 lj 2 lc
np 1294 706 m 1294 83 l 
st
gr
gs
np 136 706 m 1452 706 l 1452 83 l 136 83 l 136 706 l 
cp
0.627451 0.627451 0.643137 col
1 lw [4 2] 0 ld 2 lj 2 lc
np 1347 706 m 1347 83 l 
st
gr
gs
np 136 706 m 1452 706 l 1452 83 l 136 83 l 136 706 l 
cp
0.627451 0.627451 0.643137 col
1 lw [4 2] 0 ld 2 lj 2 lc
np 1399 706 m 1399 83 l 
st
gr
gs
np 136 706 m 1452 706 l 1452 83 l 136 83 l 136 706 l 
cp
0.627451 0.627451 0.643137 col
1 lw [4 2] 0 ld 2 lj 2 lc
np 136 101 m 1452 101 l 
st
gr
gs
np 136 706 m 1452 706 l 1452 83 l 136 83 l 136 706 l 
cp
0.627451 0.627451 0.643137 col
1 lw [4 2] 0 ld 2 lj 2 lc
np 136 119 m 1452 119 l 
st
gr
gs
np 136 706 m 1452 706 l 1452 83 l 136 83 l 136 706 l 
cp
0.627451 0.627451 0.643137 col
1 lw [4 2] 0 ld 2 lj 2 lc
np 136 136 m 1452 136 l 
st
gr
gs
np 136 706 m 1452 706 l 1452 83 l 136 83 l 136 706 l 
cp
0.627451 0.627451 0.643137 col
1 lw [4 2] 0 ld 2 lj 2 lc
np 136 154 m 1452 154 l 
st
gr
gs
np 136 706 m 1452 706 l 1452 83 l 136 83 l 136 706 l 
cp
0.627451 0.627451 0.643137 col
1 lw [4 2] 0 ld 2 lj 2 lc
np 136 190 m 1452 190 l 
st
gr
gs
np 136 706 m 1452 706 l 1452 83 l 136 83 l 136 706 l 
cp
0.627451 0.627451 0.643137 col
1 lw [4 2] 0 ld 2 lj 2 lc
np 136 208 m 1452 208 l 
st
gr
gs
np 136 706 m 1452 706 l 1452 83 l 136 83 l 136 706 l 
cp
0.627451 0.627451 0.643137 col
1 lw [4 2] 0 ld 2 lj 2 lc
np 136 225 m 1452 225 l 
st
gr
gs
np 136 706 m 1452 706 l 1452 83 l 136 83 l 136 706 l 
cp
0.627451 0.627451 0.643137 col
1 lw [4 2] 0 ld 2 lj 2 lc
np 136 243 m 1452 243 l 
st
gr
gs
np 136 706 m 1452 706 l 1452 83 l 136 83 l 136 706 l 
cp
0.627451 0.627451 0.643137 col
1 lw [4 2] 0 ld 2 lj 2 lc
np 136 279 m 1452 279 l 
st
gr
gs
np 136 706 m 1452 706 l 1452 83 l 136 83 l 136 706 l 
cp
0.627451 0.627451 0.643137 col
1 lw [4 2] 0 ld 2 lj 2 lc
np 136 297 m 1452 297 l 
st
gr
gs
np 136 706 m 1452 706 l 1452 83 l 136 83 l 136 706 l 
cp
0.627451 0.627451 0.643137 col
1 lw [4 2] 0 ld 2 lj 2 lc
np 136 314 m 1452 314 l 
st
gr
gs
np 136 706 m 1452 706 l 1452 83 l 136 83 l 136 706 l 
cp
0.627451 0.627451 0.643137 col
1 lw [4 2] 0 ld 2 lj 2 lc
np 136 332 m 1452 332 l 
st
gr
gs
np 136 706 m 1452 706 l 1452 83 l 136 83 l 136 706 l 
cp
0.627451 0.627451 0.643137 col
1 lw [4 2] 0 ld 2 lj 2 lc
np 136 368 m 1452 368 l 
st
gr
gs
np 136 706 m 1452 706 l 1452 83 l 136 83 l 136 706 l 
cp
0.627451 0.627451 0.643137 col
1 lw [4 2] 0 ld 2 lj 2 lc
np 136 386 m 1452 386 l 
st
gr
gs
np 136 706 m 1452 706 l 1452 83 l 136 83 l 136 706 l 
cp
0.627451 0.627451 0.643137 col
1 lw [4 2] 0 ld 2 lj 2 lc
np 136 403 m 1452 403 l 
st
gr
gs
np 136 706 m 1452 706 l 1452 83 l 136 83 l 136 706 l 
cp
0.627451 0.627451 0.643137 col
1 lw [4 2] 0 ld 2 lj 2 lc
np 136 421 m 1452 421 l 
st
gr
gs
np 136 706 m 1452 706 l 1452 83 l 136 83 l 136 706 l 
cp
0.627451 0.627451 0.643137 col
1 lw [4 2] 0 ld 2 lj 2 lc
np 136 457 m 1452 457 l 
st
gr
gs
np 136 706 m 1452 706 l 1452 83 l 136 83 l 136 706 l 
cp
0.627451 0.627451 0.643137 col
1 lw [4 2] 0 ld 2 lj 2 lc
np 136 475 m 1452 475 l 
st
gr
gs
np 136 706 m 1452 706 l 1452 83 l 136 83 l 136 706 l 
cp
0.627451 0.627451 0.643137 col
1 lw [4 2] 0 ld 2 lj 2 lc
np 136 492 m 1452 492 l 
st
gr
gs
np 136 706 m 1452 706 l 1452 83 l 136 83 l 136 706 l 
cp
0.627451 0.627451 0.643137 col
1 lw [4 2] 0 ld 2 lj 2 lc
np 136 510 m 1452 510 l 
st
gr
gs
np 136 706 m 1452 706 l 1452 83 l 136 83 l 136 706 l 
cp
0.627451 0.627451 0.643137 col
1 lw [4 2] 0 ld 2 lj 2 lc
np 136 546 m 1452 546 l 
st
gr
gs
np 136 706 m 1452 706 l 1452 83 l 136 83 l 136 706 l 
cp
0.627451 0.627451 0.643137 col
1 lw [4 2] 0 ld 2 lj 2 lc
np 136 564 m 1452 564 l 
st
gr
gs
np 136 706 m 1452 706 l 1452 83 l 136 83 l 136 706 l 
cp
0.627451 0.627451 0.643137 col
1 lw [4 2] 0 ld 2 lj 2 lc
np 136 581 m 1452 581 l 
st
gr
gs
np 136 706 m 1452 706 l 1452 83 l 136 83 l 136 706 l 
cp
0.627451 0.627451 0.643137 col
1 lw [4 2] 0 ld 2 lj 2 lc
np 136 599 m 1452 599 l 
st
gr
gs
np 136 706 m 1452 706 l 1452 83 l 136 83 l 136 706 l 
cp
0.627451 0.627451 0.643137 col
1 lw [4 2] 0 ld 2 lj 2 lc
np 136 635 m 1452 635 l 
st
gr
gs
np 136 706 m 1452 706 l 1452 83 l 136 83 l 136 706 l 
cp
0.627451 0.627451 0.643137 col
1 lw [4 2] 0 ld 2 lj 2 lc
np 136 653 m 1452 653 l 
st
gr
gs
np 136 706 m 1452 706 l 1452 83 l 136 83 l 136 706 l 
cp
0.627451 0.627451 0.643137 col
1 lw [4 2] 0 ld 2 lj 2 lc
np 136 670 m 1452 670 l 
st
gr
gs
np 136 706 m 1452 706 l 1452 83 l 136 83 l 136 706 l 
cp
0.627451 0.627451 0.643137 col
1 lw [4 2] 0 ld 2 lj 2 lc
np 136 688 m 1452 688 l 
st
gr
gs
np 136 706 m 1452 706 l 1452 83 l 136 83 l 136 706 l 
cp
0.627451 0.627451 0.643137 col
1 lw [] 0 ld 2 lj 2 lc
np 399 706 m 399 83 l 
st
gr
gs
np 136 706 m 1452 706 l 1452 83 l 136 83 l 136 706 l 
cp
0.627451 0.627451 0.643137 col
1 lw [] 0 ld 2 lj 2 lc
np 662 706 m 662 83 l 
st
gr
gs
np 136 706 m 1452 706 l 1452 83 l 136 83 l 136 706 l 
cp
0.627451 0.627451 0.643137 col
1 lw [] 0 ld 2 lj 2 lc
np 926 706 m 926 83 l 
st
gr
gs
np 136 706 m 1452 706 l 1452 83 l 136 83 l 136 706 l 
cp
0.627451 0.627451 0.643137 col
1 lw [] 0 ld 2 lj 2 lc
np 1189 706 m 1189 83 l 
st
gr
gs
np 136 706 m 1452 706 l 1452 83 l 136 83 l 136 706 l 
cp
0.627451 0.627451 0.643137 col
1 lw [] 0 ld 2 lj 2 lc
np 136 172 m 1452 172 l 
st
gr
gs
np 136 706 m 1452 706 l 1452 83 l 136 83 l 136 706 l 
cp
0.627451 0.627451 0.643137 col
1 lw [] 0 ld 2 lj 2 lc
np 136 261 m 1452 261 l 
st
gr
gs
np 136 706 m 1452 706 l 1452 83 l 136 83 l 136 706 l 
cp
0.627451 0.627451 0.643137 col
1 lw [] 0 ld 2 lj 2 lc
np 136 350 m 1452 350 l 
st
gr
gs
np 136 706 m 1452 706 l 1452 83 l 136 83 l 136 706 l 
cp
0.627451 0.627451 0.643137 col
1 lw [] 0 ld 2 lj 2 lc
np 136 439 m 1452 439 l 
st
gr
gs
np 136 706 m 1452 706 l 1452 83 l 136 83 l 136 706 l 
cp
0.627451 0.627451 0.643137 col
1 lw [] 0 ld 2 lj 2 lc
np 136 528 m 1452 528 l 
st
gr
gs
np 136 706 m 1452 706 l 1452 83 l 136 83 l 136 706 l 
cp
0.627451 0.627451 0.643137 col
1 lw [] 0 ld 2 lj 2 lc
np 136 617 m 1452 617 l 
st
gr
gs
np 136 706 m 1452 706 l 1452 83 l 136 83 l 136 706 l 
cp
0 0 0 col
1 lw [] 0 ld 0 lj 2 ml 0 lc
np 149.16 350 m 162.32 350 l 175.48 350 l 188.64 350 l 201.8 350 l 214.96 350 l 228.12 350 l 241.28 350 l 254.44 350 l 267.6 350 l 280.76 350 l 293.92 350 l 307.08 350 l 320.24 350 l 333.4 461.313 l 346.56 350 l 359.72 420.498 l 372.88 350 l 
386.04 350 l 399.2 350 l 412.36 350 l 425.52 516.366 l 438.68 121.732 l 451.84 350 l 465 400.245 l 478.16 350 l 491.32 429.179 l 504.48 596.008 l 517.64 282.79 l 530.8 350 l 543.96 551.36 l 557.12 350 l 570.28 350 l 583.44 350 l 596.6 451.617 l 
609.76 350 l 622.92 350 l 636.08 350 l 649.24 419.019 l 662.4 171.138 l 675.56 350 l 688.72 350 l 701.88 350 l 715.04 350 l 728.2 506.435 l 741.36 205.151 l 754.52 350 l 767.68 350 l 780.84 350 l 794 421.63 l 807.16 430.989 l 820.32 350 l 
833.48 308.506 l 846.64 350 l 859.8 350 l 872.96 350 l 886.12 124.356 l 899.28 350 l 912.44 350 l 925.6 350 l 938.76 350 l 951.92 350 l 965.08 124.302 l 978.24 350 l 991.4 410.972 l 1004.56 350 l 1017.72 350 l 1030.88 350 l 1044.04 183.072 l 
1057.2 350 l 1070.36 350 l 1083.52 350 l 1096.68 350 l 1109.84 350 l 1123 439.847 l 1136.16 350 l 1149.32 350 l 1162.48 350 l 1175.64 350 l 1188.8 350 l 1201.96 350 l 1215.12 350 l 1228.28 350 l 1241.44 276.866 l 1254.6 350 l 1267.76 350 l 1280.92 350 l 
1294.08 350 l 1307.24 350 l 1320.4 350 l 1333.56 350 l 1346.72 350 l 1359.88 350 l 1373.04 350 l 1386.2 350 l 1399.36 350 l 1412.52 350 l 1425.68 350 l 
st
gr
gs
np 136 706 m 1452 706 l 1452 83 l 136 83 l 136 706 l 
cp
1 0 0 col
1 lw [] 0 ld 0 lj 2 ml 0 lc
np 149.16 350 m 162.32 350 l 175.48 350 l 188.64 350 l 201.8 350 l 214.96 350 l 228.12 350 l 241.28 350 l 254.44 350 l 267.6 350 l 280.76 491.26 l 293.92 350 l 307.08 350 l 320.24 596.643 l 333.4 350 l 346.56 350 l 359.72 350 l 372.88 350 l 386.04 350 l 
399.2 350 l 412.36 350 l 425.52 350 l 438.68 350 l 451.84 350 l 465 445.715 l 478.16 350 l 491.32 350 l 504.48 555.736 l 517.64 350 l 530.8 350 l 543.96 675.496 l 557.12 350 l 570.28 350 l 583.44 581.767 l 596.6 230.098 l 609.76 350 l 622.92 272.638 l 
636.08 350 l 649.24 350 l 662.4 350 l 675.56 350 l 688.72 350 l 701.88 350 l 715.04 242.069 l 728.2 621.724 l 741.36 350 l 754.52 350 l 767.68 350 l 780.84 350 l 794 350 l 807.16 663.989 l 820.32 350 l 833.48 350 l 846.64 350 l 859.8 350 l 872.96 350 l 
886.12 350 l 899.28 244.885 l 912.44 350 l 925.6 350 l 938.76 243.198 l 951.92 417.039 l 965.08 350 l 978.24 350 l 991.4 628.131 l 1004.56 350 l 1017.72 304.209 l 1030.88 624.96 l 1044.04 350 l 1057.2 350 l 1070.36 350 l 1083.52 350 l 1096.68 350 l 
1109.84 350 l 1123 350 l 1136.16 350 l 1149.32 350 l 1162.48 277.016 l 1175.64 350 l 1188.8 350 l 1201.96 350 l 1215.12 350 l 1228.28 350 l 1241.44 350 l 1254.6 350 l 1267.76 570.118 l 1280.92 350 l 1294.08 350 l 1307.24 350 l 1320.4 350 l 
1333.56 490.934 l 1346.72 350 l 1359.88 350 l 1373.04 350 l 1386.2 350 l 1399.36 402.219 l 1412.52 350 l 1425.68 350 l 
st
gr
gs
np 136 706 m 1452 706 l 1452 83 l 136 83 l 136 706 l 
cp
0 1 0 col
1 lw [] 0 ld 0 lj 2 ml 0 lc
np 149.16 350 m 162.32 350 l 175.48 350 l 188.64 350 l 201.8 350 l 214.96 350 l 228.12 350 l 241.28 350 l 254.44 350 l 267.6 409.814 l 280.76 350 l 293.92 310.279 l 307.08 350 l 320.24 453.553 l 333.4 350 l 346.56 350 l 359.72 350 l 372.88 350 l 
386.04 350 l 399.2 350 l 412.36 350 l 425.52 350 l 438.68 350 l 451.84 350 l 465 350 l 478.16 489.228 l 491.32 350 l 504.48 270.397 l 517.64 477.136 l 530.8 350 l 543.96 350 l 557.12 350 l 570.28 350 l 583.44 350 l 596.6 350 l 609.76 402.992 l 
622.92 523.349 l 636.08 426.769 l 649.24 350 l 662.4 500.255 l 675.56 327.802 l 688.72 350 l 701.88 579.669 l 715.04 350 l 728.2 350 l 741.36 481.307 l 754.52 350 l 767.68 350 l 780.84 350 l 794 350 l 807.16 288.07 l 820.32 438.274 l 833.48 350 l 
846.64 431.92 l 859.8 373.036 l 872.96 350 l 886.12 350 l 899.28 350 l 912.44 350 l 925.6 569.02 l 938.76 350 l 951.92 381.682 l 965.08 350 l 978.24 350 l 991.4 350 l 1004.56 350 l 1017.72 350 l 1030.88 350 l 1044.04 350 l 1057.2 350 l 1070.36 350 l 
1083.52 350 l 1096.68 350 l 1109.84 350 l 1123 350 l 1136.16 350 l 1149.32 350 l 1162.48 350 l 1175.64 350 l 1188.8 350 l 1201.96 350 l 1215.12 340.288 l 1228.28 350 l 1241.44 350 l 1254.6 350 l 1267.76 350 l 1280.92 350 l 1294.08 350 l 1307.24 350 l 
1320.4 350 l 1333.56 350 l 1346.72 279.929 l 1359.88 350 l 1373.04 450.083 l 1386.2 461.415 l 1399.36 350 l 1412.52 350 l 1425.68 321.577 l 
st
gr
gs
np 136 706 m 1452 706 l 1452 83 l 136 83 l 136 706 l 
cp
0 0 1 col
1 lw [] 0 ld 0 lj 2 ml 0 lc
np 149.16 489.472 m 162.32 350 l 175.48 214.156 l 188.64 350 l 201.8 350 l 214.96 350 l 228.12 350 l 241.28 350 l 254.44 350 l 267.6 350 l 280.76 435.184 l 293.92 350 l 307.08 350 l 320.24 350 l 333.4 350 l 346.56 381.28 l 359.72 350 l 372.88 350 l 
386.04 350 l 399.2 350 l 412.36 350 l 425.52 350 l 438.68 350 l 451.84 260.335 l 465 350 l 478.16 350 l 491.32 350 l 504.48 397.314 l 517.64 350 l 530.8 350 l 543.96 350 l 557.12 350 l 570.28 350 l 583.44 350 l 596.6 350 l 609.76 350 l 622.92 350 l 
636.08 350 l 649.24 350 l 662.4 350 l 675.56 350 l 688.72 350 l 701.88 350 l 715.04 350 l 728.2 350 l 741.36 350 l 754.52 350 l 767.68 350 l 780.84 350 l 794 350 l 807.16 350 l 820.32 350 l 833.48 416.981 l 846.64 350 l 859.8 350 l 872.96 350 l 
886.12 350 l 899.28 350 l 912.44 350 l 925.6 350 l 938.76 432.064 l 951.92 350 l 965.08 350 l 978.24 350 l 991.4 350 l 1004.56 350 l 1017.72 350 l 1030.88 350 l 1044.04 350 l 1057.2 350 l 1070.36 350 l 1083.52 350 l 1096.68 350 l 1109.84 350 l 
1123 350 l 1136.16 350 l 1149.32 350 l 1162.48 350 l 1175.64 382.566 l 1188.8 350 l 1201.96 350 l 1215.12 377.775 l 1228.28 350 l 1241.44 350 l 1254.6 350 l 1267.76 350 l 1280.92 350 l 1294.08 350 l 1307.24 350 l 1320.4 350 l 1333.56 350 l 1346.72 350 l 
1359.88 350 l 1373.04 483.853 l 1386.2 350 l 1399.36 210.663 l 1412.52 213.351 l 1425.68 350 l 
st
gr
gs
np 136 706 m 1452 706 l 1452 83 l 136 83 l 136 706 l 
cp
0 1 1 col
1 lw [] 0 ld 0 lj 2 ml 0 lc
np 149.16 350 m 162.32 321.156 l 175.48 314.622 l 188.64 350 l 201.8 350 l 214.96 291.659 l 228.12 350 l 241.28 350 l 254.44 350 l 267.6 288.822 l 280.76 308.999 l 293.92 350 l 307.08 299.147 l 320.24 350 l 333.4 350 l 346.56 297.622 l 359.72 350 l 
372.88 350 l 386.04 350 l 399.2 350 l 412.36 350 l 425.52 350 l 438.68 350 l 451.84 350 l 465 350 l 478.16 350 l 491.32 350 l 504.48 350 l 517.64 304.6 l 530.8 350 l 543.96 294.205 l 557.12 350 l 570.28 350 l 583.44 350 l 596.6 350 l 609.76 350 l 
622.92 350 l 636.08 350 l 649.24 292.79 l 662.4 350 l 675.56 350 l 688.72 350 l 701.88 302.87 l 715.04 350 l 728.2 350 l 741.36 298.991 l 754.52 282.161 l 767.68 350 l 780.84 350 l 794 297.904 l 807.16 350 l 820.32 350 l 833.48 350 l 846.64 350 l 
859.8 350 l 872.96 350 l 886.12 350 l 899.28 350 l 912.44 350 l 925.6 299.719 l 938.76 350 l 951.92 350 l 965.08 350 l 978.24 350 l 991.4 350 l 1004.56 350 l 1017.72 294.99 l 1030.88 299.815 l 1044.04 350 l 1057.2 350 l 1070.36 350 l 1083.52 295.644 l 
1096.68 350 l 1109.84 350 l 1123 350 l 1136.16 350 l 1149.32 350 l 1162.48 350 l 1175.64 350 l 1188.8 350 l 1201.96 350 l 1215.12 350 l 1228.28 350 l 1241.44 350 l 1254.6 290.716 l 1267.76 350 l 1280.92 350 l 1294.08 295.485 l 1307.24 350 l 1320.4 350 l 
1333.56 350 l 1346.72 350 l 1359.88 350 l 1373.04 350 l 1386.2 350 l 1399.36 350 l 1412.52 350 l 1425.68 326.63 l 
st
gr
gs
np 136 706 m 1452 706 l 1452 83 l 136 83 l 136 706 l 
cp
1 0 1 col
1 lw [] 0 ld 0 lj 2 ml 0 lc
np 149.16 350 m 162.32 350 l 175.48 350 l 188.64 350 l 201.8 350 l 214.96 463.714 l 228.12 350 l 241.28 350 l 254.44 350 l 267.6 350 l 280.76 279.557 l 293.92 350 l 307.08 482.992 l 320.24 486.907 l 333.4 211.1 l 346.56 350 l 359.72 350 l 
372.88 236.089 l 386.04 350 l 399.2 250.474 l 412.36 350 l 425.52 244.169 l 438.68 350 l 451.84 350 l 465 350 l 478.16 230.369 l 491.32 350 l 504.48 249.456 l 517.64 350 l 530.8 243.224 l 543.96 350 l 557.12 350 l 570.28 350 l 583.44 249.038 l 
596.6 350 l 609.76 257.971 l 622.92 350 l 636.08 350 l 649.24 240.209 l 662.4 249.609 l 675.56 350 l 688.72 244.243 l 701.88 350 l 715.04 350 l 728.2 264.007 l 741.36 350 l 754.52 350 l 767.68 350 l 780.84 350 l 794 350 l 807.16 350 l 820.32 350 l 
833.48 350 l 846.64 241.86 l 859.8 350 l 872.96 231.783 l 886.12 248.234 l 899.28 350 l 912.44 350 l 925.6 350 l 938.76 350 l 951.92 350 l 965.08 350 l 978.24 350 l 991.4 242.862 l 1004.56 251.68 l 1017.72 350 l 1030.88 350 l 1044.04 248.689 l 
1057.2 350 l 1070.36 350 l 1083.52 350 l 1096.68 243.31 l 1109.84 252.963 l 1123 350 l 1136.16 255.509 l 1149.32 350 l 1162.48 350 l 1175.64 350 l 1188.8 350 l 1201.96 350 l 1215.12 246.318 l 1228.28 252.011 l 1241.44 350 l 1254.6 350 l 
1267.76 253.998 l 1280.92 243.832 l 1294.08 262.154 l 1307.24 253.091 l 1320.4 241.687 l 1333.56 350 l 1346.72 350 l 1359.88 384.052 l 1373.04 360.115 l 1386.2 350 l 1399.36 350 l 1412.52 350 l 1425.68 350 l 
st
gr
0 0 0 col
/Helvetica-Bold f 28.4492 sf
692.359 732.703 m (data_04.11.2016 014420) s
0 0 0 col
/Helvetica-Bold f 24.385 sf
23.3906 365.516 m
gs
90 r
(AccX) s
gr
0 0 0 col
/ReEncode { % inFont outFont encoding | -
 /MyEncoding exch def
 exch findfont
 dup length dict
 begin
	{def} forall
	/Encoding MyEncoding def
	currentdict
 end
 definefont
} def
/Helvetica /Helvetica-Latin1 ISOLatin1Encoding ReEncode
/Helvetica-Latin1 f 24.385 sf
113.688 74.1562 m (\0556e+15) dup sw s
0 0 0 col
/Helvetica-Latin1 f 24.385 sf
113.688 163.156 m (\0554e+15) dup sw s
0 0 0 col
/Helvetica-Latin1 f 24.385 sf
113.688 252.156 m (\0552e+15) dup sw s
0 0 0 col
100 341.156 m (0) s
0 0 0 col
46 430.156 m (2e+15) s
0 0 0 col
46 519.156 m (4e+15) s
0 0 0 col
46 608.156 m (6e+15) s
0 0 0 col
46 697.156 m (8e+15) s
0 0 0 col
1 lw [] 0 ld 2 lj 2 lc
np 136 101 m 126 101 l 
st
0 0 0 col
1 lw [] 0 ld 2 lj 2 lc
np 136 119 m 126 119 l 
st
0 0 0 col
1 lw [] 0 ld 2 lj 2 lc
np 136 136 m 126 136 l 
st
0 0 0 col
1 lw [] 0 ld 2 lj 2 lc
np 136 154 m 126 154 l 
st
0 0 0 col
1 lw [] 0 ld 2 lj 2 lc
np 136 190 m 126 190 l 
st
0 0 0 col
1 lw [] 0 ld 2 lj 2 lc
np 136 208 m 126 208 l 
st
0 0 0 col
1 lw [] 0 ld 2 lj 2 lc
np 136 225 m 126 225 l 
st
0 0 0 col
1 lw [] 0 ld 2 lj 2 lc
np 136 243 m 126 243 l 
st
0 0 0 col
1 lw [] 0 ld 2 lj 2 lc
np 136 279 m 126 279 l 
st
0 0 0 col
1 lw [] 0 ld 2 lj 2 lc
np 136 297 m 126 297 l 
st
0 0 0 col
1 lw [] 0 ld 2 lj 2 lc
np 136 314 m 126 314 l 
st
0 0 0 col
1 lw [] 0 ld 2 lj 2 lc
np 136 332 m 126 332 l 
st
0 0 0 col
1 lw [] 0 ld 2 lj 2 lc
np 136 368 m 126 368 l 
st
0 0 0 col
1 lw [] 0 ld 2 lj 2 lc
np 136 386 m 126 386 l 
st
0 0 0 col
1 lw [] 0 ld 2 lj 2 lc
np 136 403 m 126 403 l 
st
0 0 0 col
1 lw [] 0 ld 2 lj 2 lc
np 136 421 m 126 421 l 
st
0 0 0 col
1 lw [] 0 ld 2 lj 2 lc
np 136 457 m 126 457 l 
st
0 0 0 col
1 lw [] 0 ld 2 lj 2 lc
np 136 475 m 126 475 l 
st
0 0 0 col
1 lw [] 0 ld 2 lj 2 lc
np 136 492 m 126 492 l 
st
0 0 0 col
1 lw [] 0 ld 2 lj 2 lc
np 136 510 m 126 510 l 
st
0 0 0 col
1 lw [] 0 ld 2 lj 2 lc
np 136 546 m 126 546 l 
st
0 0 0 col
1 lw [] 0 ld 2 lj 2 lc
np 136 564 m 126 564 l 
st
0 0 0 col
1 lw [] 0 ld 2 lj 2 lc
np 136 581 m 126 581 l 
st
0 0 0 col
1 lw [] 0 ld 2 lj 2 lc
np 136 599 m 126 599 l 
st
0 0 0 col
1 lw [] 0 ld 2 lj 2 lc
np 136 635 m 126 635 l 
st
0 0 0 col
1 lw [] 0 ld 2 lj 2 lc
np 136 653 m 126 653 l 
st
0 0 0 col
1 lw [] 0 ld 2 lj 2 lc
np 136 670 m 126 670 l 
st
0 0 0 col
1 lw [] 0 ld 2 lj 2 lc
np 136 688 m 126 688 l 
st
0 0 0 col
1 lw [] 0 ld 2 lj 2 lc
np 136 83 m 118 83 l 
st
0 0 0 col
1 lw [] 0 ld 2 lj 2 lc
np 136 172 m 118 172 l 
st
0 0 0 col
1 lw [] 0 ld 2 lj 2 lc
np 136 261 m 118 261 l 
st
0 0 0 col
1 lw [] 0 ld 2 lj 2 lc
np 136 350 m 118 350 l 
st
0 0 0 col
1 lw [] 0 ld 2 lj 2 lc
np 136 439 m 118 439 l 
st
0 0 0 col
1 lw [] 0 ld 2 lj 2 lc
np 136 528 m 118 528 l 
st
0 0 0 col
1 lw [] 0 ld 2 lj 2 lc
np 136 617 m 118 617 l 
st
0 0 0 col
1 lw [] 0 ld 2 lj 2 lc
np 136 706 m 118 706 l 
st
0 0 0 col
1 lw [] 0 ld 2 lj 2 lc
np 136 706 m 136 83 l 
st
0 0 0 col
/Helvetica-Bold f 24.385 sf
785.594 5.60938 m (Timestamp) s
0 0 0 col
/Helvetica f 24.385 sf
289 37.1562 m (04.11.2016 01:44:23) s
0 0 0 col
552 37.1562 m (04.11.2016 01:44:27) s
0 0 0 col
816 37.1562 m (04.11.2016 01:44:31) s
0 0 0 col
1079 37.1562 m (04.11.2016 01:44:35) s
0 0 0 col
1 lw [] 0 ld 2 lj 2 lc
np 189 83 m 189 73 l 
st
0 0 0 col
1 lw [] 0 ld 2 lj 2 lc
np 241 83 m 241 73 l 
st
0 0 0 col
1 lw [] 0 ld 2 lj 2 lc
np 294 83 m 294 73 l 
st
0 0 0 col
1 lw [] 0 ld 2 lj 2 lc
np 347 83 m 347 73 l 
st
0 0 0 col
1 lw [] 0 ld 2 lj 2 lc
np 452 83 m 452 73 l 
st
0 0 0 col
1 lw [] 0 ld 2 lj 2 lc
np 504 83 m 504 73 l 
st
0 0 0 col
1 lw [] 0 ld 2 lj 2 lc
np 557 83 m 557 73 l 
st
0 0 0 col
1 lw [] 0 ld 2 lj 2 lc
np 610 83 m 610 73 l 
st
0 0 0 col
1 lw [] 0 ld 2 lj 2 lc
np 715 83 m 715 73 l 
st
0 0 0 col
1 lw [] 0 ld 2 lj 2 lc
np 768 83 m 768 73 l 
st
0 0 0 col
1 lw [] 0 ld 2 lj 2 lc
np 820 83 m 820 73 l 
st
0 0 0 col
1 lw [] 0 ld 2 lj 2 lc
np 873 83 m 873 73 l 
st
0 0 0 col
1 lw [] 0 ld 2 lj 2 lc
np 978 83 m 978 73 l 
st
0 0 0 col
1 lw [] 0 ld 2 lj 2 lc
np 1031 83 m 1031 73 l 
st
0 0 0 col
1 lw [] 0 ld 2 lj 2 lc
np 1084 83 m 1084 73 l 
st
0 0 0 col
1 lw [] 0 ld 2 lj 2 lc
np 1136 83 m 1136 73 l 
st
0 0 0 col
1 lw [] 0 ld 2 lj 2 lc
np 1241 83 m 1241 73 l 
st
0 0 0 col
1 lw [] 0 ld 2 lj 2 lc
np 1294 83 m 1294 73 l 
st
0 0 0 col
1 lw [] 0 ld 2 lj 2 lc
np 1347 83 m 1347 73 l 
st
0 0 0 col
1 lw [] 0 ld 2 lj 2 lc
np 1399 83 m 1399 73 l 
st
0 0 0 col
1 lw [] 0 ld 2 lj 2 lc
np 136 83 m 136 65 l 
st
0 0 0 col
1 lw [] 0 ld 2 lj 2 lc
np 399 83 m 399 65 l 
st
0 0 0 col
1 lw [] 0 ld 2 lj 2 lc
np 662 83 m 662 65 l 
st
0 0 0 col
1 lw [] 0 ld 2 lj 2 lc
np 926 83 m 926 65 l 
st
0 0 0 col
1 lw [] 0 ld 2 lj 2 lc
np 1189 83 m 1189 65 l 
st
0 0 0 col
1 lw [] 0 ld 2 lj 2 lc
np 1452 83 m 1452 65 l 
st
0 0 0 col
1 lw [] 0 ld 2 lj 2 lc
np 136 83 m 1452 83 l 
st
0 0 0 col
1 lw [] 0 ld 0 lj 2 ml 2 lc
np 169 685 m 306 685 l 306 500 l 169 500 l 169 685 l 
st
0 0 0 col
1 lw [] 0 ld 0 lj 2 ml 0 lc
np 180 665 m 212 665 l 
st
0 0 0 col
222 656.156 m (AccX) s
1 0 0 col
1 lw [] 0 ld 0 lj 2 ml 0 lc
np 180 636 m 212 636 l 
st
0 0 0 col
222 627.156 m (AccY) s
0 1 0 col
1 lw [] 0 ld 0 lj 2 ml 0 lc
np 180 607 m 212 607 l 
st
0 0 0 col
222 598.156 m (AccZ) s
0 0 1 col
1 lw [] 0 ld 0 lj 2 ml 0 lc
np 180 578 m 212 578 l 
st
0 0 0 col
222 569.156 m (OrienX) s
0 1 1 col
1 lw [] 0 ld 0 lj 2 ml 0 lc
np 180 549 m 212 549 l 
st
0 0 0 col
222 540.156 m (OrienY) s
1 0 1 col
1 lw [] 0 ld 0 lj 2 ml 0 lc
np 180 520 m 212 520 l 
st
0 0 0 col
222 511.156 m (OrienZ) s
%%EOF