%!PS-Adobe-3.0 EPSF-3.0
%%BoundingBox: 0 0 1563 760
%%Pages: 0
%%Creator: QtiPlot
%%CreationDate: 2016-11-07
%%Title: /Users/vincentcuccu/fopra2016-17/NeglectDetect/Documents/Testdaten/data_04.11.2016/data_04.11.2016 014518.eps
%%BeginProlog
/bd {bind def} bind def
/c {curveto} bd
/f {findfont} bd
/l {lineto} bd
/m {moveto} bd
/r {rotate} bd
/s {show} bd
/cp {clip} bd
/fl {fill} bd
/rf {rectfill} bd
/np {newpath} bd
/lw {setlinewidth} bd
/lc {setlinecap} bd
/lj {setlinejoin} bd
/ml {setmiterlimit} bd
/ld {setdash} bd
/gl {glyphshow} bd
/gs {gsave} bd
/gr {grestore} bd
/st {stroke} bd
/sf {scalefont setfont} bd
/tr {translate} bd
/sw {stringwidth pop neg 0 rmoveto} bind def
/col {setrgbcolor} bd
%%EndProlog
gs
np 136 706 m 1452 706 l 1452 83 l 136 83 l 136 706 l 
cp
0.627451 0.627451 0.643137 col
1 lw [4 2] 0 ld 2 lj 2 lc
np 189 706 m 189 83 l 
st
gr
gs
np 136 706 m 1452 706 l 1452 83 l 136 83 l 136 706 l 
cp
0.627451 0.627451 0.643137 col
1 lw [4 2] 0 ld 2 lj 2 lc
np 241 706 m 241 83 l 
st
gr
gs
np 136 706 m 1452 706 l 1452 83 l 136 83 l 136 706 l 
cp
0.627451 0.627451 0.643137 col
1 lw [4 2] 0 ld 2 lj 2 lc
np 294 706 m 294 83 l 
st
gr
gs
np 136 706 m 1452 706 l 1452 83 l 136 83 l 136 706 l 
cp
0.627451 0.627451 0.643137 col
1 lw [4 2] 0 ld 2 lj 2 lc
np 347 706 m 347 83 l 
st
gr
gs
np 136 706 m 1452 706 l 1452 83 l 136 83 l 136 706 l 
cp
0.627451 0.627451 0.643137 col
1 lw [4 2] 0 ld 2 lj 2 lc
np 452 706 m 452 83 l 
st
gr
gs
np 136 706 m 1452 706 l 1452 83 l 136 83 l 136 706 l 
cp
0.627451 0.627451 0.643137 col
1 lw [4 2] 0 ld 2 lj 2 lc
np 504 706 m 504 83 l 
st
gr
gs
np 136 706 m 1452 706 l 1452 83 l 136 83 l 136 706 l 
cp
0.627451 0.627451 0.643137 col
1 lw [4 2] 0 ld 2 lj 2 lc
np 557 706 m 557 83 l 
st
gr
gs
np 136 706 m 1452 706 l 1452 83 l 136 83 l 136 706 l 
cp
0.627451 0.627451 0.643137 col
1 lw [4 2] 0 ld 2 lj 2 lc
np 610 706 m 610 83 l 
st
gr
gs
np 136 706 m 1452 706 l 1452 83 l 136 83 l 136 706 l 
cp
0.627451 0.627451 0.643137 col
1 lw [4 2] 0 ld 2 lj 2 lc
np 715 706 m 715 83 l 
st
gr
gs
np 136 706 m 1452 706 l 1452 83 l 136 83 l 136 706 l 
cp
0.627451 0.627451 0.643137 col
1 lw [4 2] 0 ld 2 lj 2 lc
np 768 706 m 768 83 l 
st
gr
gs
np 136 706 m 1452 706 l 1452 83 l 136 83 l 136 706 l 
cp
0.627451 0.627451 0.643137 col
1 lw [4 2] 0 ld 2 lj 2 lc
np 820 706 m 820 83 l 
st
gr
gs
np 136 706 m 1452 706 l 1452 83 l 136 83 l 136 706 l 
cp
0.627451 0.627451 0.643137 col
1 lw [4 2] 0 ld 2 lj 2 lc
np 873 706 m 873 83 l 
st
gr
gs
np 136 706 m 1452 706 l 1452 83 l 136 83 l 136 706 l 
cp
0.627451 0.627451 0.643137 col
1 lw [4 2] 0 ld 2 lj 2 lc
np 978 706 m 978 83 l 
st
gr
gs
np 136 706 m 1452 706 l 1452 83 l 136 83 l 136 706 l 
cp
0.627451 0.627451 0.643137 col
1 lw [4 2] 0 ld 2 lj 2 lc
np 1031 706 m 1031 83 l 
st
gr
gs
np 136 706 m 1452 706 l 1452 83 l 136 83 l 136 706 l 
cp
0.627451 0.627451 0.643137 col
1 lw [4 2] 0 ld 2 lj 2 lc
np 1084 706 m 1084 83 l 
st
gr
gs
np 136 706 m 1452 706 l 1452 83 l 136 83 l 136 706 l 
cp
0.627451 0.627451 0.643137 col
1 lw [4 2] 0 ld 2 lj 2 lc
np 1136 706 m 1136 83 l 
st
gr
gs
np 136 706 m 1452 706 l 1452 83 l 136 83 l 136 706 l 
cp
0.627451 0.627451 0.643137 col
1 lw [4 2] 0 ld 2 lj 2 lc
np 1241 706 m 1241 83 l 
st
gr
gs
np 136 706 m 1452 706 l 1452 83 l 136 83 l 136 706 l 
cp
0.627451 0.627451 0.643137 col
1 lw [4 2] 0 ld 2 lj 2 lc
np 1294 706 m 1294 83 l 
st
gr
gs
np 136 706 m 1452 706 l 1452 83 l 136 83 l 136 706 l 
cp
0.627451 0.627451 0.643137 col
1 lw [4 2] 0 ld 2 lj 2 lc
np 1347 706 m 1347 83 l 
st
gr
gs
np 136 706 m 1452 706 l 1452 83 l 136 83 l 136 706 l 
cp
0.627451 0.627451 0.643137 col
1 lw [4 2] 0 ld 2 lj 2 lc
np 1399 706 m 1399 83 l 
st
gr
gs
np 136 706 m 1452 706 l 1452 83 l 136 83 l 136 706 l 
cp
0.627451 0.627451 0.643137 col
1 lw [4 2] 0 ld 2 lj 2 lc
np 136 97 m 1452 97 l 
st
gr
gs
np 136 706 m 1452 706 l 1452 83 l 136 83 l 136 706 l 
cp
0.627451 0.627451 0.643137 col
1 lw [4 2] 0 ld 2 lj 2 lc
np 136 111 m 1452 111 l 
st
gr
gs
np 136 706 m 1452 706 l 1452 83 l 136 83 l 136 706 l 
cp
0.627451 0.627451 0.643137 col
1 lw [4 2] 0 ld 2 lj 2 lc
np 136 125 m 1452 125 l 
st
gr
gs
np 136 706 m 1452 706 l 1452 83 l 136 83 l 136 706 l 
cp
0.627451 0.627451 0.643137 col
1 lw [4 2] 0 ld 2 lj 2 lc
np 136 138 m 1452 138 l 
st
gr
gs
np 136 706 m 1452 706 l 1452 83 l 136 83 l 136 706 l 
cp
0.627451 0.627451 0.643137 col
1 lw [4 2] 0 ld 2 lj 2 lc
np 136 166 m 1452 166 l 
st
gr
gs
np 136 706 m 1452 706 l 1452 83 l 136 83 l 136 706 l 
cp
0.627451 0.627451 0.643137 col
1 lw [4 2] 0 ld 2 lj 2 lc
np 136 180 m 1452 180 l 
st
gr
gs
np 136 706 m 1452 706 l 1452 83 l 136 83 l 136 706 l 
cp
0.627451 0.627451 0.643137 col
1 lw [4 2] 0 ld 2 lj 2 lc
np 136 194 m 1452 194 l 
st
gr
gs
np 136 706 m 1452 706 l 1452 83 l 136 83 l 136 706 l 
cp
0.627451 0.627451 0.643137 col
1 lw [4 2] 0 ld 2 lj 2 lc
np 136 208 m 1452 208 l 
st
gr
gs
np 136 706 m 1452 706 l 1452 83 l 136 83 l 136 706 l 
cp
0.627451 0.627451 0.643137 col
1 lw [4 2] 0 ld 2 lj 2 lc
np 136 235 m 1452 235 l 
st
gr
gs
np 136 706 m 1452 706 l 1452 83 l 136 83 l 136 706 l 
cp
0.627451 0.627451 0.643137 col
1 lw [4 2] 0 ld 2 lj 2 lc
np 136 249 m 1452 249 l 
st
gr
gs
np 136 706 m 1452 706 l 1452 83 l 136 83 l 136 706 l 
cp
0.627451 0.627451 0.643137 col
1 lw [4 2] 0 ld 2 lj 2 lc
np 136 263 m 1452 263 l 
st
gr
gs
np 136 706 m 1452 706 l 1452 83 l 136 83 l 136 706 l 
cp
0.627451 0.627451 0.643137 col
1 lw [4 2] 0 ld 2 lj 2 lc
np 136 277 m 1452 277 l 
st
gr
gs
np 136 706 m 1452 706 l 1452 83 l 136 83 l 136 706 l 
cp
0.627451 0.627451 0.643137 col
1 lw [4 2] 0 ld 2 lj 2 lc
np 136 305 m 1452 305 l 
st
gr
gs
np 136 706 m 1452 706 l 1452 83 l 136 83 l 136 706 l 
cp
0.627451 0.627451 0.643137 col
1 lw [4 2] 0 ld 2 lj 2 lc
np 136 318 m 1452 318 l 
st
gr
gs
np 136 706 m 1452 706 l 1452 83 l 136 83 l 136 706 l 
cp
0.627451 0.627451 0.643137 col
1 lw [4 2] 0 ld 2 lj 2 lc
np 136 332 m 1452 332 l 
st
gr
gs
np 136 706 m 1452 706 l 1452 83 l 136 83 l 136 706 l 
cp
0.627451 0.627451 0.643137 col
1 lw [4 2] 0 ld 2 lj 2 lc
np 136 346 m 1452 346 l 
st
gr
gs
np 136 706 m 1452 706 l 1452 83 l 136 83 l 136 706 l 
cp
0.627451 0.627451 0.643137 col
1 lw [4 2] 0 ld 2 lj 2 lc
np 136 374 m 1452 374 l 
st
gr
gs
np 136 706 m 1452 706 l 1452 83 l 136 83 l 136 706 l 
cp
0.627451 0.627451 0.643137 col
1 lw [4 2] 0 ld 2 lj 2 lc
np 136 388 m 1452 388 l 
st
gr
gs
np 136 706 m 1452 706 l 1452 83 l 136 83 l 136 706 l 
cp
0.627451 0.627451 0.643137 col
1 lw [4 2] 0 ld 2 lj 2 lc
np 136 401 m 1452 401 l 
st
gr
gs
np 136 706 m 1452 706 l 1452 83 l 136 83 l 136 706 l 
cp
0.627451 0.627451 0.643137 col
1 lw [4 2] 0 ld 2 lj 2 lc
np 136 415 m 1452 415 l 
st
gr
gs
np 136 706 m 1452 706 l 1452 83 l 136 83 l 136 706 l 
cp
0.627451 0.627451 0.643137 col
1 lw [4 2] 0 ld 2 lj 2 lc
np 136 443 m 1452 443 l 
st
gr
gs
np 136 706 m 1452 706 l 1452 83 l 136 83 l 136 706 l 
cp
0.627451 0.627451 0.643137 col
1 lw [4 2] 0 ld 2 lj 2 lc
np 136 457 m 1452 457 l 
st
gr
gs
np 136 706 m 1452 706 l 1452 83 l 136 83 l 136 706 l 
cp
0.627451 0.627451 0.643137 col
1 lw [4 2] 0 ld 2 lj 2 lc
np 136 471 m 1452 471 l 
st
gr
gs
np 136 706 m 1452 706 l 1452 83 l 136 83 l 136 706 l 
cp
0.627451 0.627451 0.643137 col
1 lw [4 2] 0 ld 2 lj 2 lc
np 136 484 m 1452 484 l 
st
gr
gs
np 136 706 m 1452 706 l 1452 83 l 136 83 l 136 706 l 
cp
0.627451 0.627451 0.643137 col
1 lw [4 2] 0 ld 2 lj 2 lc
np 136 512 m 1452 512 l 
st
gr
gs
np 136 706 m 1452 706 l 1452 83 l 136 83 l 136 706 l 
cp
0.627451 0.627451 0.643137 col
1 lw [4 2] 0 ld 2 lj 2 lc
np 136 526 m 1452 526 l 
st
gr
gs
np 136 706 m 1452 706 l 1452 83 l 136 83 l 136 706 l 
cp
0.627451 0.627451 0.643137 col
1 lw [4 2] 0 ld 2 lj 2 lc
np 136 540 m 1452 540 l 
st
gr
gs
np 136 706 m 1452 706 l 1452 83 l 136 83 l 136 706 l 
cp
0.627451 0.627451 0.643137 col
1 lw [4 2] 0 ld 2 lj 2 lc
np 136 554 m 1452 554 l 
st
gr
gs
np 136 706 m 1452 706 l 1452 83 l 136 83 l 136 706 l 
cp
0.627451 0.627451 0.643137 col
1 lw [4 2] 0 ld 2 lj 2 lc
np 136 581 m 1452 581 l 
st
gr
gs
np 136 706 m 1452 706 l 1452 83 l 136 83 l 136 706 l 
cp
0.627451 0.627451 0.643137 col
1 lw [4 2] 0 ld 2 lj 2 lc
np 136 595 m 1452 595 l 
st
gr
gs
np 136 706 m 1452 706 l 1452 83 l 136 83 l 136 706 l 
cp
0.627451 0.627451 0.643137 col
1 lw [4 2] 0 ld 2 lj 2 lc
np 136 609 m 1452 609 l 
st
gr
gs
np 136 706 m 1452 706 l 1452 83 l 136 83 l 136 706 l 
cp
0.627451 0.627451 0.643137 col
1 lw [4 2] 0 ld 2 lj 2 lc
np 136 623 m 1452 623 l 
st
gr
gs
np 136 706 m 1452 706 l 1452 83 l 136 83 l 136 706 l 
cp
0.627451 0.627451 0.643137 col
1 lw [4 2] 0 ld 2 lj 2 lc
np 136 651 m 1452 651 l 
st
gr
gs
np 136 706 m 1452 706 l 1452 83 l 136 83 l 136 706 l 
cp
0.627451 0.627451 0.643137 col
1 lw [4 2] 0 ld 2 lj 2 lc
np 136 664 m 1452 664 l 
st
gr
gs
np 136 706 m 1452 706 l 1452 83 l 136 83 l 136 706 l 
cp
0.627451 0.627451 0.643137 col
1 lw [4 2] 0 ld 2 lj 2 lc
np 136 678 m 1452 678 l 
st
gr
gs
np 136 706 m 1452 706 l 1452 83 l 136 83 l 136 706 l 
cp
0.627451 0.627451 0.643137 col
1 lw [4 2] 0 ld 2 lj 2 lc
np 136 692 m 1452 692 l 
st
gr
gs
np 136 706 m 1452 706 l 1452 83 l 136 83 l 136 706 l 
cp
0.627451 0.627451 0.643137 col
1 lw [] 0 ld 2 lj 2 lc
np 399 706 m 399 83 l 
st
gr
gs
np 136 706 m 1452 706 l 1452 83 l 136 83 l 136 706 l 
cp
0.627451 0.627451 0.643137 col
1 lw [] 0 ld 2 lj 2 lc
np 662 706 m 662 83 l 
st
gr
gs
np 136 706 m 1452 706 l 1452 83 l 136 83 l 136 706 l 
cp
0.627451 0.627451 0.643137 col
1 lw [] 0 ld 2 lj 2 lc
np 926 706 m 926 83 l 
st
gr
gs
np 136 706 m 1452 706 l 1452 83 l 136 83 l 136 706 l 
cp
0.627451 0.627451 0.643137 col
1 lw [] 0 ld 2 lj 2 lc
np 1189 706 m 1189 83 l 
st
gr
gs
np 136 706 m 1452 706 l 1452 83 l 136 83 l 136 706 l 
cp
0.627451 0.627451 0.643137 col
1 lw [] 0 ld 2 lj 2 lc
np 136 152 m 1452 152 l 
st
gr
gs
np 136 706 m 1452 706 l 1452 83 l 136 83 l 136 706 l 
cp
0.627451 0.627451 0.643137 col
1 lw [] 0 ld 2 lj 2 lc
np 136 221 m 1452 221 l 
st
gr
gs
np 136 706 m 1452 706 l 1452 83 l 136 83 l 136 706 l 
cp
0.627451 0.627451 0.643137 col
1 lw [] 0 ld 2 lj 2 lc
np 136 291 m 1452 291 l 
st
gr
gs
np 136 706 m 1452 706 l 1452 83 l 136 83 l 136 706 l 
cp
0.627451 0.627451 0.643137 col
1 lw [] 0 ld 2 lj 2 lc
np 136 360 m 1452 360 l 
st
gr
gs
np 136 706 m 1452 706 l 1452 83 l 136 83 l 136 706 l 
cp
0.627451 0.627451 0.643137 col
1 lw [] 0 ld 2 lj 2 lc
np 136 429 m 1452 429 l 
st
gr
gs
np 136 706 m 1452 706 l 1452 83 l 136 83 l 136 706 l 
cp
0.627451 0.627451 0.643137 col
1 lw [] 0 ld 2 lj 2 lc
np 136 498 m 1452 498 l 
st
gr
gs
np 136 706 m 1452 706 l 1452 83 l 136 83 l 136 706 l 
cp
0.627451 0.627451 0.643137 col
1 lw [] 0 ld 2 lj 2 lc
np 136 568 m 1452 568 l 
st
gr
gs
np 136 706 m 1452 706 l 1452 83 l 136 83 l 136 706 l 
cp
0.627451 0.627451 0.643137 col
1 lw [] 0 ld 2 lj 2 lc
np 136 637 m 1452 637 l 
st
gr
gs
np 136 706 m 1452 706 l 1452 83 l 136 83 l 136 706 l 
cp
0 0 0 col
1 lw [] 0 ld 0 lj 2 ml 0 lc
np 149.16 359.889 m 162.32 409.674 l 175.48 359.889 l 188.64 359.889 l 201.8 359.889 l 214.96 359.889 l 228.12 359.889 l 241.28 359.889 l 254.44 359.889 l 267.6 359.889 l 280.76 359.889 l 293.92 508.995 l 307.08 359.889 l 320.24 359.889 l 
333.4 359.889 l 346.56 359.889 l 359.72 390.933 l 372.88 359.889 l 386.04 359.889 l 399.2 359.889 l 412.36 359.889 l 425.52 359.889 l 438.68 359.889 l 451.84 359.889 l 465 207.482 l 478.16 359.889 l 491.32 542.771 l 504.48 359.889 l 517.64 359.889 l 
530.8 338.665 l 543.96 446.956 l 557.12 342.417 l 570.28 359.889 l 583.44 359.889 l 596.6 359.889 l 609.76 212.208 l 622.92 359.889 l 636.08 482.405 l 649.24 359.889 l 662.4 359.889 l 675.56 359.889 l 688.72 359.889 l 701.88 359.889 l 715.04 359.889 l 
728.2 359.889 l 741.36 423.512 l 754.52 359.889 l 767.68 359.889 l 780.84 359.889 l 794 359.889 l 807.16 359.889 l 820.32 359.889 l 833.48 359.889 l 846.64 359.889 l 859.8 359.889 l 872.96 359.889 l 886.12 412.857 l 899.28 359.889 l 912.44 359.889 l 
925.6 359.889 l 938.76 423.794 l 951.92 324.874 l 965.08 359.889 l 978.24 198.859 l 991.4 359.889 l 1004.56 464.949 l 1017.72 359.889 l 1030.88 422.725 l 1044.04 359.889 l 1057.2 359.889 l 1070.36 359.889 l 1083.52 398.671 l 1096.68 359.889 l 
1109.84 359.889 l 1123 303.771 l 1136.16 359.889 l 1149.32 359.889 l 1162.48 323.383 l 1175.64 290.312 l 1188.8 359.889 l 1201.96 191.907 l 1215.12 359.889 l 1228.28 359.889 l 1241.44 359.889 l 1254.6 359.889 l 1267.76 359.889 l 1280.92 201.593 l 
1294.08 359.889 l 1307.24 359.889 l 1320.4 359.889 l 1333.56 359.889 l 1346.72 359.889 l 1359.88 136.661 l 1373.04 158.795 l 1386.2 359.889 l 1399.36 267.698 l 1412.52 359.889 l 
st
gr
gs
np 136 706 m 1452 706 l 1452 83 l 136 83 l 136 706 l 
cp
1 0 0 col
1 lw [] 0 ld 0 lj 2 ml 0 lc
np 149.16 359.889 m 162.32 359.889 l 175.48 359.889 l 188.64 359.889 l 201.8 469.552 l 214.96 458.846 l 228.12 240.407 l 241.28 359.889 l 254.44 359.889 l 267.6 217.81 l 280.76 359.889 l 293.92 359.889 l 307.08 359.889 l 320.24 359.889 l 333.4 359.889 l 
346.56 224.343 l 359.72 270.693 l 372.88 359.889 l 386.04 359.889 l 399.2 276.443 l 412.36 359.889 l 425.52 359.889 l 438.68 220.838 l 451.84 359.889 l 465 359.889 l 478.16 359.889 l 491.32 534.535 l 504.48 287.112 l 517.64 359.889 l 530.8 359.889 l 
543.96 359.889 l 557.12 359.889 l 570.28 359.889 l 583.44 240.848 l 596.6 359.889 l 609.76 359.889 l 622.92 359.889 l 636.08 637.582 l 649.24 359.889 l 662.4 299.039 l 675.56 359.889 l 688.72 359.889 l 701.88 359.889 l 715.04 359.889 l 728.2 256.158 l 
741.36 359.889 l 754.52 359.889 l 767.68 359.889 l 780.84 359.889 l 794 359.889 l 807.16 359.889 l 820.32 578.725 l 833.48 359.889 l 846.64 359.889 l 859.8 359.889 l 872.96 359.889 l 886.12 359.889 l 899.28 359.889 l 912.44 232.305 l 925.6 423.416 l 
938.76 293.6 l 951.92 359.889 l 965.08 465.251 l 978.24 359.889 l 991.4 359.889 l 1004.56 545.557 l 1017.72 359.889 l 1030.88 359.889 l 1044.04 598.175 l 1057.2 359.889 l 1070.36 359.889 l 1083.52 359.889 l 1096.68 359.889 l 1109.84 359.889 l 
1123 359.889 l 1136.16 359.889 l 1149.32 359.889 l 1162.48 279.751 l 1175.64 359.889 l 1188.8 359.889 l 1201.96 359.889 l 1215.12 273.756 l 1228.28 359.889 l 1241.44 359.889 l 1254.6 359.889 l 1267.76 359.889 l 1280.92 359.889 l 1294.08 359.889 l 
1307.24 359.889 l 1320.4 359.889 l 1333.56 359.889 l 1346.72 359.889 l 1359.88 283.936 l 1373.04 242.706 l 1386.2 359.889 l 1399.36 185.088 l 1412.52 232.668 l 
st
gr
gs
np 136 706 m 1452 706 l 1452 83 l 136 83 l 136 706 l 
cp
0 1 0 col
1 lw [] 0 ld 0 lj 2 ml 0 lc
np 149.16 359.889 m 162.32 359.889 l 175.48 359.889 l 188.64 359.889 l 201.8 327.974 l 214.96 359.889 l 228.12 359.889 l 241.28 359.889 l 254.44 359.889 l 267.6 359.889 l 280.76 178.234 l 293.92 359.889 l 307.08 359.889 l 320.24 276.333 l 
333.4 359.889 l 346.56 359.889 l 359.72 359.889 l 372.88 359.889 l 386.04 359.889 l 399.2 294.897 l 412.36 262.773 l 425.52 457.103 l 438.68 359.889 l 451.84 359.889 l 465 359.889 l 478.16 359.889 l 491.32 359.889 l 504.48 359.889 l 517.64 359.889 l 
530.8 359.889 l 543.96 359.889 l 557.12 359.889 l 570.28 359.889 l 583.44 359.889 l 596.6 359.889 l 609.76 359.889 l 622.92 359.889 l 636.08 359.889 l 649.24 252.373 l 662.4 359.889 l 675.56 359.889 l 688.72 359.889 l 701.88 359.889 l 715.04 359.889 l 
728.2 359.889 l 741.36 330.461 l 754.52 359.889 l 767.68 359.889 l 780.84 359.889 l 794 556.919 l 807.16 359.889 l 820.32 359.889 l 833.48 359.889 l 846.64 359.889 l 859.8 359.889 l 872.96 359.889 l 886.12 359.889 l 899.28 359.889 l 912.44 359.889 l 
925.6 359.889 l 938.76 359.889 l 951.92 359.889 l 965.08 359.889 l 978.24 424.157 l 991.4 359.889 l 1004.56 359.889 l 1017.72 359.889 l 1030.88 359.889 l 1044.04 359.889 l 1057.2 359.889 l 1070.36 359.889 l 1083.52 359.889 l 1096.68 359.889 l 
1109.84 359.889 l 1123 455.159 l 1136.16 289.821 l 1149.32 359.889 l 1162.48 359.889 l 1175.64 359.889 l 1188.8 359.889 l 1201.96 472.393 l 1215.12 300.345 l 1228.28 359.889 l 1241.44 535.039 l 1254.6 359.889 l 1267.76 359.889 l 1280.92 561.248 l 
1294.08 359.889 l 1307.24 359.889 l 1320.4 359.889 l 1333.56 359.889 l 1346.72 110.523 l 1359.88 359.889 l 1373.04 626.072 l 1386.2 639.227 l 1399.36 527.449 l 1412.52 359.889 l 
st
gr
gs
np 136 706 m 1452 706 l 1452 83 l 136 83 l 136 706 l 
cp
0 0 1 col
1 lw [] 0 ld 0 lj 2 ml 0 lc
np 149.16 442.753 m 162.32 359.889 l 175.48 359.889 l 188.64 446.292 l 201.8 359.889 l 214.96 359.889 l 228.12 359.889 l 241.28 303.142 l 254.44 359.889 l 267.6 359.889 l 280.76 359.889 l 293.92 359.889 l 307.08 359.889 l 320.24 359.889 l 
333.4 359.889 l 346.56 359.889 l 359.72 359.889 l 372.88 359.889 l 386.04 359.889 l 399.2 359.889 l 412.36 359.889 l 425.52 359.889 l 438.68 359.889 l 451.84 359.889 l 465 359.889 l 478.16 359.889 l 491.32 359.889 l 504.48 359.889 l 517.64 359.889 l 
530.8 359.889 l 543.96 359.889 l 557.12 448.339 l 570.28 359.889 l 583.44 359.889 l 596.6 402.62 l 609.76 359.889 l 622.92 453.404 l 636.08 359.889 l 649.24 359.889 l 662.4 334.347 l 675.56 359.889 l 688.72 359.889 l 701.88 359.889 l 715.04 359.889 l 
728.2 359.889 l 741.36 359.889 l 754.52 359.889 l 767.68 359.889 l 780.84 359.889 l 794 359.889 l 807.16 359.889 l 820.32 359.889 l 833.48 359.889 l 846.64 359.889 l 859.8 359.889 l 872.96 359.889 l 886.12 359.889 l 899.28 359.889 l 912.44 408.008 l 
925.6 359.889 l 938.76 359.889 l 951.92 359.889 l 965.08 395.008 l 978.24 359.889 l 991.4 359.889 l 1004.56 359.889 l 1017.72 359.889 l 1030.88 359.889 l 1044.04 359.889 l 1057.2 359.889 l 1070.36 402.424 l 1083.52 359.889 l 1096.68 359.889 l 
1109.84 378.935 l 1123 393.462 l 1136.16 359.889 l 1149.32 359.889 l 1162.48 359.889 l 1175.64 359.889 l 1188.8 359.889 l 1201.96 359.889 l 1215.12 443.902 l 1228.28 359.889 l 1241.44 359.889 l 1254.6 359.889 l 1267.76 359.889 l 1280.92 359.889 l 
1294.08 441.205 l 1307.24 359.889 l 1320.4 359.889 l 1333.56 449.027 l 1346.72 359.889 l 1359.88 359.889 l 1373.04 456.403 l 1386.2 452.126 l 1399.36 461.96 l 1412.52 359.889 l 
st
gr
gs
np 136 706 m 1452 706 l 1452 83 l 136 83 l 136 706 l 
cp
0 1 1 col
1 lw [] 0 ld 0 lj 2 ml 0 lc
np 149.16 334.816 m 162.32 359.889 l 175.48 359.889 l 188.64 359.889 l 201.8 359.889 l 214.96 320.235 l 228.12 359.889 l 241.28 359.889 l 254.44 359.889 l 267.6 359.889 l 280.76 320.429 l 293.92 321.12 l 307.08 359.889 l 320.24 359.889 l 333.4 319.279 l 
346.56 359.889 l 359.72 359.889 l 372.88 359.889 l 386.04 359.889 l 399.2 359.889 l 412.36 359.889 l 425.52 359.889 l 438.68 359.889 l 451.84 359.889 l 465 359.889 l 478.16 311.404 l 491.32 359.889 l 504.48 325.07 l 517.64 323.747 l 530.8 327.871 l 
543.96 315.936 l 557.12 359.889 l 570.28 318.984 l 583.44 359.889 l 596.6 315.403 l 609.76 359.889 l 622.92 359.889 l 636.08 359.889 l 649.24 321.454 l 662.4 359.889 l 675.56 359.889 l 688.72 320.155 l 701.88 359.889 l 715.04 359.889 l 728.2 323.938 l 
741.36 359.889 l 754.52 359.889 l 767.68 359.889 l 780.84 359.889 l 794 359.889 l 807.16 359.889 l 820.32 321.636 l 833.48 359.889 l 846.64 359.889 l 859.8 321.34 l 872.96 359.889 l 886.12 322.693 l 899.28 359.889 l 912.44 359.889 l 925.6 359.889 l 
938.76 323.955 l 951.92 359.889 l 965.08 322.159 l 978.24 359.889 l 991.4 359.889 l 1004.56 359.889 l 1017.72 359.889 l 1030.88 359.889 l 1044.04 359.889 l 1057.2 322.485 l 1070.36 359.889 l 1083.52 359.889 l 1096.68 359.889 l 1109.84 359.889 l 
1123 359.889 l 1136.16 359.889 l 1149.32 359.889 l 1162.48 324.044 l 1175.64 359.889 l 1188.8 359.889 l 1201.96 359.889 l 1215.12 359.889 l 1228.28 332.981 l 1241.44 359.889 l 1254.6 359.889 l 1267.76 359.889 l 1280.92 359.889 l 1294.08 359.889 l 
1307.24 359.889 l 1320.4 320.767 l 1333.56 359.889 l 1346.72 359.889 l 1359.88 310.819 l 1373.04 359.889 l 1386.2 359.889 l 1399.36 359.889 l 1412.52 359.889 l 
st
gr
gs
np 136 706 m 1452 706 l 1452 83 l 136 83 l 136 706 l 
cp
1 0 1 col
1 lw [] 0 ld 0 lj 2 ml 0 lc
np 149.16 359.889 m 162.32 359.889 l 175.48 359.889 l 188.64 359.889 l 201.8 359.889 l 214.96 379.182 l 228.12 359.889 l 241.28 359.889 l 254.44 359.889 l 267.6 359.889 l 280.76 275.742 l 293.92 274.569 l 307.08 359.889 l 320.24 283.72 l 333.4 359.889 l 
346.56 283.799 l 359.72 359.889 l 372.88 359.889 l 386.04 359.889 l 399.2 359.889 l 412.36 359.889 l 425.52 359.889 l 438.68 359.889 l 451.84 285.221 l 465 359.889 l 478.16 410.317 l 491.32 359.889 l 504.48 359.889 l 517.64 359.889 l 530.8 359.889 l 
543.96 359.889 l 557.12 359.889 l 570.28 359.889 l 583.44 359.889 l 596.6 359.889 l 609.76 359.889 l 622.92 359.889 l 636.08 359.889 l 649.24 359.889 l 662.4 268.79 l 675.56 296.791 l 688.72 359.889 l 701.88 359.889 l 715.04 359.889 l 728.2 359.889 l 
741.36 359.889 l 754.52 359.889 l 767.68 359.889 l 780.84 359.889 l 794 281.004 l 807.16 359.889 l 820.32 359.889 l 833.48 292.948 l 846.64 359.889 l 859.8 287.743 l 872.96 298.597 l 886.12 359.889 l 899.28 359.889 l 912.44 359.889 l 925.6 359.889 l 
938.76 284.406 l 951.92 359.889 l 965.08 359.889 l 978.24 359.889 l 991.4 359.889 l 1004.56 359.889 l 1017.72 359.889 l 1030.88 359.889 l 1044.04 359.889 l 1057.2 359.889 l 1070.36 359.889 l 1083.52 359.889 l 1096.68 359.889 l 1109.84 359.889 l 
1123 293.268 l 1136.16 359.889 l 1149.32 359.889 l 1162.48 359.889 l 1175.64 359.889 l 1188.8 359.889 l 1201.96 359.889 l 1215.12 359.889 l 1228.28 284.548 l 1241.44 359.889 l 1254.6 359.889 l 1267.76 359.889 l 1280.92 359.889 l 1294.08 359.889 l 
1307.24 359.889 l 1320.4 303.346 l 1333.56 315.404 l 1346.72 359.889 l 1359.88 359.889 l 1373.04 359.889 l 1386.2 359.889 l 1399.36 359.889 l 1412.52 359.889 l 
st
gr
0 0 0 col
/Helvetica-Bold f 28.4492 sf
692.359 732.703 m (data_04.11.2016 014518) s
0 0 0 col
/Helvetica-Bold f 24.385 sf
23.3906 365.516 m
gs
90 r
(AccX) s
gr
0 0 0 col
/ReEncode { % inFont outFont encoding | -
 /MyEncoding exch def
 exch findfont
 dup length dict
 begin
	{def} forall
	/Encoding MyEncoding def
	currentdict
 end
 definefont
} def
/Helvetica /Helvetica-Latin1 ISOLatin1Encoding ReEncode
/Helvetica-Latin1 f 24.385 sf
113.688 74.1562 m (\0558e+15) dup sw s
0 0 0 col
/Helvetica-Latin1 f 24.385 sf
113.688 143.156 m (\0556e+15) dup sw s
0 0 0 col
/Helvetica-Latin1 f 24.385 sf
113.688 212.156 m (\0554e+15) dup sw s
0 0 0 col
/Helvetica-Latin1 f 24.385 sf
113.688 282.156 m (\0552e+15) dup sw s
0 0 0 col
100 351.156 m (0) s
0 0 0 col
46 420.156 m (2e+15) s
0 0 0 col
46 489.156 m (4e+15) s
0 0 0 col
46 559.156 m (6e+15) s
0 0 0 col
46 628.156 m (8e+15) s
0 0 0 col
46 697.156 m (1e+16) s
0 0 0 col
1 lw [] 0 ld 2 lj 2 lc
np 136 97 m 126 97 l 
st
0 0 0 col
1 lw [] 0 ld 2 lj 2 lc
np 136 111 m 126 111 l 
st
0 0 0 col
1 lw [] 0 ld 2 lj 2 lc
np 136 125 m 126 125 l 
st
0 0 0 col
1 lw [] 0 ld 2 lj 2 lc
np 136 138 m 126 138 l 
st
0 0 0 col
1 lw [] 0 ld 2 lj 2 lc
np 136 166 m 126 166 l 
st
0 0 0 col
1 lw [] 0 ld 2 lj 2 lc
np 136 180 m 126 180 l 
st
0 0 0 col
1 lw [] 0 ld 2 lj 2 lc
np 136 194 m 126 194 l 
st
0 0 0 col
1 lw [] 0 ld 2 lj 2 lc
np 136 208 m 126 208 l 
st
0 0 0 col
1 lw [] 0 ld 2 lj 2 lc
np 136 235 m 126 235 l 
st
0 0 0 col
1 lw [] 0 ld 2 lj 2 lc
np 136 249 m 126 249 l 
st
0 0 0 col
1 lw [] 0 ld 2 lj 2 lc
np 136 263 m 126 263 l 
st
0 0 0 col
1 lw [] 0 ld 2 lj 2 lc
np 136 277 m 126 277 l 
st
0 0 0 col
1 lw [] 0 ld 2 lj 2 lc
np 136 305 m 126 305 l 
st
0 0 0 col
1 lw [] 0 ld 2 lj 2 lc
np 136 318 m 126 318 l 
st
0 0 0 col
1 lw [] 0 ld 2 lj 2 lc
np 136 332 m 126 332 l 
st
0 0 0 col
1 lw [] 0 ld 2 lj 2 lc
np 136 346 m 126 346 l 
st
0 0 0 col
1 lw [] 0 ld 2 lj 2 lc
np 136 374 m 126 374 l 
st
0 0 0 col
1 lw [] 0 ld 2 lj 2 lc
np 136 388 m 126 388 l 
st
0 0 0 col
1 lw [] 0 ld 2 lj 2 lc
np 136 401 m 126 401 l 
st
0 0 0 col
1 lw [] 0 ld 2 lj 2 lc
np 136 415 m 126 415 l 
st
0 0 0 col
1 lw [] 0 ld 2 lj 2 lc
np 136 443 m 126 443 l 
st
0 0 0 col
1 lw [] 0 ld 2 lj 2 lc
np 136 457 m 126 457 l 
st
0 0 0 col
1 lw [] 0 ld 2 lj 2 lc
np 136 471 m 126 471 l 
st
0 0 0 col
1 lw [] 0 ld 2 lj 2 lc
np 136 484 m 126 484 l 
st
0 0 0 col
1 lw [] 0 ld 2 lj 2 lc
np 136 512 m 126 512 l 
st
0 0 0 col
1 lw [] 0 ld 2 lj 2 lc
np 136 526 m 126 526 l 
st
0 0 0 col
1 lw [] 0 ld 2 lj 2 lc
np 136 540 m 126 540 l 
st
0 0 0 col
1 lw [] 0 ld 2 lj 2 lc
np 136 554 m 126 554 l 
st
0 0 0 col
1 lw [] 0 ld 2 lj 2 lc
np 136 581 m 126 581 l 
st
0 0 0 col
1 lw [] 0 ld 2 lj 2 lc
np 136 595 m 126 595 l 
st
0 0 0 col
1 lw [] 0 ld 2 lj 2 lc
np 136 609 m 126 609 l 
st
0 0 0 col
1 lw [] 0 ld 2 lj 2 lc
np 136 623 m 126 623 l 
st
0 0 0 col
1 lw [] 0 ld 2 lj 2 lc
np 136 651 m 126 651 l 
st
0 0 0 col
1 lw [] 0 ld 2 lj 2 lc
np 136 664 m 126 664 l 
st
0 0 0 col
1 lw [] 0 ld 2 lj 2 lc
np 136 678 m 126 678 l 
st
0 0 0 col
1 lw [] 0 ld 2 lj 2 lc
np 136 692 m 126 692 l 
st
0 0 0 col
1 lw [] 0 ld 2 lj 2 lc
np 136 83 m 118 83 l 
st
0 0 0 col
1 lw [] 0 ld 2 lj 2 lc
np 136 152 m 118 152 l 
st
0 0 0 col
1 lw [] 0 ld 2 lj 2 lc
np 136 221 m 118 221 l 
st
0 0 0 col
1 lw [] 0 ld 2 lj 2 lc
np 136 291 m 118 291 l 
st
0 0 0 col
1 lw [] 0 ld 2 lj 2 lc
np 136 360 m 118 360 l 
st
0 0 0 col
1 lw [] 0 ld 2 lj 2 lc
np 136 429 m 118 429 l 
st
0 0 0 col
1 lw [] 0 ld 2 lj 2 lc
np 136 498 m 118 498 l 
st
0 0 0 col
1 lw [] 0 ld 2 lj 2 lc
np 136 568 m 118 568 l 
st
0 0 0 col
1 lw [] 0 ld 2 lj 2 lc
np 136 637 m 118 637 l 
st
0 0 0 col
1 lw [] 0 ld 2 lj 2 lc
np 136 706 m 118 706 l 
st
0 0 0 col
1 lw [] 0 ld 2 lj 2 lc
np 136 706 m 136 83 l 
st
0 0 0 col
/Helvetica-Bold f 24.385 sf
785.594 5.60938 m (Timestamp) s
0 0 0 col
/Helvetica f 24.385 sf
289 37.1562 m (04.11.2016 01:45:22) s
0 0 0 col
552 37.1562 m (04.11.2016 01:45:26) s
0 0 0 col
816 37.1562 m (04.11.2016 01:45:30) s
0 0 0 col
1079 37.1562 m (04.11.2016 01:45:34) s
0 0 0 col
1 lw [] 0 ld 2 lj 2 lc
np 189 83 m 189 73 l 
st
0 0 0 col
1 lw [] 0 ld 2 lj 2 lc
np 241 83 m 241 73 l 
st
0 0 0 col
1 lw [] 0 ld 2 lj 2 lc
np 294 83 m 294 73 l 
st
0 0 0 col
1 lw [] 0 ld 2 lj 2 lc
np 347 83 m 347 73 l 
st
0 0 0 col
1 lw [] 0 ld 2 lj 2 lc
np 452 83 m 452 73 l 
st
0 0 0 col
1 lw [] 0 ld 2 lj 2 lc
np 504 83 m 504 73 l 
st
0 0 0 col
1 lw [] 0 ld 2 lj 2 lc
np 557 83 m 557 73 l 
st
0 0 0 col
1 lw [] 0 ld 2 lj 2 lc
np 610 83 m 610 73 l 
st
0 0 0 col
1 lw [] 0 ld 2 lj 2 lc
np 715 83 m 715 73 l 
st
0 0 0 col
1 lw [] 0 ld 2 lj 2 lc
np 768 83 m 768 73 l 
st
0 0 0 col
1 lw [] 0 ld 2 lj 2 lc
np 820 83 m 820 73 l 
st
0 0 0 col
1 lw [] 0 ld 2 lj 2 lc
np 873 83 m 873 73 l 
st
0 0 0 col
1 lw [] 0 ld 2 lj 2 lc
np 978 83 m 978 73 l 
st
0 0 0 col
1 lw [] 0 ld 2 lj 2 lc
np 1031 83 m 1031 73 l 
st
0 0 0 col
1 lw [] 0 ld 2 lj 2 lc
np 1084 83 m 1084 73 l 
st
0 0 0 col
1 lw [] 0 ld 2 lj 2 lc
np 1136 83 m 1136 73 l 
st
0 0 0 col
1 lw [] 0 ld 2 lj 2 lc
np 1241 83 m 1241 73 l 
st
0 0 0 col
1 lw [] 0 ld 2 lj 2 lc
np 1294 83 m 1294 73 l 
st
0 0 0 col
1 lw [] 0 ld 2 lj 2 lc
np 1347 83 m 1347 73 l 
st
0 0 0 col
1 lw [] 0 ld 2 lj 2 lc
np 1399 83 m 1399 73 l 
st
0 0 0 col
1 lw [] 0 ld 2 lj 2 lc
np 136 83 m 136 65 l 
st
0 0 0 col
1 lw [] 0 ld 2 lj 2 lc
np 399 83 m 399 65 l 
st
0 0 0 col
1 lw [] 0 ld 2 lj 2 lc
np 662 83 m 662 65 l 
st
0 0 0 col
1 lw [] 0 ld 2 lj 2 lc
np 926 83 m 926 65 l 
st
0 0 0 col
1 lw [] 0 ld 2 lj 2 lc
np 1189 83 m 1189 65 l 
st
0 0 0 col
1 lw [] 0 ld 2 lj 2 lc
np 1452 83 m 1452 65 l 
st
0 0 0 col
1 lw [] 0 ld 2 lj 2 lc
np 136 83 m 1452 83 l 
st
0 0 0 col
1 lw [] 0 ld 0 lj 2 ml 2 lc
np 169 685 m 306 685 l 306 500 l 169 500 l 169 685 l 
st
0 0 0 col
1 lw [] 0 ld 0 lj 2 ml 0 lc
np 180 665 m 212 665 l 
st
0 0 0 col
222 656.156 m (AccX) s
1 0 0 col
1 lw [] 0 ld 0 lj 2 ml 0 lc
np 180 636 m 212 636 l 
st
0 0 0 col
222 627.156 m (AccY) s
0 1 0 col
1 lw [] 0 ld 0 lj 2 ml 0 lc
np 180 607 m 212 607 l 
st
0 0 0 col
222 598.156 m (AccZ) s
0 0 1 col
1 lw [] 0 ld 0 lj 2 ml 0 lc
np 180 578 m 212 578 l 
st
0 0 0 col
222 569.156 m (OrienX) s
0 1 1 col
1 lw [] 0 ld 0 lj 2 ml 0 lc
np 180 549 m 212 549 l 
st
0 0 0 col
222 540.156 m (OrienY) s
1 0 1 col
1 lw [] 0 ld 0 lj 2 ml 0 lc
np 180 520 m 212 520 l 
st
0 0 0 col
222 511.156 m (OrienZ) s
%%EOF