%!PS-Adobe-3.0 EPSF-3.0
%%BoundingBox: 0 0 1563 760
%%Pages: 0
%%Creator: QtiPlot
%%CreationDate: 2016-11-07
%%Title: /Users/vincentcuccu/fopra2016-17/NeglectDetect/Documents/Testdaten/data_04.11.2016/data_04.11.2016 014543.eps
%%BeginProlog
/bd {bind def} bind def
/c {curveto} bd
/f {findfont} bd
/l {lineto} bd
/m {moveto} bd
/r {rotate} bd
/s {show} bd
/cp {clip} bd
/fl {fill} bd
/rf {rectfill} bd
/np {newpath} bd
/lw {setlinewidth} bd
/lc {setlinecap} bd
/lj {setlinejoin} bd
/ml {setmiterlimit} bd
/ld {setdash} bd
/gl {glyphshow} bd
/gs {gsave} bd
/gr {grestore} bd
/st {stroke} bd
/sf {scalefont setfont} bd
/tr {translate} bd
/sw {stringwidth pop neg 0 rmoveto} bind def
/col {setrgbcolor} bd
%%EndProlog
gs
np 136 706 m 1452 706 l 1452 83 l 136 83 l 136 706 l 
cp
0.627451 0.627451 0.643137 col
1 lw [4 2] 0 ld 2 lj 2 lc
np 180 706 m 180 83 l 
st
gr
gs
np 136 706 m 1452 706 l 1452 83 l 136 83 l 136 706 l 
cp
0.627451 0.627451 0.643137 col
1 lw [4 2] 0 ld 2 lj 2 lc
np 224 706 m 224 83 l 
st
gr
gs
np 136 706 m 1452 706 l 1452 83 l 136 83 l 136 706 l 
cp
0.627451 0.627451 0.643137 col
1 lw [4 2] 0 ld 2 lj 2 lc
np 268 706 m 268 83 l 
st
gr
gs
np 136 706 m 1452 706 l 1452 83 l 136 83 l 136 706 l 
cp
0.627451 0.627451 0.643137 col
1 lw [4 2] 0 ld 2 lj 2 lc
np 311 706 m 311 83 l 
st
gr
gs
np 136 706 m 1452 706 l 1452 83 l 136 83 l 136 706 l 
cp
0.627451 0.627451 0.643137 col
1 lw [4 2] 0 ld 2 lj 2 lc
np 399 706 m 399 83 l 
st
gr
gs
np 136 706 m 1452 706 l 1452 83 l 136 83 l 136 706 l 
cp
0.627451 0.627451 0.643137 col
1 lw [4 2] 0 ld 2 lj 2 lc
np 443 706 m 443 83 l 
st
gr
gs
np 136 706 m 1452 706 l 1452 83 l 136 83 l 136 706 l 
cp
0.627451 0.627451 0.643137 col
1 lw [4 2] 0 ld 2 lj 2 lc
np 487 706 m 487 83 l 
st
gr
gs
np 136 706 m 1452 706 l 1452 83 l 136 83 l 136 706 l 
cp
0.627451 0.627451 0.643137 col
1 lw [4 2] 0 ld 2 lj 2 lc
np 531 706 m 531 83 l 
st
gr
gs
np 136 706 m 1452 706 l 1452 83 l 136 83 l 136 706 l 
cp
0.627451 0.627451 0.643137 col
1 lw [4 2] 0 ld 2 lj 2 lc
np 619 706 m 619 83 l 
st
gr
gs
np 136 706 m 1452 706 l 1452 83 l 136 83 l 136 706 l 
cp
0.627451 0.627451 0.643137 col
1 lw [4 2] 0 ld 2 lj 2 lc
np 662 706 m 662 83 l 
st
gr
gs
np 136 706 m 1452 706 l 1452 83 l 136 83 l 136 706 l 
cp
0.627451 0.627451 0.643137 col
1 lw [4 2] 0 ld 2 lj 2 lc
np 706 706 m 706 83 l 
st
gr
gs
np 136 706 m 1452 706 l 1452 83 l 136 83 l 136 706 l 
cp
0.627451 0.627451 0.643137 col
1 lw [4 2] 0 ld 2 lj 2 lc
np 750 706 m 750 83 l 
st
gr
gs
np 136 706 m 1452 706 l 1452 83 l 136 83 l 136 706 l 
cp
0.627451 0.627451 0.643137 col
1 lw [4 2] 0 ld 2 lj 2 lc
np 838 706 m 838 83 l 
st
gr
gs
np 136 706 m 1452 706 l 1452 83 l 136 83 l 136 706 l 
cp
0.627451 0.627451 0.643137 col
1 lw [4 2] 0 ld 2 lj 2 lc
np 882 706 m 882 83 l 
st
gr
gs
np 136 706 m 1452 706 l 1452 83 l 136 83 l 136 706 l 
cp
0.627451 0.627451 0.643137 col
1 lw [4 2] 0 ld 2 lj 2 lc
np 926 706 m 926 83 l 
st
gr
gs
np 136 706 m 1452 706 l 1452 83 l 136 83 l 136 706 l 
cp
0.627451 0.627451 0.643137 col
1 lw [4 2] 0 ld 2 lj 2 lc
np 969 706 m 969 83 l 
st
gr
gs
np 136 706 m 1452 706 l 1452 83 l 136 83 l 136 706 l 
cp
0.627451 0.627451 0.643137 col
1 lw [4 2] 0 ld 2 lj 2 lc
np 1057 706 m 1057 83 l 
st
gr
gs
np 136 706 m 1452 706 l 1452 83 l 136 83 l 136 706 l 
cp
0.627451 0.627451 0.643137 col
1 lw [4 2] 0 ld 2 lj 2 lc
np 1101 706 m 1101 83 l 
st
gr
gs
np 136 706 m 1452 706 l 1452 83 l 136 83 l 136 706 l 
cp
0.627451 0.627451 0.643137 col
1 lw [4 2] 0 ld 2 lj 2 lc
np 1145 706 m 1145 83 l 
st
gr
gs
np 136 706 m 1452 706 l 1452 83 l 136 83 l 136 706 l 
cp
0.627451 0.627451 0.643137 col
1 lw [4 2] 0 ld 2 lj 2 lc
np 1189 706 m 1189 83 l 
st
gr
gs
np 136 706 m 1452 706 l 1452 83 l 136 83 l 136 706 l 
cp
0.627451 0.627451 0.643137 col
1 lw [4 2] 0 ld 2 lj 2 lc
np 1277 706 m 1277 83 l 
st
gr
gs
np 136 706 m 1452 706 l 1452 83 l 136 83 l 136 706 l 
cp
0.627451 0.627451 0.643137 col
1 lw [4 2] 0 ld 2 lj 2 lc
np 1320 706 m 1320 83 l 
st
gr
gs
np 136 706 m 1452 706 l 1452 83 l 136 83 l 136 706 l 
cp
0.627451 0.627451 0.643137 col
1 lw [4 2] 0 ld 2 lj 2 lc
np 1364 706 m 1364 83 l 
st
gr
gs
np 136 706 m 1452 706 l 1452 83 l 136 83 l 136 706 l 
cp
0.627451 0.627451 0.643137 col
1 lw [4 2] 0 ld 2 lj 2 lc
np 1408 706 m 1408 83 l 
st
gr
gs
np 136 706 m 1452 706 l 1452 83 l 136 83 l 136 706 l 
cp
0.627451 0.627451 0.643137 col
1 lw [4 2] 0 ld 2 lj 2 lc
np 136 99 m 1452 99 l 
st
gr
gs
np 136 706 m 1452 706 l 1452 83 l 136 83 l 136 706 l 
cp
0.627451 0.627451 0.643137 col
1 lw [4 2] 0 ld 2 lj 2 lc
np 136 114 m 1452 114 l 
st
gr
gs
np 136 706 m 1452 706 l 1452 83 l 136 83 l 136 706 l 
cp
0.627451 0.627451 0.643137 col
1 lw [4 2] 0 ld 2 lj 2 lc
np 136 130 m 1452 130 l 
st
gr
gs
np 136 706 m 1452 706 l 1452 83 l 136 83 l 136 706 l 
cp
0.627451 0.627451 0.643137 col
1 lw [4 2] 0 ld 2 lj 2 lc
np 136 145 m 1452 145 l 
st
gr
gs
np 136 706 m 1452 706 l 1452 83 l 136 83 l 136 706 l 
cp
0.627451 0.627451 0.643137 col
1 lw [4 2] 0 ld 2 lj 2 lc
np 136 176 m 1452 176 l 
st
gr
gs
np 136 706 m 1452 706 l 1452 83 l 136 83 l 136 706 l 
cp
0.627451 0.627451 0.643137 col
1 lw [4 2] 0 ld 2 lj 2 lc
np 136 192 m 1452 192 l 
st
gr
gs
np 136 706 m 1452 706 l 1452 83 l 136 83 l 136 706 l 
cp
0.627451 0.627451 0.643137 col
1 lw [4 2] 0 ld 2 lj 2 lc
np 136 208 m 1452 208 l 
st
gr
gs
np 136 706 m 1452 706 l 1452 83 l 136 83 l 136 706 l 
cp
0.627451 0.627451 0.643137 col
1 lw [4 2] 0 ld 2 lj 2 lc
np 136 223 m 1452 223 l 
st
gr
gs
np 136 706 m 1452 706 l 1452 83 l 136 83 l 136 706 l 
cp
0.627451 0.627451 0.643137 col
1 lw [4 2] 0 ld 2 lj 2 lc
np 136 254 m 1452 254 l 
st
gr
gs
np 136 706 m 1452 706 l 1452 83 l 136 83 l 136 706 l 
cp
0.627451 0.627451 0.643137 col
1 lw [4 2] 0 ld 2 lj 2 lc
np 136 270 m 1452 270 l 
st
gr
gs
np 136 706 m 1452 706 l 1452 83 l 136 83 l 136 706 l 
cp
0.627451 0.627451 0.643137 col
1 lw [4 2] 0 ld 2 lj 2 lc
np 136 285 m 1452 285 l 
st
gr
gs
np 136 706 m 1452 706 l 1452 83 l 136 83 l 136 706 l 
cp
0.627451 0.627451 0.643137 col
1 lw [4 2] 0 ld 2 lj 2 lc
np 136 301 m 1452 301 l 
st
gr
gs
np 136 706 m 1452 706 l 1452 83 l 136 83 l 136 706 l 
cp
0.627451 0.627451 0.643137 col
1 lw [4 2] 0 ld 2 lj 2 lc
np 136 332 m 1452 332 l 
st
gr
gs
np 136 706 m 1452 706 l 1452 83 l 136 83 l 136 706 l 
cp
0.627451 0.627451 0.643137 col
1 lw [4 2] 0 ld 2 lj 2 lc
np 136 348 m 1452 348 l 
st
gr
gs
np 136 706 m 1452 706 l 1452 83 l 136 83 l 136 706 l 
cp
0.627451 0.627451 0.643137 col
1 lw [4 2] 0 ld 2 lj 2 lc
np 136 363 m 1452 363 l 
st
gr
gs
np 136 706 m 1452 706 l 1452 83 l 136 83 l 136 706 l 
cp
0.627451 0.627451 0.643137 col
1 lw [4 2] 0 ld 2 lj 2 lc
np 136 379 m 1452 379 l 
st
gr
gs
np 136 706 m 1452 706 l 1452 83 l 136 83 l 136 706 l 
cp
0.627451 0.627451 0.643137 col
1 lw [4 2] 0 ld 2 lj 2 lc
np 136 410 m 1452 410 l 
st
gr
gs
np 136 706 m 1452 706 l 1452 83 l 136 83 l 136 706 l 
cp
0.627451 0.627451 0.643137 col
1 lw [4 2] 0 ld 2 lj 2 lc
np 136 426 m 1452 426 l 
st
gr
gs
np 136 706 m 1452 706 l 1452 83 l 136 83 l 136 706 l 
cp
0.627451 0.627451 0.643137 col
1 lw [4 2] 0 ld 2 lj 2 lc
np 136 441 m 1452 441 l 
st
gr
gs
np 136 706 m 1452 706 l 1452 83 l 136 83 l 136 706 l 
cp
0.627451 0.627451 0.643137 col
1 lw [4 2] 0 ld 2 lj 2 lc
np 136 457 m 1452 457 l 
st
gr
gs
np 136 706 m 1452 706 l 1452 83 l 136 83 l 136 706 l 
cp
0.627451 0.627451 0.643137 col
1 lw [4 2] 0 ld 2 lj 2 lc
np 136 488 m 1452 488 l 
st
gr
gs
np 136 706 m 1452 706 l 1452 83 l 136 83 l 136 706 l 
cp
0.627451 0.627451 0.643137 col
1 lw [4 2] 0 ld 2 lj 2 lc
np 136 504 m 1452 504 l 
st
gr
gs
np 136 706 m 1452 706 l 1452 83 l 136 83 l 136 706 l 
cp
0.627451 0.627451 0.643137 col
1 lw [4 2] 0 ld 2 lj 2 lc
np 136 519 m 1452 519 l 
st
gr
gs
np 136 706 m 1452 706 l 1452 83 l 136 83 l 136 706 l 
cp
0.627451 0.627451 0.643137 col
1 lw [4 2] 0 ld 2 lj 2 lc
np 136 535 m 1452 535 l 
st
gr
gs
np 136 706 m 1452 706 l 1452 83 l 136 83 l 136 706 l 
cp
0.627451 0.627451 0.643137 col
1 lw [4 2] 0 ld 2 lj 2 lc
np 136 566 m 1452 566 l 
st
gr
gs
np 136 706 m 1452 706 l 1452 83 l 136 83 l 136 706 l 
cp
0.627451 0.627451 0.643137 col
1 lw [4 2] 0 ld 2 lj 2 lc
np 136 581 m 1452 581 l 
st
gr
gs
np 136 706 m 1452 706 l 1452 83 l 136 83 l 136 706 l 
cp
0.627451 0.627451 0.643137 col
1 lw [4 2] 0 ld 2 lj 2 lc
np 136 597 m 1452 597 l 
st
gr
gs
np 136 706 m 1452 706 l 1452 83 l 136 83 l 136 706 l 
cp
0.627451 0.627451 0.643137 col
1 lw [4 2] 0 ld 2 lj 2 lc
np 136 613 m 1452 613 l 
st
gr
gs
np 136 706 m 1452 706 l 1452 83 l 136 83 l 136 706 l 
cp
0.627451 0.627451 0.643137 col
1 lw [4 2] 0 ld 2 lj 2 lc
np 136 644 m 1452 644 l 
st
gr
gs
np 136 706 m 1452 706 l 1452 83 l 136 83 l 136 706 l 
cp
0.627451 0.627451 0.643137 col
1 lw [4 2] 0 ld 2 lj 2 lc
np 136 659 m 1452 659 l 
st
gr
gs
np 136 706 m 1452 706 l 1452 83 l 136 83 l 136 706 l 
cp
0.627451 0.627451 0.643137 col
1 lw [4 2] 0 ld 2 lj 2 lc
np 136 675 m 1452 675 l 
st
gr
gs
np 136 706 m 1452 706 l 1452 83 l 136 83 l 136 706 l 
cp
0.627451 0.627451 0.643137 col
1 lw [4 2] 0 ld 2 lj 2 lc
np 136 690 m 1452 690 l 
st
gr
gs
np 136 706 m 1452 706 l 1452 83 l 136 83 l 136 706 l 
cp
0.627451 0.627451 0.643137 col
1 lw [] 0 ld 2 lj 2 lc
np 355 706 m 355 83 l 
st
gr
gs
np 136 706 m 1452 706 l 1452 83 l 136 83 l 136 706 l 
cp
0.627451 0.627451 0.643137 col
1 lw [] 0 ld 2 lj 2 lc
np 575 706 m 575 83 l 
st
gr
gs
np 136 706 m 1452 706 l 1452 83 l 136 83 l 136 706 l 
cp
0.627451 0.627451 0.643137 col
1 lw [] 0 ld 2 lj 2 lc
np 794 706 m 794 83 l 
st
gr
gs
np 136 706 m 1452 706 l 1452 83 l 136 83 l 136 706 l 
cp
0.627451 0.627451 0.643137 col
1 lw [] 0 ld 2 lj 2 lc
np 1013 706 m 1013 83 l 
st
gr
gs
np 136 706 m 1452 706 l 1452 83 l 136 83 l 136 706 l 
cp
0.627451 0.627451 0.643137 col
1 lw [] 0 ld 2 lj 2 lc
np 1233 706 m 1233 83 l 
st
gr
gs
np 136 706 m 1452 706 l 1452 83 l 136 83 l 136 706 l 
cp
0.627451 0.627451 0.643137 col
1 lw [] 0 ld 2 lj 2 lc
np 136 161 m 1452 161 l 
st
gr
gs
np 136 706 m 1452 706 l 1452 83 l 136 83 l 136 706 l 
cp
0.627451 0.627451 0.643137 col
1 lw [] 0 ld 2 lj 2 lc
np 136 239 m 1452 239 l 
st
gr
gs
np 136 706 m 1452 706 l 1452 83 l 136 83 l 136 706 l 
cp
0.627451 0.627451 0.643137 col
1 lw [] 0 ld 2 lj 2 lc
np 136 317 m 1452 317 l 
st
gr
gs
np 136 706 m 1452 706 l 1452 83 l 136 83 l 136 706 l 
cp
0.627451 0.627451 0.643137 col
1 lw [] 0 ld 2 lj 2 lc
np 136 394 m 1452 394 l 
st
gr
gs
np 136 706 m 1452 706 l 1452 83 l 136 83 l 136 706 l 
cp
0.627451 0.627451 0.643137 col
1 lw [] 0 ld 2 lj 2 lc
np 136 472 m 1452 472 l 
st
gr
gs
np 136 706 m 1452 706 l 1452 83 l 136 83 l 136 706 l 
cp
0.627451 0.627451 0.643137 col
1 lw [] 0 ld 2 lj 2 lc
np 136 550 m 1452 550 l 
st
gr
gs
np 136 706 m 1452 706 l 1452 83 l 136 83 l 136 706 l 
cp
0.627451 0.627451 0.643137 col
1 lw [] 0 ld 2 lj 2 lc
np 136 628 m 1452 628 l 
st
gr
gs
np 136 706 m 1452 706 l 1452 83 l 136 83 l 136 706 l 
cp
0 0 0 col
1 lw [] 0 ld 0 lj 2 ml 0 lc
np 146.967 550.25 m 157.933 550.25 l 168.9 550.25 l 179.867 550.25 l 190.833 550.25 l 201.8 565.307 l 212.767 550.25 l 223.733 546.301 l 234.7 550.25 l 245.667 550.25 l 256.633 550.25 l 267.6 550.25 l 278.567 550.25 l 289.533 550.25 l 300.5 550.25 l 
311.467 550.25 l 322.433 550.25 l 333.4 550.25 l 344.367 550.25 l 355.333 550.25 l 366.3 540.241 l 377.267 550.25 l 388.233 550.25 l 399.2 574.92 l 410.167 550.25 l 421.133 566.753 l 432.1 534.15 l 443.067 550.25 l 454.033 550.25 l 465 575.602 l 
475.967 550.25 l 486.933 550.25 l 497.9 550.25 l 508.867 550.25 l 519.833 512.646 l 530.8 550.25 l 541.767 550.25 l 552.733 550.25 l 563.7 550.25 l 574.667 568.447 l 585.633 550.25 l 596.6 550.25 l 607.567 550.25 l 618.533 550.25 l 629.5 550.25 l 
640.467 541.86 l 651.433 550.25 l 662.4 550.25 l 673.367 550.25 l 684.333 550.25 l 695.3 550.25 l 706.267 510.917 l 717.233 550.25 l 728.2 550.25 l 739.167 550.25 l 750.133 550.25 l 761.1 576.794 l 772.067 498.194 l 783.033 550.25 l 794 550.25 l 
804.967 550.25 l 815.933 550.25 l 826.9 588.536 l 837.867 550.25 l 848.833 539.551 l 859.8 556.062 l 870.767 550.25 l 881.733 550.25 l 892.7 522.481 l 903.667 550.25 l 914.633 550.25 l 925.6 654.893 l 936.567 542.538 l 947.533 550.25 l 958.5 550.25 l 
969.467 550.25 l 980.433 550.25 l 991.4 559.618 l 1002.37 550.25 l 1013.33 574.179 l 1024.3 485.35 l 1035.27 550.25 l 1046.23 550.25 l 1057.2 550.25 l 1068.17 550.25 l 1079.13 588.344 l 1090.1 550.25 l 1101.07 550.25 l 1112.03 550.25 l 1123 550.25 l 
1133.97 550.25 l 1144.93 550.25 l 1155.9 550.25 l 1166.87 550.25 l 1177.83 550.25 l 1188.8 550.25 l 1199.77 550.25 l 1210.73 550.25 l 1221.7 550.25 l 1232.67 550.25 l 1243.63 550.25 l 
st
gr
gs
np 136 706 m 1452 706 l 1452 83 l 136 83 l 136 706 l 
cp
1 0 0 col
1 lw [] 0 ld 0 lj 2 ml 0 lc
np 146.967 550.25 m 157.933 550.25 l 168.9 550.25 l 179.867 550.25 l 190.833 534.079 l 201.8 538.36 l 212.767 550.25 l 223.733 550.25 l 234.7 550.25 l 245.667 550.25 l 256.633 550.25 l 267.6 550.25 l 278.567 550.25 l 289.533 550.25 l 300.5 550.25 l 
311.467 550.25 l 322.433 550.25 l 333.4 539.49 l 344.367 550.25 l 355.333 550.25 l 366.3 550.25 l 377.267 550.25 l 388.233 550.25 l 399.2 550.25 l 410.167 550.25 l 421.133 550.25 l 432.1 534.573 l 443.067 550.25 l 454.033 550.25 l 465 550.25 l 
475.967 550.25 l 486.933 550.25 l 497.9 532.485 l 508.867 550.25 l 519.833 550.25 l 530.8 550.25 l 541.767 606.202 l 552.733 550.25 l 563.7 550.25 l 574.667 601.069 l 585.633 550.25 l 596.6 550.25 l 607.567 550.25 l 618.533 539.79 l 629.5 550.956 l 
640.467 550.25 l 651.433 544.113 l 662.4 550.25 l 673.367 550.25 l 684.333 550.25 l 695.3 550.25 l 706.267 536.847 l 717.233 534.339 l 728.2 574.509 l 739.167 534.411 l 750.133 550.25 l 761.1 587.261 l 772.067 550.25 l 783.033 541.251 l 794 595.019 l 
804.967 550.25 l 815.933 540.717 l 826.9 627.517 l 837.867 550.25 l 848.833 539.852 l 859.8 550.25 l 870.767 527.515 l 881.733 550.25 l 892.7 550.25 l 903.667 514.881 l 914.633 550.25 l 925.6 550.25 l 936.567 550.25 l 947.533 550.25 l 958.5 550.25 l 
969.467 550.25 l 980.433 580.137 l 991.4 550.25 l 1002.37 538.104 l 1013.33 550.25 l 1024.3 550.25 l 1035.27 550.25 l 1046.23 602.023 l 1057.2 550.25 l 1068.17 550.25 l 1079.13 613.816 l 1090.1 550.25 l 1101.07 550.25 l 1112.03 587.331 l 1123 550.25 l 
1133.97 550.25 l 1144.93 604.278 l 1155.9 550.25 l 1166.87 559.684 l 1177.83 539.515 l 1188.8 494.219 l 1199.77 510.474 l 1210.73 550.25 l 1221.7 513.837 l 1232.67 518.612 l 1243.63 533.983 l 
st
gr
gs
np 136 706 m 1452 706 l 1452 83 l 136 83 l 136 706 l 
cp
0 1 0 col
1 lw [] 0 ld 0 lj 2 ml 0 lc
np 146.967 550.25 m 157.933 540.912 l 168.9 550.25 l 179.867 550.25 l 190.833 550.25 l 201.8 550.25 l 212.767 550.25 l 223.733 550.25 l 234.7 550.25 l 245.667 550.25 l 256.633 550.25 l 267.6 550.25 l 278.567 550.25 l 289.533 550.25 l 300.5 550.25 l 
311.467 550.25 l 322.433 550.25 l 333.4 550.25 l 344.367 550.25 l 355.333 550.25 l 366.3 550.25 l 377.267 550.25 l 388.233 550.25 l 399.2 550.25 l 410.167 550.25 l 421.133 588.123 l 432.1 550.25 l 443.067 550.25 l 454.033 568.656 l 465 533.723 l 
475.967 550.25 l 486.933 550.25 l 497.9 550.25 l 508.867 550.25 l 519.833 580.579 l 530.8 550.25 l 541.767 550.25 l 552.733 550.25 l 563.7 550.25 l 574.667 550.25 l 585.633 550.25 l 596.6 550.25 l 607.567 550.25 l 618.533 563.07 l 629.5 551.779 l 
640.467 550.25 l 651.433 550.25 l 662.4 550.25 l 673.367 550.25 l 684.333 550.25 l 695.3 550.25 l 706.267 550.25 l 717.233 550.25 l 728.2 550.25 l 739.167 581.899 l 750.133 550.25 l 761.1 550.25 l 772.067 566.979 l 783.033 550.25 l 794 550.25 l 
804.967 550.25 l 815.933 550.25 l 826.9 550.25 l 837.867 557.023 l 848.833 550.25 l 859.8 550.25 l 870.767 550.25 l 881.733 550.25 l 892.7 559.414 l 903.667 527.154 l 914.633 538.243 l 925.6 584.448 l 936.567 556.981 l 947.533 550.25 l 958.5 565.793 l 
969.467 550.25 l 980.433 550.25 l 991.4 575.928 l 1002.37 550.25 l 1013.33 550.25 l 1024.3 578.109 l 1035.27 550.25 l 1046.23 538.877 l 1057.2 550.25 l 1068.17 550.25 l 1079.13 530.237 l 1090.1 550.25 l 1101.07 550.25 l 1112.03 158.35 l 1123 550.25 l 
1133.97 550.25 l 1144.93 550.25 l 1155.9 550.25 l 1166.87 550.25 l 1177.83 480.006 l 1188.8 550.25 l 1199.77 617.072 l 1210.73 601.481 l 1221.7 591.797 l 1232.67 593.557 l 1243.63 550.25 l 
st
gr
gs
np 136 706 m 1452 706 l 1452 83 l 136 83 l 136 706 l 
cp
0 0 1 col
1 lw [] 0 ld 0 lj 2 ml 0 lc
np 146.967 550.25 m 157.933 550.25 l 168.9 550.25 l 179.867 550.25 l 190.833 573.998 l 201.8 528.921 l 212.767 550.25 l 223.733 527.193 l 234.7 527.402 l 245.667 550.25 l 256.633 529.207 l 267.6 528.868 l 278.567 550.25 l 289.533 550.25 l 300.5 550.25 l 
311.467 530.023 l 322.433 550.25 l 333.4 550.25 l 344.367 529.657 l 355.333 550.25 l 366.3 550.25 l 377.267 550.25 l 388.233 528.653 l 399.2 550.25 l 410.167 550.25 l 421.133 550.25 l 432.1 550.25 l 443.067 550.25 l 454.033 550.25 l 465 550.25 l 
475.967 550.25 l 486.933 550.25 l 497.9 530.761 l 508.867 532.666 l 519.833 530.894 l 530.8 550.25 l 541.767 550.25 l 552.733 550.25 l 563.7 550.25 l 574.667 528.842 l 585.633 550.25 l 596.6 550.25 l 607.567 528.759 l 618.533 550.25 l 629.5 550.25 l 
640.467 530.258 l 651.433 531.821 l 662.4 550.25 l 673.367 550.25 l 684.333 550.25 l 695.3 550.25 l 706.267 528.845 l 717.233 550.25 l 728.2 527.894 l 739.167 550.25 l 750.133 550.25 l 761.1 529.557 l 772.067 529.21 l 783.033 550.25 l 794 550.25 l 
804.967 550.25 l 815.933 550.25 l 826.9 550.25 l 837.867 529.77 l 848.833 550.25 l 859.8 550.25 l 870.767 533.219 l 881.733 526.541 l 892.7 550.25 l 903.667 550.25 l 914.633 550.25 l 925.6 528.61 l 936.567 550.25 l 947.533 550.25 l 958.5 530.203 l 
969.467 550.25 l 980.433 550.25 l 991.4 550.25 l 1002.37 550.25 l 1013.33 550.25 l 1024.3 550.25 l 1035.27 570.834 l 1046.23 550.25 l 1057.2 529.967 l 1068.17 550.25 l 1079.13 529.849 l 1090.1 529.582 l 1101.07 550.25 l 1112.03 531.304 l 1123 550.25 l 
1133.97 529.55 l 1144.93 550.25 l 1155.9 550.25 l 1166.87 550.25 l 1177.83 550.25 l 1188.8 550.25 l 1199.77 539.274 l 1210.73 550.25 l 1221.7 550.25 l 1232.67 550.25 l 1243.63 550.25 l 
st
gr
gs
np 136 706 m 1452 706 l 1452 83 l 136 83 l 136 706 l 
cp
0 1 1 col
1 lw [] 0 ld 0 lj 2 ml 0 lc
np 146.967 550.25 m 157.933 550.25 l 168.9 550.25 l 179.867 550.25 l 190.833 550.25 l 201.8 541.192 l 212.767 539.103 l 223.733 550.25 l 234.7 550.25 l 245.667 550.25 l 256.633 550.25 l 267.6 539.753 l 278.567 541.38 l 289.533 550.25 l 300.5 550.25 l 
311.467 550.25 l 322.433 550.25 l 333.4 550.25 l 344.367 541.35 l 355.333 550.25 l 366.3 550.25 l 377.267 550.25 l 388.233 550.25 l 399.2 550.25 l 410.167 550.25 l 421.133 550.25 l 432.1 550.25 l 443.067 550.25 l 454.033 540.721 l 465 538.617 l 
475.967 550.25 l 486.933 550.25 l 497.9 550.25 l 508.867 550.25 l 519.833 541.368 l 530.8 550.25 l 541.767 550.25 l 552.733 550.25 l 563.7 550.25 l 574.667 550.25 l 585.633 550.25 l 596.6 539.819 l 607.567 550.25 l 618.533 550.25 l 629.5 550.25 l 
640.467 550.25 l 651.433 550.25 l 662.4 550.25 l 673.367 550.25 l 684.333 541.032 l 695.3 538.907 l 706.267 550.25 l 717.233 550.25 l 728.2 550.25 l 739.167 550.25 l 750.133 550.25 l 761.1 550.25 l 772.067 541.013 l 783.033 550.25 l 794 550.25 l 
804.967 550.25 l 815.933 540.519 l 826.9 541.162 l 837.867 540.871 l 848.833 550.25 l 859.8 550.25 l 870.767 550.25 l 881.733 550.25 l 892.7 550.25 l 903.667 550.25 l 914.633 550.25 l 925.6 550.25 l 936.567 541.502 l 947.533 550.25 l 958.5 550.25 l 
969.467 550.25 l 980.433 550.25 l 991.4 550.25 l 1002.37 550.25 l 1013.33 550.25 l 1024.3 550.25 l 1035.27 550.25 l 1046.23 550.25 l 1057.2 550.25 l 1068.17 550.25 l 1079.13 541.419 l 1090.1 550.25 l 1101.07 539.188 l 1112.03 550.25 l 1123 550.25 l 
1133.97 550.25 l 1144.93 550.25 l 1155.9 550.25 l 1166.87 539.486 l 1177.83 550.25 l 1188.8 550.25 l 1199.77 550.25 l 1210.73 547.257 l 1221.7 550.25 l 1232.67 550.25 l 1243.63 550.25 l 
st
gr
gs
np 136 706 m 1452 706 l 1452 83 l 136 83 l 136 706 l 
cp
1 0 1 col
1 lw [] 0 ld 0 lj 2 ml 0 lc
np 146.967 550.25 m 157.933 550.25 l 168.9 550.25 l 179.867 550.25 l 190.833 550.25 l 201.8 550.25 l 212.767 534.694 l 223.733 550.25 l 234.7 550.25 l 245.667 536.189 l 256.633 550.25 l 267.6 550.25 l 278.567 550.25 l 289.533 550.25 l 300.5 550.25 l 
311.467 550.25 l 322.433 550.25 l 333.4 550.25 l 344.367 550.25 l 355.333 550.25 l 366.3 537.735 l 377.267 533.253 l 388.233 550.25 l 399.2 550.25 l 410.167 533.195 l 421.133 550.25 l 432.1 550.25 l 443.067 550.25 l 454.033 550.25 l 465 550.25 l 
475.967 532.051 l 486.933 528.121 l 497.9 542.338 l 508.867 535.016 l 519.833 550.25 l 530.8 550.25 l 541.767 550.25 l 552.733 534.112 l 563.7 529.641 l 574.667 533.098 l 585.633 550.25 l 596.6 550.25 l 607.567 550.25 l 618.533 550.25 l 629.5 550.25 l 
640.467 534.281 l 651.433 532.688 l 662.4 533.975 l 673.367 532.688 l 684.333 550.25 l 695.3 550.25 l 706.267 550.25 l 717.233 550.25 l 728.2 550.25 l 739.167 550.25 l 750.133 550.25 l 761.1 532.783 l 772.067 533.565 l 783.033 562.959 l 794 550.25 l 
804.967 529.034 l 815.933 550.25 l 826.9 550.25 l 837.867 534.08 l 848.833 550.25 l 859.8 550.25 l 870.767 550.25 l 881.733 574.713 l 892.7 532.642 l 903.667 562.468 l 914.633 532.407 l 925.6 550.25 l 936.567 550.25 l 947.533 550.25 l 958.5 534.198 l 
969.467 550.25 l 980.433 529.55 l 991.4 529.416 l 1002.37 550.25 l 1013.33 550.25 l 1024.3 550.25 l 1035.27 550.25 l 1046.23 528.027 l 1057.2 550.25 l 1068.17 550.25 l 1079.13 550.25 l 1090.1 533.466 l 1101.07 550.25 l 1112.03 550.25 l 1123 535.338 l 
1133.97 533.149 l 1144.93 550.25 l 1155.9 533.872 l 1166.87 550.25 l 1177.83 552.264 l 1188.8 550.25 l 1199.77 550.25 l 1210.73 550.25 l 1221.7 550.25 l 1232.67 550.25 l 1243.63 550.25 l 
st
gr
0 0 0 col
/Helvetica-Bold f 28.4492 sf
692.359 732.703 m (data_04.11.2016 014543) s
0 0 0 col
/Helvetica-Bold f 24.385 sf
23.3906 365.516 m
gs
90 r
(AccX) s
gr
0 0 0 col
/ReEncode { % inFont outFont encoding | -
 /MyEncoding exch def
 exch findfont
 dup length dict
 begin
	{def} forall
	/Encoding MyEncoding def
	currentdict
 end
 definefont
} def
/Helvetica /Helvetica-Latin1 ISOLatin1Encoding ReEncode
/Helvetica-Latin1 f 24.385 sf
113.688 74.1562 m (\0556e+16) dup sw s
0 0 0 col
/Helvetica-Latin1 f 24.385 sf
113.688 152.156 m (\0555e+16) dup sw s
0 0 0 col
/Helvetica-Latin1 f 24.385 sf
113.688 230.156 m (\0554e+16) dup sw s
0 0 0 col
/Helvetica-Latin1 f 24.385 sf
113.688 308.156 m (\0553e+16) dup sw s
0 0 0 col
/Helvetica-Latin1 f 24.385 sf
113.688 385.156 m (\0552e+16) dup sw s
0 0 0 col
/Helvetica-Latin1 f 24.385 sf
113.688 463.156 m (\0551e+16) dup sw s
0 0 0 col
100 541.156 m (0) s
0 0 0 col
46 619.156 m (1e+16) s
0 0 0 col
46 697.156 m (2e+16) s
0 0 0 col
1 lw [] 0 ld 2 lj 2 lc
np 136 99 m 126 99 l 
st
0 0 0 col
1 lw [] 0 ld 2 lj 2 lc
np 136 114 m 126 114 l 
st
0 0 0 col
1 lw [] 0 ld 2 lj 2 lc
np 136 130 m 126 130 l 
st
0 0 0 col
1 lw [] 0 ld 2 lj 2 lc
np 136 145 m 126 145 l 
st
0 0 0 col
1 lw [] 0 ld 2 lj 2 lc
np 136 176 m 126 176 l 
st
0 0 0 col
1 lw [] 0 ld 2 lj 2 lc
np 136 192 m 126 192 l 
st
0 0 0 col
1 lw [] 0 ld 2 lj 2 lc
np 136 208 m 126 208 l 
st
0 0 0 col
1 lw [] 0 ld 2 lj 2 lc
np 136 223 m 126 223 l 
st
0 0 0 col
1 lw [] 0 ld 2 lj 2 lc
np 136 254 m 126 254 l 
st
0 0 0 col
1 lw [] 0 ld 2 lj 2 lc
np 136 270 m 126 270 l 
st
0 0 0 col
1 lw [] 0 ld 2 lj 2 lc
np 136 285 m 126 285 l 
st
0 0 0 col
1 lw [] 0 ld 2 lj 2 lc
np 136 301 m 126 301 l 
st
0 0 0 col
1 lw [] 0 ld 2 lj 2 lc
np 136 332 m 126 332 l 
st
0 0 0 col
1 lw [] 0 ld 2 lj 2 lc
np 136 348 m 126 348 l 
st
0 0 0 col
1 lw [] 0 ld 2 lj 2 lc
np 136 363 m 126 363 l 
st
0 0 0 col
1 lw [] 0 ld 2 lj 2 lc
np 136 379 m 126 379 l 
st
0 0 0 col
1 lw [] 0 ld 2 lj 2 lc
np 136 410 m 126 410 l 
st
0 0 0 col
1 lw [] 0 ld 2 lj 2 lc
np 136 426 m 126 426 l 
st
0 0 0 col
1 lw [] 0 ld 2 lj 2 lc
np 136 441 m 126 441 l 
st
0 0 0 col
1 lw [] 0 ld 2 lj 2 lc
np 136 457 m 126 457 l 
st
0 0 0 col
1 lw [] 0 ld 2 lj 2 lc
np 136 488 m 126 488 l 
st
0 0 0 col
1 lw [] 0 ld 2 lj 2 lc
np 136 504 m 126 504 l 
st
0 0 0 col
1 lw [] 0 ld 2 lj 2 lc
np 136 519 m 126 519 l 
st
0 0 0 col
1 lw [] 0 ld 2 lj 2 lc
np 136 535 m 126 535 l 
st
0 0 0 col
1 lw [] 0 ld 2 lj 2 lc
np 136 566 m 126 566 l 
st
0 0 0 col
1 lw [] 0 ld 2 lj 2 lc
np 136 581 m 126 581 l 
st
0 0 0 col
1 lw [] 0 ld 2 lj 2 lc
np 136 597 m 126 597 l 
st
0 0 0 col
1 lw [] 0 ld 2 lj 2 lc
np 136 613 m 126 613 l 
st
0 0 0 col
1 lw [] 0 ld 2 lj 2 lc
np 136 644 m 126 644 l 
st
0 0 0 col
1 lw [] 0 ld 2 lj 2 lc
np 136 659 m 126 659 l 
st
0 0 0 col
1 lw [] 0 ld 2 lj 2 lc
np 136 675 m 126 675 l 
st
0 0 0 col
1 lw [] 0 ld 2 lj 2 lc
np 136 690 m 126 690 l 
st
0 0 0 col
1 lw [] 0 ld 2 lj 2 lc
np 136 83 m 118 83 l 
st
0 0 0 col
1 lw [] 0 ld 2 lj 2 lc
np 136 161 m 118 161 l 
st
0 0 0 col
1 lw [] 0 ld 2 lj 2 lc
np 136 239 m 118 239 l 
st
0 0 0 col
1 lw [] 0 ld 2 lj 2 lc
np 136 317 m 118 317 l 
st
0 0 0 col
1 lw [] 0 ld 2 lj 2 lc
np 136 394 m 118 394 l 
st
0 0 0 col
1 lw [] 0 ld 2 lj 2 lc
np 136 472 m 118 472 l 
st
0 0 0 col
1 lw [] 0 ld 2 lj 2 lc
np 136 550 m 118 550 l 
st
0 0 0 col
1 lw [] 0 ld 2 lj 2 lc
np 136 628 m 118 628 l 
st
0 0 0 col
1 lw [] 0 ld 2 lj 2 lc
np 136 706 m 118 706 l 
st
0 0 0 col
1 lw [] 0 ld 2 lj 2 lc
np 136 706 m 136 83 l 
st
0 0 0 col
/Helvetica-Bold f 24.385 sf
785.594 5.60938 m (Timestamp) s
0 0 0 col
/Helvetica f 24.385 sf
245 37.1562 m (04.11.2016 01:45:46) s
0 0 0 col
465 37.1562 m (04.11.2016 01:45:50) s
0 0 0 col
684 37.1562 m (04.11.2016 01:45:54) s
0 0 0 col
903 37.1562 m (04.11.2016 01:45:58) s
0 0 0 col
1123 37.1562 m (04.11.2016 01:46:02) s
0 0 0 col
1 lw [] 0 ld 2 lj 2 lc
np 180 83 m 180 73 l 
st
0 0 0 col
1 lw [] 0 ld 2 lj 2 lc
np 224 83 m 224 73 l 
st
0 0 0 col
1 lw [] 0 ld 2 lj 2 lc
np 268 83 m 268 73 l 
st
0 0 0 col
1 lw [] 0 ld 2 lj 2 lc
np 311 83 m 311 73 l 
st
0 0 0 col
1 lw [] 0 ld 2 lj 2 lc
np 399 83 m 399 73 l 
st
0 0 0 col
1 lw [] 0 ld 2 lj 2 lc
np 443 83 m 443 73 l 
st
0 0 0 col
1 lw [] 0 ld 2 lj 2 lc
np 487 83 m 487 73 l 
st
0 0 0 col
1 lw [] 0 ld 2 lj 2 lc
np 531 83 m 531 73 l 
st
0 0 0 col
1 lw [] 0 ld 2 lj 2 lc
np 619 83 m 619 73 l 
st
0 0 0 col
1 lw [] 0 ld 2 lj 2 lc
np 662 83 m 662 73 l 
st
0 0 0 col
1 lw [] 0 ld 2 lj 2 lc
np 706 83 m 706 73 l 
st
0 0 0 col
1 lw [] 0 ld 2 lj 2 lc
np 750 83 m 750 73 l 
st
0 0 0 col
1 lw [] 0 ld 2 lj 2 lc
np 838 83 m 838 73 l 
st
0 0 0 col
1 lw [] 0 ld 2 lj 2 lc
np 882 83 m 882 73 l 
st
0 0 0 col
1 lw [] 0 ld 2 lj 2 lc
np 926 83 m 926 73 l 
st
0 0 0 col
1 lw [] 0 ld 2 lj 2 lc
np 969 83 m 969 73 l 
st
0 0 0 col
1 lw [] 0 ld 2 lj 2 lc
np 1057 83 m 1057 73 l 
st
0 0 0 col
1 lw [] 0 ld 2 lj 2 lc
np 1101 83 m 1101 73 l 
st
0 0 0 col
1 lw [] 0 ld 2 lj 2 lc
np 1145 83 m 1145 73 l 
st
0 0 0 col
1 lw [] 0 ld 2 lj 2 lc
np 1189 83 m 1189 73 l 
st
0 0 0 col
1 lw [] 0 ld 2 lj 2 lc
np 1277 83 m 1277 73 l 
st
0 0 0 col
1 lw [] 0 ld 2 lj 2 lc
np 1320 83 m 1320 73 l 
st
0 0 0 col
1 lw [] 0 ld 2 lj 2 lc
np 1364 83 m 1364 73 l 
st
0 0 0 col
1 lw [] 0 ld 2 lj 2 lc
np 1408 83 m 1408 73 l 
st
0 0 0 col
1 lw [] 0 ld 2 lj 2 lc
np 136 83 m 136 65 l 
st
0 0 0 col
1 lw [] 0 ld 2 lj 2 lc
np 355 83 m 355 65 l 
st
0 0 0 col
1 lw [] 0 ld 2 lj 2 lc
np 575 83 m 575 65 l 
st
0 0 0 col
1 lw [] 0 ld 2 lj 2 lc
np 794 83 m 794 65 l 
st
0 0 0 col
1 lw [] 0 ld 2 lj 2 lc
np 1013 83 m 1013 65 l 
st
0 0 0 col
1 lw [] 0 ld 2 lj 2 lc
np 1233 83 m 1233 65 l 
st
0 0 0 col
1 lw [] 0 ld 2 lj 2 lc
np 1452 83 m 1452 65 l 
st
0 0 0 col
1 lw [] 0 ld 2 lj 2 lc
np 136 83 m 1452 83 l 
st
0 0 0 col
1 lw [] 0 ld 0 lj 2 ml 2 lc
np 169 685 m 306 685 l 306 500 l 169 500 l 169 685 l 
st
0 0 0 col
1 lw [] 0 ld 0 lj 2 ml 0 lc
np 180 665 m 212 665 l 
st
0 0 0 col
222 656.156 m (AccX) s
1 0 0 col
1 lw [] 0 ld 0 lj 2 ml 0 lc
np 180 636 m 212 636 l 
st
0 0 0 col
222 627.156 m (AccY) s
0 1 0 col
1 lw [] 0 ld 0 lj 2 ml 0 lc
np 180 607 m 212 607 l 
st
0 0 0 col
222 598.156 m (AccZ) s
0 0 1 col
1 lw [] 0 ld 0 lj 2 ml 0 lc
np 180 578 m 212 578 l 
st
0 0 0 col
222 569.156 m (OrienX) s
0 1 1 col
1 lw [] 0 ld 0 lj 2 ml 0 lc
np 180 549 m 212 549 l 
st
0 0 0 col
222 540.156 m (OrienY) s
1 0 1 col
1 lw [] 0 ld 0 lj 2 ml 0 lc
np 180 520 m 212 520 l 
st
0 0 0 col
222 511.156 m (OrienZ) s
%%EOF