%!PS-Adobe-3.0 EPSF-3.0
%%BoundingBox: 0 0 1564 760
%%Pages: 0
%%Creator: QtiPlot
%%CreationDate: 2016-11-07
%%Title: /Users/vincentcuccu/fopra2016-17/NeglectDetect/Documents/Testdaten/data_04.11.2016/data_04.11.2016 014610.eps
%%BeginProlog
/bd {bind def} bind def
/c {curveto} bd
/f {findfont} bd
/l {lineto} bd
/m {moveto} bd
/r {rotate} bd
/s {show} bd
/cp {clip} bd
/fl {fill} bd
/rf {rectfill} bd
/np {newpath} bd
/lw {setlinewidth} bd
/lc {setlinecap} bd
/lj {setlinejoin} bd
/ml {setmiterlimit} bd
/ld {setdash} bd
/gl {glyphshow} bd
/gs {gsave} bd
/gr {grestore} bd
/st {stroke} bd
/sf {scalefont setfont} bd
/tr {translate} bd
/sw {stringwidth pop neg 0 rmoveto} bind def
/col {setrgbcolor} bd
%%EndProlog
gs
np 142 706 m 1453 706 l 1453 83 l 142 83 l 142 706 l 
cp
0.627451 0.627451 0.643137 col
1 lw [4 2] 0 ld 2 lj 2 lc
np 179 706 m 179 83 l 
st
gr
gs
np 142 706 m 1453 706 l 1453 83 l 142 83 l 142 706 l 
cp
0.627451 0.627451 0.643137 col
1 lw [4 2] 0 ld 2 lj 2 lc
np 217 706 m 217 83 l 
st
gr
gs
np 142 706 m 1453 706 l 1453 83 l 142 83 l 142 706 l 
cp
0.627451 0.627451 0.643137 col
1 lw [4 2] 0 ld 2 lj 2 lc
np 254 706 m 254 83 l 
st
gr
gs
np 142 706 m 1453 706 l 1453 83 l 142 83 l 142 706 l 
cp
0.627451 0.627451 0.643137 col
1 lw [4 2] 0 ld 2 lj 2 lc
np 292 706 m 292 83 l 
st
gr
gs
np 142 706 m 1453 706 l 1453 83 l 142 83 l 142 706 l 
cp
0.627451 0.627451 0.643137 col
1 lw [4 2] 0 ld 2 lj 2 lc
np 367 706 m 367 83 l 
st
gr
gs
np 142 706 m 1453 706 l 1453 83 l 142 83 l 142 706 l 
cp
0.627451 0.627451 0.643137 col
1 lw [4 2] 0 ld 2 lj 2 lc
np 404 706 m 404 83 l 
st
gr
gs
np 142 706 m 1453 706 l 1453 83 l 142 83 l 142 706 l 
cp
0.627451 0.627451 0.643137 col
1 lw [4 2] 0 ld 2 lj 2 lc
np 442 706 m 442 83 l 
st
gr
gs
np 142 706 m 1453 706 l 1453 83 l 142 83 l 142 706 l 
cp
0.627451 0.627451 0.643137 col
1 lw [4 2] 0 ld 2 lj 2 lc
np 479 706 m 479 83 l 
st
gr
gs
np 142 706 m 1453 706 l 1453 83 l 142 83 l 142 706 l 
cp
0.627451 0.627451 0.643137 col
1 lw [4 2] 0 ld 2 lj 2 lc
np 554 706 m 554 83 l 
st
gr
gs
np 142 706 m 1453 706 l 1453 83 l 142 83 l 142 706 l 
cp
0.627451 0.627451 0.643137 col
1 lw [4 2] 0 ld 2 lj 2 lc
np 591 706 m 591 83 l 
st
gr
gs
np 142 706 m 1453 706 l 1453 83 l 142 83 l 142 706 l 
cp
0.627451 0.627451 0.643137 col
1 lw [4 2] 0 ld 2 lj 2 lc
np 629 706 m 629 83 l 
st
gr
gs
np 142 706 m 1453 706 l 1453 83 l 142 83 l 142 706 l 
cp
0.627451 0.627451 0.643137 col
1 lw [4 2] 0 ld 2 lj 2 lc
np 666 706 m 666 83 l 
st
gr
gs
np 142 706 m 1453 706 l 1453 83 l 142 83 l 142 706 l 
cp
0.627451 0.627451 0.643137 col
1 lw [4 2] 0 ld 2 lj 2 lc
np 741 706 m 741 83 l 
st
gr
gs
np 142 706 m 1453 706 l 1453 83 l 142 83 l 142 706 l 
cp
0.627451 0.627451 0.643137 col
1 lw [4 2] 0 ld 2 lj 2 lc
np 779 706 m 779 83 l 
st
gr
gs
np 142 706 m 1453 706 l 1453 83 l 142 83 l 142 706 l 
cp
0.627451 0.627451 0.643137 col
1 lw [4 2] 0 ld 2 lj 2 lc
np 816 706 m 816 83 l 
st
gr
gs
np 142 706 m 1453 706 l 1453 83 l 142 83 l 142 706 l 
cp
0.627451 0.627451 0.643137 col
1 lw [4 2] 0 ld 2 lj 2 lc
np 854 706 m 854 83 l 
st
gr
gs
np 142 706 m 1453 706 l 1453 83 l 142 83 l 142 706 l 
cp
0.627451 0.627451 0.643137 col
1 lw [4 2] 0 ld 2 lj 2 lc
np 929 706 m 929 83 l 
st
gr
gs
np 142 706 m 1453 706 l 1453 83 l 142 83 l 142 706 l 
cp
0.627451 0.627451 0.643137 col
1 lw [4 2] 0 ld 2 lj 2 lc
np 966 706 m 966 83 l 
st
gr
gs
np 142 706 m 1453 706 l 1453 83 l 142 83 l 142 706 l 
cp
0.627451 0.627451 0.643137 col
1 lw [4 2] 0 ld 2 lj 2 lc
np 1004 706 m 1004 83 l 
st
gr
gs
np 142 706 m 1453 706 l 1453 83 l 142 83 l 142 706 l 
cp
0.627451 0.627451 0.643137 col
1 lw [4 2] 0 ld 2 lj 2 lc
np 1041 706 m 1041 83 l 
st
gr
gs
np 142 706 m 1453 706 l 1453 83 l 142 83 l 142 706 l 
cp
0.627451 0.627451 0.643137 col
1 lw [4 2] 0 ld 2 lj 2 lc
np 1116 706 m 1116 83 l 
st
gr
gs
np 142 706 m 1453 706 l 1453 83 l 142 83 l 142 706 l 
cp
0.627451 0.627451 0.643137 col
1 lw [4 2] 0 ld 2 lj 2 lc
np 1153 706 m 1153 83 l 
st
gr
gs
np 142 706 m 1453 706 l 1453 83 l 142 83 l 142 706 l 
cp
0.627451 0.627451 0.643137 col
1 lw [4 2] 0 ld 2 lj 2 lc
np 1191 706 m 1191 83 l 
st
gr
gs
np 142 706 m 1453 706 l 1453 83 l 142 83 l 142 706 l 
cp
0.627451 0.627451 0.643137 col
1 lw [4 2] 0 ld 2 lj 2 lc
np 1228 706 m 1228 83 l 
st
gr
gs
np 142 706 m 1453 706 l 1453 83 l 142 83 l 142 706 l 
cp
0.627451 0.627451 0.643137 col
1 lw [4 2] 0 ld 2 lj 2 lc
np 1303 706 m 1303 83 l 
st
gr
gs
np 142 706 m 1453 706 l 1453 83 l 142 83 l 142 706 l 
cp
0.627451 0.627451 0.643137 col
1 lw [4 2] 0 ld 2 lj 2 lc
np 1341 706 m 1341 83 l 
st
gr
gs
np 142 706 m 1453 706 l 1453 83 l 142 83 l 142 706 l 
cp
0.627451 0.627451 0.643137 col
1 lw [4 2] 0 ld 2 lj 2 lc
np 1378 706 m 1378 83 l 
st
gr
gs
np 142 706 m 1453 706 l 1453 83 l 142 83 l 142 706 l 
cp
0.627451 0.627451 0.643137 col
1 lw [4 2] 0 ld 2 lj 2 lc
np 1416 706 m 1416 83 l 
st
gr
gs
np 142 706 m 1453 706 l 1453 83 l 142 83 l 142 706 l 
cp
0.627451 0.627451 0.643137 col
1 lw [4 2] 0 ld 2 lj 2 lc
np 142 99 m 1453 99 l 
st
gr
gs
np 142 706 m 1453 706 l 1453 83 l 142 83 l 142 706 l 
cp
0.627451 0.627451 0.643137 col
1 lw [4 2] 0 ld 2 lj 2 lc
np 142 114 m 1453 114 l 
st
gr
gs
np 142 706 m 1453 706 l 1453 83 l 142 83 l 142 706 l 
cp
0.627451 0.627451 0.643137 col
1 lw [4 2] 0 ld 2 lj 2 lc
np 142 130 m 1453 130 l 
st
gr
gs
np 142 706 m 1453 706 l 1453 83 l 142 83 l 142 706 l 
cp
0.627451 0.627451 0.643137 col
1 lw [4 2] 0 ld 2 lj 2 lc
np 142 145 m 1453 145 l 
st
gr
gs
np 142 706 m 1453 706 l 1453 83 l 142 83 l 142 706 l 
cp
0.627451 0.627451 0.643137 col
1 lw [4 2] 0 ld 2 lj 2 lc
np 142 176 m 1453 176 l 
st
gr
gs
np 142 706 m 1453 706 l 1453 83 l 142 83 l 142 706 l 
cp
0.627451 0.627451 0.643137 col
1 lw [4 2] 0 ld 2 lj 2 lc
np 142 192 m 1453 192 l 
st
gr
gs
np 142 706 m 1453 706 l 1453 83 l 142 83 l 142 706 l 
cp
0.627451 0.627451 0.643137 col
1 lw [4 2] 0 ld 2 lj 2 lc
np 142 208 m 1453 208 l 
st
gr
gs
np 142 706 m 1453 706 l 1453 83 l 142 83 l 142 706 l 
cp
0.627451 0.627451 0.643137 col
1 lw [4 2] 0 ld 2 lj 2 lc
np 142 223 m 1453 223 l 
st
gr
gs
np 142 706 m 1453 706 l 1453 83 l 142 83 l 142 706 l 
cp
0.627451 0.627451 0.643137 col
1 lw [4 2] 0 ld 2 lj 2 lc
np 142 254 m 1453 254 l 
st
gr
gs
np 142 706 m 1453 706 l 1453 83 l 142 83 l 142 706 l 
cp
0.627451 0.627451 0.643137 col
1 lw [4 2] 0 ld 2 lj 2 lc
np 142 270 m 1453 270 l 
st
gr
gs
np 142 706 m 1453 706 l 1453 83 l 142 83 l 142 706 l 
cp
0.627451 0.627451 0.643137 col
1 lw [4 2] 0 ld 2 lj 2 lc
np 142 285 m 1453 285 l 
st
gr
gs
np 142 706 m 1453 706 l 1453 83 l 142 83 l 142 706 l 
cp
0.627451 0.627451 0.643137 col
1 lw [4 2] 0 ld 2 lj 2 lc
np 142 301 m 1453 301 l 
st
gr
gs
np 142 706 m 1453 706 l 1453 83 l 142 83 l 142 706 l 
cp
0.627451 0.627451 0.643137 col
1 lw [4 2] 0 ld 2 lj 2 lc
np 142 332 m 1453 332 l 
st
gr
gs
np 142 706 m 1453 706 l 1453 83 l 142 83 l 142 706 l 
cp
0.627451 0.627451 0.643137 col
1 lw [4 2] 0 ld 2 lj 2 lc
np 142 348 m 1453 348 l 
st
gr
gs
np 142 706 m 1453 706 l 1453 83 l 142 83 l 142 706 l 
cp
0.627451 0.627451 0.643137 col
1 lw [4 2] 0 ld 2 lj 2 lc
np 142 363 m 1453 363 l 
st
gr
gs
np 142 706 m 1453 706 l 1453 83 l 142 83 l 142 706 l 
cp
0.627451 0.627451 0.643137 col
1 lw [4 2] 0 ld 2 lj 2 lc
np 142 379 m 1453 379 l 
st
gr
gs
np 142 706 m 1453 706 l 1453 83 l 142 83 l 142 706 l 
cp
0.627451 0.627451 0.643137 col
1 lw [4 2] 0 ld 2 lj 2 lc
np 142 410 m 1453 410 l 
st
gr
gs
np 142 706 m 1453 706 l 1453 83 l 142 83 l 142 706 l 
cp
0.627451 0.627451 0.643137 col
1 lw [4 2] 0 ld 2 lj 2 lc
np 142 426 m 1453 426 l 
st
gr
gs
np 142 706 m 1453 706 l 1453 83 l 142 83 l 142 706 l 
cp
0.627451 0.627451 0.643137 col
1 lw [4 2] 0 ld 2 lj 2 lc
np 142 441 m 1453 441 l 
st
gr
gs
np 142 706 m 1453 706 l 1453 83 l 142 83 l 142 706 l 
cp
0.627451 0.627451 0.643137 col
1 lw [4 2] 0 ld 2 lj 2 lc
np 142 457 m 1453 457 l 
st
gr
gs
np 142 706 m 1453 706 l 1453 83 l 142 83 l 142 706 l 
cp
0.627451 0.627451 0.643137 col
1 lw [4 2] 0 ld 2 lj 2 lc
np 142 488 m 1453 488 l 
st
gr
gs
np 142 706 m 1453 706 l 1453 83 l 142 83 l 142 706 l 
cp
0.627451 0.627451 0.643137 col
1 lw [4 2] 0 ld 2 lj 2 lc
np 142 504 m 1453 504 l 
st
gr
gs
np 142 706 m 1453 706 l 1453 83 l 142 83 l 142 706 l 
cp
0.627451 0.627451 0.643137 col
1 lw [4 2] 0 ld 2 lj 2 lc
np 142 519 m 1453 519 l 
st
gr
gs
np 142 706 m 1453 706 l 1453 83 l 142 83 l 142 706 l 
cp
0.627451 0.627451 0.643137 col
1 lw [4 2] 0 ld 2 lj 2 lc
np 142 535 m 1453 535 l 
st
gr
gs
np 142 706 m 1453 706 l 1453 83 l 142 83 l 142 706 l 
cp
0.627451 0.627451 0.643137 col
1 lw [4 2] 0 ld 2 lj 2 lc
np 142 566 m 1453 566 l 
st
gr
gs
np 142 706 m 1453 706 l 1453 83 l 142 83 l 142 706 l 
cp
0.627451 0.627451 0.643137 col
1 lw [4 2] 0 ld 2 lj 2 lc
np 142 581 m 1453 581 l 
st
gr
gs
np 142 706 m 1453 706 l 1453 83 l 142 83 l 142 706 l 
cp
0.627451 0.627451 0.643137 col
1 lw [4 2] 0 ld 2 lj 2 lc
np 142 597 m 1453 597 l 
st
gr
gs
np 142 706 m 1453 706 l 1453 83 l 142 83 l 142 706 l 
cp
0.627451 0.627451 0.643137 col
1 lw [4 2] 0 ld 2 lj 2 lc
np 142 613 m 1453 613 l 
st
gr
gs
np 142 706 m 1453 706 l 1453 83 l 142 83 l 142 706 l 
cp
0.627451 0.627451 0.643137 col
1 lw [4 2] 0 ld 2 lj 2 lc
np 142 644 m 1453 644 l 
st
gr
gs
np 142 706 m 1453 706 l 1453 83 l 142 83 l 142 706 l 
cp
0.627451 0.627451 0.643137 col
1 lw [4 2] 0 ld 2 lj 2 lc
np 142 659 m 1453 659 l 
st
gr
gs
np 142 706 m 1453 706 l 1453 83 l 142 83 l 142 706 l 
cp
0.627451 0.627451 0.643137 col
1 lw [4 2] 0 ld 2 lj 2 lc
np 142 675 m 1453 675 l 
st
gr
gs
np 142 706 m 1453 706 l 1453 83 l 142 83 l 142 706 l 
cp
0.627451 0.627451 0.643137 col
1 lw [4 2] 0 ld 2 lj 2 lc
np 142 690 m 1453 690 l 
st
gr
gs
np 142 706 m 1453 706 l 1453 83 l 142 83 l 142 706 l 
cp
0.627451 0.627451 0.643137 col
1 lw [] 0 ld 2 lj 2 lc
np 329 706 m 329 83 l 
st
gr
gs
np 142 706 m 1453 706 l 1453 83 l 142 83 l 142 706 l 
cp
0.627451 0.627451 0.643137 col
1 lw [] 0 ld 2 lj 2 lc
np 517 706 m 517 83 l 
st
gr
gs
np 142 706 m 1453 706 l 1453 83 l 142 83 l 142 706 l 
cp
0.627451 0.627451 0.643137 col
1 lw [] 0 ld 2 lj 2 lc
np 704 706 m 704 83 l 
st
gr
gs
np 142 706 m 1453 706 l 1453 83 l 142 83 l 142 706 l 
cp
0.627451 0.627451 0.643137 col
1 lw [] 0 ld 2 lj 2 lc
np 891 706 m 891 83 l 
st
gr
gs
np 142 706 m 1453 706 l 1453 83 l 142 83 l 142 706 l 
cp
0.627451 0.627451 0.643137 col
1 lw [] 0 ld 2 lj 2 lc
np 1078 706 m 1078 83 l 
st
gr
gs
np 142 706 m 1453 706 l 1453 83 l 142 83 l 142 706 l 
cp
0.627451 0.627451 0.643137 col
1 lw [] 0 ld 2 lj 2 lc
np 1266 706 m 1266 83 l 
st
gr
gs
np 142 706 m 1453 706 l 1453 83 l 142 83 l 142 706 l 
cp
0.627451 0.627451 0.643137 col
1 lw [] 0 ld 2 lj 2 lc
np 142 161 m 1453 161 l 
st
gr
gs
np 142 706 m 1453 706 l 1453 83 l 142 83 l 142 706 l 
cp
0.627451 0.627451 0.643137 col
1 lw [] 0 ld 2 lj 2 lc
np 142 239 m 1453 239 l 
st
gr
gs
np 142 706 m 1453 706 l 1453 83 l 142 83 l 142 706 l 
cp
0.627451 0.627451 0.643137 col
1 lw [] 0 ld 2 lj 2 lc
np 142 317 m 1453 317 l 
st
gr
gs
np 142 706 m 1453 706 l 1453 83 l 142 83 l 142 706 l 
cp
0.627451 0.627451 0.643137 col
1 lw [] 0 ld 2 lj 2 lc
np 142 394 m 1453 394 l 
st
gr
gs
np 142 706 m 1453 706 l 1453 83 l 142 83 l 142 706 l 
cp
0.627451 0.627451 0.643137 col
1 lw [] 0 ld 2 lj 2 lc
np 142 472 m 1453 472 l 
st
gr
gs
np 142 706 m 1453 706 l 1453 83 l 142 83 l 142 706 l 
cp
0.627451 0.627451 0.643137 col
1 lw [] 0 ld 2 lj 2 lc
np 142 550 m 1453 550 l 
st
gr
gs
np 142 706 m 1453 706 l 1453 83 l 142 83 l 142 706 l 
cp
0.627451 0.627451 0.643137 col
1 lw [] 0 ld 2 lj 2 lc
np 142 628 m 1453 628 l 
st
gr
gs
np 142 706 m 1453 706 l 1453 83 l 142 83 l 142 706 l 
cp
0 0 0 col
1 lw [] 0 ld 0 lj 2 ml 0 lc
np 160.729 238.75 m 179.457 238.75 l 198.186 238.75 l 216.914 238.75 l 235.643 238.75 l 254.371 238.75 l 273.1 256.449 l 291.829 238.75 l 310.557 283.159 l 329.286 238.75 l 348.014 238.75 l 366.743 238.75 l 385.471 238.75 l 404.2 238.75 l 
422.929 264.314 l 441.657 231.729 l 460.386 238.75 l 479.114 238.75 l 497.843 238.75 l 516.571 238.75 l 535.3 238.75 l 554.029 238.75 l 572.757 238.75 l 591.486 230.273 l 610.214 238.75 l 628.943 238.75 l 647.671 238.75 l 666.4 291.129 l 
685.129 238.75 l 703.857 238.75 l 722.586 272.513 l 741.314 238.75 l 760.043 238.75 l 778.771 238.75 l 797.5 238.75 l 816.229 238.75 l 834.957 238.75 l 853.686 238.75 l 872.414 238.75 l 891.143 238.75 l 909.871 238.75 l 928.6 238.75 l 947.329 238.75 l 
966.057 238.75 l 984.786 238.75 l 1003.51 238.75 l 1022.24 238.75 l 1040.97 238.75 l 1059.7 238.75 l 1078.43 238.75 l 1097.16 238.75 l 1115.89 257.516 l 1134.61 238.75 l 1153.34 238.75 l 1172.07 238.75 l 1190.8 238.75 l 1209.53 259.724 l 
1228.26 238.75 l 1246.99 238.75 l 1265.71 238.75 l 1284.44 238.75 l 1303.17 238.75 l 1321.9 238.75 l 1340.63 238.75 l 1359.36 238.75 l 1378.09 238.75 l 
st
gr
gs
np 142 706 m 1453 706 l 1453 83 l 142 83 l 142 706 l 
cp
1 0 0 col
1 lw [] 0 ld 0 lj 2 ml 0 lc
np 160.729 238.75 m 179.457 238.75 l 198.186 259.653 l 216.914 238.75 l 235.643 238.75 l 254.371 238.75 l 273.1 284.703 l 291.829 238.75 l 310.557 219.137 l 329.286 238.75 l 348.014 238.75 l 366.743 191.516 l 385.471 238.75 l 404.2 238.75 l 
422.929 238.75 l 441.657 238.75 l 460.386 238.75 l 479.114 238.75 l 497.843 260.48 l 516.571 238.75 l 535.3 238.75 l 554.029 344.299 l 572.757 238.75 l 591.486 238.75 l 610.214 304.567 l 628.943 238.75 l 647.671 238.75 l 666.4 238.75 l 685.129 238.75 l 
703.857 238.75 l 722.586 238.75 l 741.314 238.75 l 760.043 238.75 l 778.771 238.75 l 797.5 238.75 l 816.229 238.75 l 834.957 238.75 l 853.686 238.75 l 872.414 238.75 l 891.143 238.75 l 909.871 167.001 l 928.6 238.75 l 947.329 238.75 l 966.057 238.75 l 
984.786 238.75 l 1003.51 238.75 l 1022.24 216.405 l 1040.97 363.1 l 1059.7 238.75 l 1078.43 238.75 l 1097.16 374.23 l 1115.89 238.75 l 1134.61 238.75 l 1153.34 276.311 l 1172.07 238.75 l 1190.8 238.75 l 1209.53 335.012 l 1228.26 263.396 l 
1246.99 301.378 l 1265.71 145.87 l 1284.44 238.75 l 1303.17 238.75 l 1321.9 238.75 l 1340.63 238.75 l 1359.36 238.75 l 1378.09 238.75 l 
st
gr
gs
np 142 706 m 1453 706 l 1453 83 l 142 83 l 142 706 l 
cp
0 1 0 col
1 lw [] 0 ld 0 lj 2 ml 0 lc
np 160.729 238.75 m 179.457 238.75 l 198.186 197.929 l 216.914 238.75 l 235.643 238.75 l 254.371 238.75 l 273.1 238.75 l 291.829 238.75 l 310.557 238.75 l 329.286 238.75 l 348.014 238.75 l 366.743 238.75 l 385.471 238.75 l 404.2 238.75 l 
422.929 238.75 l 441.657 238.75 l 460.386 216.93 l 479.114 238.75 l 497.843 238.75 l 516.571 238.75 l 535.3 238.75 l 554.029 238.75 l 572.757 238.75 l 591.486 233.202 l 610.214 238.75 l 628.943 238.75 l 647.671 238.75 l 666.4 238.75 l 685.129 238.75 l 
703.857 238.75 l 722.586 238.75 l 741.314 238.75 l 760.043 238.75 l 778.771 214.332 l 797.5 238.75 l 816.229 238.75 l 834.957 238.75 l 853.686 238.75 l 872.414 238.75 l 891.143 238.75 l 909.871 238.75 l 928.6 238.75 l 947.329 238.75 l 966.057 238.75 l 
984.786 233.511 l 1003.51 297.732 l 1022.24 238.75 l 1040.97 238.75 l 1059.7 238.75 l 1078.43 238.75 l 1097.16 201.832 l 1115.89 238.75 l 1134.61 238.75 l 1153.34 238.75 l 1172.07 222.05 l 1190.8 238.75 l 1209.53 238.75 l 1228.26 238.75 l 
1246.99 238.75 l 1265.71 284.04 l 1284.44 238.75 l 1303.17 238.75 l 1321.9 238.75 l 1340.63 238.75 l 1359.36 238.75 l 1378.09 238.75 l 
st
gr
gs
np 142 706 m 1453 706 l 1453 83 l 142 83 l 142 706 l 
cp
0 0 1 col
1 lw [] 0 ld 0 lj 2 ml 0 lc
np 160.729 238.75 m 179.457 238.75 l 198.186 238.75 l 216.914 238.75 l 235.643 281.482 l 254.371 238.75 l 273.1 238.75 l 291.829 238.75 l 310.557 238.75 l 329.286 238.75 l 348.014 232.948 l 366.743 238.75 l 385.471 238.75 l 404.2 238.75 l 
422.929 238.75 l 441.657 238.75 l 460.386 231.714 l 479.114 238.75 l 497.843 238.75 l 516.571 238.75 l 535.3 238.75 l 554.029 238.75 l 572.757 238.75 l 591.486 238.75 l 610.214 238.75 l 628.943 238.75 l 647.671 238.75 l 666.4 238.75 l 685.129 241.358 l 
703.857 238.75 l 722.586 238.75 l 741.314 238.75 l 760.043 238.75 l 778.771 238.75 l 797.5 238.75 l 816.229 238.75 l 834.957 238.75 l 853.686 238.75 l 872.414 238.75 l 891.143 238.75 l 909.871 271.349 l 928.6 238.75 l 947.329 238.75 l 966.057 238.75 l 
984.786 238.75 l 1003.51 238.75 l 1022.24 286.522 l 1040.97 238.75 l 1059.7 238.75 l 1078.43 238.75 l 1097.16 238.75 l 1115.89 238.75 l 1134.61 238.75 l 1153.34 238.75 l 1172.07 238.75 l 1190.8 238.75 l 1209.53 238.75 l 1228.26 238.75 l 1246.99 270.82 l 
1265.71 238.75 l 1284.44 238.75 l 1303.17 238.75 l 1321.9 283.202 l 1340.63 238.75 l 1359.36 280.723 l 1378.09 238.75 l 
st
gr
gs
np 142 706 m 1453 706 l 1453 83 l 142 83 l 142 706 l 
cp
0 1 1 col
1 lw [] 0 ld 0 lj 2 ml 0 lc
np 160.729 238.75 m 179.457 238.75 l 198.186 238.75 l 216.914 238.75 l 235.643 238.75 l 254.371 238.75 l 273.1 238.75 l 291.829 238.75 l 310.557 214.905 l 329.286 238.75 l 348.014 238.75 l 366.743 218.935 l 385.471 238.75 l 404.2 217.997 l 
422.929 238.75 l 441.657 238.75 l 460.386 238.75 l 479.114 238.75 l 497.843 238.75 l 516.571 238.75 l 535.3 238.75 l 554.029 238.75 l 572.757 238.75 l 591.486 238.75 l 610.214 218.076 l 628.943 238.75 l 647.671 238.75 l 666.4 221.075 l 685.129 219.469 l 
703.857 238.75 l 722.586 218.723 l 741.314 238.75 l 760.043 238.75 l 778.771 238.75 l 797.5 219.253 l 816.229 238.75 l 834.957 238.75 l 853.686 238.75 l 872.414 218.362 l 891.143 222.566 l 909.871 214.857 l 928.6 229.322 l 947.329 238.75 l 
966.057 238.75 l 984.786 238.75 l 1003.51 238.75 l 1022.24 238.75 l 1040.97 238.75 l 1059.7 219.735 l 1078.43 238.75 l 1097.16 238.75 l 1115.89 238.75 l 1134.61 221.48 l 1153.34 219.973 l 1172.07 216.475 l 1190.8 238.75 l 1209.53 238.75 l 
1228.26 238.75 l 1246.99 238.75 l 1265.71 238.75 l 1284.44 668.787 l 1303.17 238.75 l 1321.9 238.75 l 1340.63 238.75 l 1359.36 238.75 l 1378.09 238.75 l 
st
gr
gs
np 142 706 m 1453 706 l 1453 83 l 142 83 l 142 706 l 
cp
1 0 1 col
1 lw [] 0 ld 0 lj 2 ml 0 lc
np 160.729 238.75 m 179.457 238.75 l 198.186 238.75 l 216.914 238.75 l 235.643 238.75 l 254.371 238.75 l 273.1 238.75 l 291.829 238.75 l 310.557 238.75 l 329.286 238.75 l 348.014 192.522 l 366.743 200.266 l 385.471 238.75 l 404.2 197.919 l 
422.929 196.99 l 441.657 205.793 l 460.386 238.75 l 479.114 238.75 l 497.843 200.904 l 516.571 210.378 l 535.3 238.75 l 554.029 238.75 l 572.757 238.75 l 591.486 238.75 l 610.214 238.75 l 628.943 209.657 l 647.671 238.75 l 666.4 206.705 l 
685.129 205.433 l 703.857 238.75 l 722.586 238.75 l 741.314 209.12 l 760.043 201.638 l 778.771 205.464 l 797.5 238.75 l 816.229 238.75 l 834.957 238.75 l 853.686 238.75 l 872.414 200.069 l 891.143 238.75 l 909.871 238.75 l 928.6 205.35 l 
947.329 199.274 l 966.057 238.75 l 984.786 238.75 l 1003.51 238.75 l 1022.24 238.75 l 1040.97 201.217 l 1059.7 238.75 l 1078.43 205.964 l 1097.16 238.75 l 1115.89 238.75 l 1134.61 238.75 l 1153.34 202.789 l 1172.07 238.75 l 1190.8 238.75 l 
1209.53 238.75 l 1228.26 238.75 l 1246.99 238.75 l 1265.71 238.75 l 1284.44 238.75 l 1303.17 238.75 l 1321.9 238.75 l 1340.63 238.75 l 1359.36 238.75 l 1378.09 238.75 l 
st
gr
0 0 0 col
/Helvetica-Bold f 28.4492 sf
695.859 732.703 m (data_04.11.2016 014610) s
0 0 0 col
/Helvetica-Bold f 24.385 sf
23.3906 365.516 m
gs
90 r
(AccX) s
gr
0 0 0 col
/ReEncode { % inFont outFont encoding | -
 /MyEncoding exch def
 exch findfont
 dup length dict
 begin
	{def} forall
	/Encoding MyEncoding def
	currentdict
 end
 definefont
} def
/Helvetica /Helvetica-Latin1 ISOLatin1Encoding ReEncode
/Helvetica-Latin1 f 24.385 sf
119.688 74.1562 m (\0551e+16) dup sw s
0 0 0 col
/Helvetica-Latin1 f 24.385 sf
119.688 152.156 m (\0555e+15) dup sw s
0 0 0 col
106 230.156 m (0) s
0 0 0 col
52 308.156 m (5e+15) s
0 0 0 col
52 385.156 m (1e+16) s
0 0 0 col
32 463.156 m (1,5e+16) s
0 0 0 col
52 541.156 m (2e+16) s
0 0 0 col
32 619.156 m (2,5e+16) s
0 0 0 col
52 697.156 m (3e+16) s
0 0 0 col
1 lw [] 0 ld 2 lj 2 lc
np 142 99 m 132 99 l 
st
0 0 0 col
1 lw [] 0 ld 2 lj 2 lc
np 142 114 m 132 114 l 
st
0 0 0 col
1 lw [] 0 ld 2 lj 2 lc
np 142 130 m 132 130 l 
st
0 0 0 col
1 lw [] 0 ld 2 lj 2 lc
np 142 145 m 132 145 l 
st
0 0 0 col
1 lw [] 0 ld 2 lj 2 lc
np 142 176 m 132 176 l 
st
0 0 0 col
1 lw [] 0 ld 2 lj 2 lc
np 142 192 m 132 192 l 
st
0 0 0 col
1 lw [] 0 ld 2 lj 2 lc
np 142 208 m 132 208 l 
st
0 0 0 col
1 lw [] 0 ld 2 lj 2 lc
np 142 223 m 132 223 l 
st
0 0 0 col
1 lw [] 0 ld 2 lj 2 lc
np 142 254 m 132 254 l 
st
0 0 0 col
1 lw [] 0 ld 2 lj 2 lc
np 142 270 m 132 270 l 
st
0 0 0 col
1 lw [] 0 ld 2 lj 2 lc
np 142 285 m 132 285 l 
st
0 0 0 col
1 lw [] 0 ld 2 lj 2 lc
np 142 301 m 132 301 l 
st
0 0 0 col
1 lw [] 0 ld 2 lj 2 lc
np 142 332 m 132 332 l 
st
0 0 0 col
1 lw [] 0 ld 2 lj 2 lc
np 142 348 m 132 348 l 
st
0 0 0 col
1 lw [] 0 ld 2 lj 2 lc
np 142 363 m 132 363 l 
st
0 0 0 col
1 lw [] 0 ld 2 lj 2 lc
np 142 379 m 132 379 l 
st
0 0 0 col
1 lw [] 0 ld 2 lj 2 lc
np 142 410 m 132 410 l 
st
0 0 0 col
1 lw [] 0 ld 2 lj 2 lc
np 142 426 m 132 426 l 
st
0 0 0 col
1 lw [] 0 ld 2 lj 2 lc
np 142 441 m 132 441 l 
st
0 0 0 col
1 lw [] 0 ld 2 lj 2 lc
np 142 457 m 132 457 l 
st
0 0 0 col
1 lw [] 0 ld 2 lj 2 lc
np 142 488 m 132 488 l 
st
0 0 0 col
1 lw [] 0 ld 2 lj 2 lc
np 142 504 m 132 504 l 
st
0 0 0 col
1 lw [] 0 ld 2 lj 2 lc
np 142 519 m 132 519 l 
st
0 0 0 col
1 lw [] 0 ld 2 lj 2 lc
np 142 535 m 132 535 l 
st
0 0 0 col
1 lw [] 0 ld 2 lj 2 lc
np 142 566 m 132 566 l 
st
0 0 0 col
1 lw [] 0 ld 2 lj 2 lc
np 142 581 m 132 581 l 
st
0 0 0 col
1 lw [] 0 ld 2 lj 2 lc
np 142 597 m 132 597 l 
st
0 0 0 col
1 lw [] 0 ld 2 lj 2 lc
np 142 613 m 132 613 l 
st
0 0 0 col
1 lw [] 0 ld 2 lj 2 lc
np 142 644 m 132 644 l 
st
0 0 0 col
1 lw [] 0 ld 2 lj 2 lc
np 142 659 m 132 659 l 
st
0 0 0 col
1 lw [] 0 ld 2 lj 2 lc
np 142 675 m 132 675 l 
st
0 0 0 col
1 lw [] 0 ld 2 lj 2 lc
np 142 690 m 132 690 l 
st
0 0 0 col
1 lw [] 0 ld 2 lj 2 lc
np 142 83 m 124 83 l 
st
0 0 0 col
1 lw [] 0 ld 2 lj 2 lc
np 142 161 m 124 161 l 
st
0 0 0 col
1 lw [] 0 ld 2 lj 2 lc
np 142 239 m 124 239 l 
st
0 0 0 col
1 lw [] 0 ld 2 lj 2 lc
np 142 317 m 124 317 l 
st
0 0 0 col
1 lw [] 0 ld 2 lj 2 lc
np 142 394 m 124 394 l 
st
0 0 0 col
1 lw [] 0 ld 2 lj 2 lc
np 142 472 m 124 472 l 
st
0 0 0 col
1 lw [] 0 ld 2 lj 2 lc
np 142 550 m 124 550 l 
st
0 0 0 col
1 lw [] 0 ld 2 lj 2 lc
np 142 628 m 124 628 l 
st
0 0 0 col
1 lw [] 0 ld 2 lj 2 lc
np 142 706 m 124 706 l 
st
0 0 0 col
1 lw [] 0 ld 2 lj 2 lc
np 142 706 m 142 83 l 
st
0 0 0 col
/Helvetica-Bold f 24.385 sf
789.094 5.60938 m (Timestamp) s
0 0 0 col
/Helvetica f 24.385 sf
219 37.1562 m (04.11.2016 01:46:11) s
0 0 0 col
407 37.1562 m (04.11.2016 01:46:13) s
0 0 0 col
594 37.1562 m (04.11.2016 01:46:15) s
0 0 0 col
781 37.1562 m (04.11.2016 01:46:17) s
0 0 0 col
968 37.1562 m (04.11.2016 01:46:19) s
0 0 0 col
1156 37.1562 m (04.11.2016 01:46:21) s
0 0 0 col
1 lw [] 0 ld 2 lj 2 lc
np 179 83 m 179 73 l 
st
0 0 0 col
1 lw [] 0 ld 2 lj 2 lc
np 217 83 m 217 73 l 
st
0 0 0 col
1 lw [] 0 ld 2 lj 2 lc
np 254 83 m 254 73 l 
st
0 0 0 col
1 lw [] 0 ld 2 lj 2 lc
np 292 83 m 292 73 l 
st
0 0 0 col
1 lw [] 0 ld 2 lj 2 lc
np 367 83 m 367 73 l 
st
0 0 0 col
1 lw [] 0 ld 2 lj 2 lc
np 404 83 m 404 73 l 
st
0 0 0 col
1 lw [] 0 ld 2 lj 2 lc
np 442 83 m 442 73 l 
st
0 0 0 col
1 lw [] 0 ld 2 lj 2 lc
np 479 83 m 479 73 l 
st
0 0 0 col
1 lw [] 0 ld 2 lj 2 lc
np 554 83 m 554 73 l 
st
0 0 0 col
1 lw [] 0 ld 2 lj 2 lc
np 591 83 m 591 73 l 
st
0 0 0 col
1 lw [] 0 ld 2 lj 2 lc
np 629 83 m 629 73 l 
st
0 0 0 col
1 lw [] 0 ld 2 lj 2 lc
np 666 83 m 666 73 l 
st
0 0 0 col
1 lw [] 0 ld 2 lj 2 lc
np 741 83 m 741 73 l 
st
0 0 0 col
1 lw [] 0 ld 2 lj 2 lc
np 779 83 m 779 73 l 
st
0 0 0 col
1 lw [] 0 ld 2 lj 2 lc
np 816 83 m 816 73 l 
st
0 0 0 col
1 lw [] 0 ld 2 lj 2 lc
np 854 83 m 854 73 l 
st
0 0 0 col
1 lw [] 0 ld 2 lj 2 lc
np 929 83 m 929 73 l 
st
0 0 0 col
1 lw [] 0 ld 2 lj 2 lc
np 966 83 m 966 73 l 
st
0 0 0 col
1 lw [] 0 ld 2 lj 2 lc
np 1004 83 m 1004 73 l 
st
0 0 0 col
1 lw [] 0 ld 2 lj 2 lc
np 1041 83 m 1041 73 l 
st
0 0 0 col
1 lw [] 0 ld 2 lj 2 lc
np 1116 83 m 1116 73 l 
st
0 0 0 col
1 lw [] 0 ld 2 lj 2 lc
np 1153 83 m 1153 73 l 
st
0 0 0 col
1 lw [] 0 ld 2 lj 2 lc
np 1191 83 m 1191 73 l 
st
0 0 0 col
1 lw [] 0 ld 2 lj 2 lc
np 1228 83 m 1228 73 l 
st
0 0 0 col
1 lw [] 0 ld 2 lj 2 lc
np 1303 83 m 1303 73 l 
st
0 0 0 col
1 lw [] 0 ld 2 lj 2 lc
np 1341 83 m 1341 73 l 
st
0 0 0 col
1 lw [] 0 ld 2 lj 2 lc
np 1378 83 m 1378 73 l 
st
0 0 0 col
1 lw [] 0 ld 2 lj 2 lc
np 1416 83 m 1416 73 l 
st
0 0 0 col
1 lw [] 0 ld 2 lj 2 lc
np 142 83 m 142 65 l 
st
0 0 0 col
1 lw [] 0 ld 2 lj 2 lc
np 329 83 m 329 65 l 
st
0 0 0 col
1 lw [] 0 ld 2 lj 2 lc
np 517 83 m 517 65 l 
st
0 0 0 col
1 lw [] 0 ld 2 lj 2 lc
np 704 83 m 704 65 l 
st
0 0 0 col
1 lw [] 0 ld 2 lj 2 lc
np 891 83 m 891 65 l 
st
0 0 0 col
1 lw [] 0 ld 2 lj 2 lc
np 1078 83 m 1078 65 l 
st
0 0 0 col
1 lw [] 0 ld 2 lj 2 lc
np 1266 83 m 1266 65 l 
st
0 0 0 col
1 lw [] 0 ld 2 lj 2 lc
np 1453 83 m 1453 65 l 
st
0 0 0 col
1 lw [] 0 ld 2 lj 2 lc
np 142 83 m 1453 83 l 
st
0 0 0 col
1 lw [] 0 ld 0 lj 2 ml 2 lc
np 175 685 m 312 685 l 312 500 l 175 500 l 175 685 l 
st
0 0 0 col
1 lw [] 0 ld 0 lj 2 ml 0 lc
np 186 665 m 218 665 l 
st
0 0 0 col
228 656.156 m (AccX) s
1 0 0 col
1 lw [] 0 ld 0 lj 2 ml 0 lc
np 186 636 m 218 636 l 
st
0 0 0 col
228 627.156 m (AccY) s
0 1 0 col
1 lw [] 0 ld 0 lj 2 ml 0 lc
np 186 607 m 218 607 l 
st
0 0 0 col
228 598.156 m (AccZ) s
0 0 1 col
1 lw [] 0 ld 0 lj 2 ml 0 lc
np 186 578 m 218 578 l 
st
0 0 0 col
228 569.156 m (OrienX) s
0 1 1 col
1 lw [] 0 ld 0 lj 2 ml 0 lc
np 186 549 m 218 549 l 
st
0 0 0 col
228 540.156 m (OrienY) s
1 0 1 col
1 lw [] 0 ld 0 lj 2 ml 0 lc
np 186 520 m 218 520 l 
st
0 0 0 col
228 511.156 m (OrienZ) s
%%EOF