%!PS-Adobe-3.0 EPSF-3.0
%%BoundingBox: 0 0 1563 760
%%Pages: 0
%%Creator: QtiPlot
%%CreationDate: 2016-11-07
%%Title: /Users/vincentcuccu/fopra2016-17/NeglectDetect/Documents/Testdaten/data_04.11.2016/data_04.11.2016 014343.eps
%%BeginProlog
/bd {bind def} bind def
/c {curveto} bd
/f {findfont} bd
/l {lineto} bd
/m {moveto} bd
/r {rotate} bd
/s {show} bd
/cp {clip} bd
/fl {fill} bd
/rf {rectfill} bd
/np {newpath} bd
/lw {setlinewidth} bd
/lc {setlinecap} bd
/lj {setlinejoin} bd
/ml {setmiterlimit} bd
/ld {setdash} bd
/gl {glyphshow} bd
/gs {gsave} bd
/gr {grestore} bd
/st {stroke} bd
/sf {scalefont setfont} bd
/tr {translate} bd
/sw {stringwidth pop neg 0 rmoveto} bind def
/col {setrgbcolor} bd
%%EndProlog
gs
np 136 706 m 1452 706 l 1452 83 l 136 83 l 136 706 l 
cp
0.627451 0.627451 0.643137 col
1 lw [4 2] 0 ld 2 lj 2 lc
np 174 706 m 174 83 l 
st
gr
gs
np 136 706 m 1452 706 l 1452 83 l 136 83 l 136 706 l 
cp
0.627451 0.627451 0.643137 col
1 lw [4 2] 0 ld 2 lj 2 lc
np 211 706 m 211 83 l 
st
gr
gs
np 136 706 m 1452 706 l 1452 83 l 136 83 l 136 706 l 
cp
0.627451 0.627451 0.643137 col
1 lw [4 2] 0 ld 2 lj 2 lc
np 249 706 m 249 83 l 
st
gr
gs
np 136 706 m 1452 706 l 1452 83 l 136 83 l 136 706 l 
cp
0.627451 0.627451 0.643137 col
1 lw [4 2] 0 ld 2 lj 2 lc
np 286 706 m 286 83 l 
st
gr
gs
np 136 706 m 1452 706 l 1452 83 l 136 83 l 136 706 l 
cp
0.627451 0.627451 0.643137 col
1 lw [4 2] 0 ld 2 lj 2 lc
np 362 706 m 362 83 l 
st
gr
gs
np 136 706 m 1452 706 l 1452 83 l 136 83 l 136 706 l 
cp
0.627451 0.627451 0.643137 col
1 lw [4 2] 0 ld 2 lj 2 lc
np 399 706 m 399 83 l 
st
gr
gs
np 136 706 m 1452 706 l 1452 83 l 136 83 l 136 706 l 
cp
0.627451 0.627451 0.643137 col
1 lw [4 2] 0 ld 2 lj 2 lc
np 437 706 m 437 83 l 
st
gr
gs
np 136 706 m 1452 706 l 1452 83 l 136 83 l 136 706 l 
cp
0.627451 0.627451 0.643137 col
1 lw [4 2] 0 ld 2 lj 2 lc
np 474 706 m 474 83 l 
st
gr
gs
np 136 706 m 1452 706 l 1452 83 l 136 83 l 136 706 l 
cp
0.627451 0.627451 0.643137 col
1 lw [4 2] 0 ld 2 lj 2 lc
np 550 706 m 550 83 l 
st
gr
gs
np 136 706 m 1452 706 l 1452 83 l 136 83 l 136 706 l 
cp
0.627451 0.627451 0.643137 col
1 lw [4 2] 0 ld 2 lj 2 lc
np 587 706 m 587 83 l 
st
gr
gs
np 136 706 m 1452 706 l 1452 83 l 136 83 l 136 706 l 
cp
0.627451 0.627451 0.643137 col
1 lw [4 2] 0 ld 2 lj 2 lc
np 625 706 m 625 83 l 
st
gr
gs
np 136 706 m 1452 706 l 1452 83 l 136 83 l 136 706 l 
cp
0.627451 0.627451 0.643137 col
1 lw [4 2] 0 ld 2 lj 2 lc
np 662 706 m 662 83 l 
st
gr
gs
np 136 706 m 1452 706 l 1452 83 l 136 83 l 136 706 l 
cp
0.627451 0.627451 0.643137 col
1 lw [4 2] 0 ld 2 lj 2 lc
np 738 706 m 738 83 l 
st
gr
gs
np 136 706 m 1452 706 l 1452 83 l 136 83 l 136 706 l 
cp
0.627451 0.627451 0.643137 col
1 lw [4 2] 0 ld 2 lj 2 lc
np 775 706 m 775 83 l 
st
gr
gs
np 136 706 m 1452 706 l 1452 83 l 136 83 l 136 706 l 
cp
0.627451 0.627451 0.643137 col
1 lw [4 2] 0 ld 2 lj 2 lc
np 813 706 m 813 83 l 
st
gr
gs
np 136 706 m 1452 706 l 1452 83 l 136 83 l 136 706 l 
cp
0.627451 0.627451 0.643137 col
1 lw [4 2] 0 ld 2 lj 2 lc
np 850 706 m 850 83 l 
st
gr
gs
np 136 706 m 1452 706 l 1452 83 l 136 83 l 136 706 l 
cp
0.627451 0.627451 0.643137 col
1 lw [4 2] 0 ld 2 lj 2 lc
np 926 706 m 926 83 l 
st
gr
gs
np 136 706 m 1452 706 l 1452 83 l 136 83 l 136 706 l 
cp
0.627451 0.627451 0.643137 col
1 lw [4 2] 0 ld 2 lj 2 lc
np 963 706 m 963 83 l 
st
gr
gs
np 136 706 m 1452 706 l 1452 83 l 136 83 l 136 706 l 
cp
0.627451 0.627451 0.643137 col
1 lw [4 2] 0 ld 2 lj 2 lc
np 1001 706 m 1001 83 l 
st
gr
gs
np 136 706 m 1452 706 l 1452 83 l 136 83 l 136 706 l 
cp
0.627451 0.627451 0.643137 col
1 lw [4 2] 0 ld 2 lj 2 lc
np 1038 706 m 1038 83 l 
st
gr
gs
np 136 706 m 1452 706 l 1452 83 l 136 83 l 136 706 l 
cp
0.627451 0.627451 0.643137 col
1 lw [4 2] 0 ld 2 lj 2 lc
np 1114 706 m 1114 83 l 
st
gr
gs
np 136 706 m 1452 706 l 1452 83 l 136 83 l 136 706 l 
cp
0.627451 0.627451 0.643137 col
1 lw [4 2] 0 ld 2 lj 2 lc
np 1151 706 m 1151 83 l 
st
gr
gs
np 136 706 m 1452 706 l 1452 83 l 136 83 l 136 706 l 
cp
0.627451 0.627451 0.643137 col
1 lw [4 2] 0 ld 2 lj 2 lc
np 1189 706 m 1189 83 l 
st
gr
gs
np 136 706 m 1452 706 l 1452 83 l 136 83 l 136 706 l 
cp
0.627451 0.627451 0.643137 col
1 lw [4 2] 0 ld 2 lj 2 lc
np 1226 706 m 1226 83 l 
st
gr
gs
np 136 706 m 1452 706 l 1452 83 l 136 83 l 136 706 l 
cp
0.627451 0.627451 0.643137 col
1 lw [4 2] 0 ld 2 lj 2 lc
np 1302 706 m 1302 83 l 
st
gr
gs
np 136 706 m 1452 706 l 1452 83 l 136 83 l 136 706 l 
cp
0.627451 0.627451 0.643137 col
1 lw [4 2] 0 ld 2 lj 2 lc
np 1339 706 m 1339 83 l 
st
gr
gs
np 136 706 m 1452 706 l 1452 83 l 136 83 l 136 706 l 
cp
0.627451 0.627451 0.643137 col
1 lw [4 2] 0 ld 2 lj 2 lc
np 1377 706 m 1377 83 l 
st
gr
gs
np 136 706 m 1452 706 l 1452 83 l 136 83 l 136 706 l 
cp
0.627451 0.627451 0.643137 col
1 lw [4 2] 0 ld 2 lj 2 lc
np 1414 706 m 1414 83 l 
st
gr
gs
np 136 706 m 1452 706 l 1452 83 l 136 83 l 136 706 l 
cp
0.627451 0.627451 0.643137 col
1 lw [4 2] 0 ld 2 lj 2 lc
np 136 99 m 1452 99 l 
st
gr
gs
np 136 706 m 1452 706 l 1452 83 l 136 83 l 136 706 l 
cp
0.627451 0.627451 0.643137 col
1 lw [4 2] 0 ld 2 lj 2 lc
np 136 114 m 1452 114 l 
st
gr
gs
np 136 706 m 1452 706 l 1452 83 l 136 83 l 136 706 l 
cp
0.627451 0.627451 0.643137 col
1 lw [4 2] 0 ld 2 lj 2 lc
np 136 130 m 1452 130 l 
st
gr
gs
np 136 706 m 1452 706 l 1452 83 l 136 83 l 136 706 l 
cp
0.627451 0.627451 0.643137 col
1 lw [4 2] 0 ld 2 lj 2 lc
np 136 145 m 1452 145 l 
st
gr
gs
np 136 706 m 1452 706 l 1452 83 l 136 83 l 136 706 l 
cp
0.627451 0.627451 0.643137 col
1 lw [4 2] 0 ld 2 lj 2 lc
np 136 176 m 1452 176 l 
st
gr
gs
np 136 706 m 1452 706 l 1452 83 l 136 83 l 136 706 l 
cp
0.627451 0.627451 0.643137 col
1 lw [4 2] 0 ld 2 lj 2 lc
np 136 192 m 1452 192 l 
st
gr
gs
np 136 706 m 1452 706 l 1452 83 l 136 83 l 136 706 l 
cp
0.627451 0.627451 0.643137 col
1 lw [4 2] 0 ld 2 lj 2 lc
np 136 208 m 1452 208 l 
st
gr
gs
np 136 706 m 1452 706 l 1452 83 l 136 83 l 136 706 l 
cp
0.627451 0.627451 0.643137 col
1 lw [4 2] 0 ld 2 lj 2 lc
np 136 223 m 1452 223 l 
st
gr
gs
np 136 706 m 1452 706 l 1452 83 l 136 83 l 136 706 l 
cp
0.627451 0.627451 0.643137 col
1 lw [4 2] 0 ld 2 lj 2 lc
np 136 254 m 1452 254 l 
st
gr
gs
np 136 706 m 1452 706 l 1452 83 l 136 83 l 136 706 l 
cp
0.627451 0.627451 0.643137 col
1 lw [4 2] 0 ld 2 lj 2 lc
np 136 270 m 1452 270 l 
st
gr
gs
np 136 706 m 1452 706 l 1452 83 l 136 83 l 136 706 l 
cp
0.627451 0.627451 0.643137 col
1 lw [4 2] 0 ld 2 lj 2 lc
np 136 285 m 1452 285 l 
st
gr
gs
np 136 706 m 1452 706 l 1452 83 l 136 83 l 136 706 l 
cp
0.627451 0.627451 0.643137 col
1 lw [4 2] 0 ld 2 lj 2 lc
np 136 301 m 1452 301 l 
st
gr
gs
np 136 706 m 1452 706 l 1452 83 l 136 83 l 136 706 l 
cp
0.627451 0.627451 0.643137 col
1 lw [4 2] 0 ld 2 lj 2 lc
np 136 332 m 1452 332 l 
st
gr
gs
np 136 706 m 1452 706 l 1452 83 l 136 83 l 136 706 l 
cp
0.627451 0.627451 0.643137 col
1 lw [4 2] 0 ld 2 lj 2 lc
np 136 348 m 1452 348 l 
st
gr
gs
np 136 706 m 1452 706 l 1452 83 l 136 83 l 136 706 l 
cp
0.627451 0.627451 0.643137 col
1 lw [4 2] 0 ld 2 lj 2 lc
np 136 363 m 1452 363 l 
st
gr
gs
np 136 706 m 1452 706 l 1452 83 l 136 83 l 136 706 l 
cp
0.627451 0.627451 0.643137 col
1 lw [4 2] 0 ld 2 lj 2 lc
np 136 379 m 1452 379 l 
st
gr
gs
np 136 706 m 1452 706 l 1452 83 l 136 83 l 136 706 l 
cp
0.627451 0.627451 0.643137 col
1 lw [4 2] 0 ld 2 lj 2 lc
np 136 410 m 1452 410 l 
st
gr
gs
np 136 706 m 1452 706 l 1452 83 l 136 83 l 136 706 l 
cp
0.627451 0.627451 0.643137 col
1 lw [4 2] 0 ld 2 lj 2 lc
np 136 426 m 1452 426 l 
st
gr
gs
np 136 706 m 1452 706 l 1452 83 l 136 83 l 136 706 l 
cp
0.627451 0.627451 0.643137 col
1 lw [4 2] 0 ld 2 lj 2 lc
np 136 441 m 1452 441 l 
st
gr
gs
np 136 706 m 1452 706 l 1452 83 l 136 83 l 136 706 l 
cp
0.627451 0.627451 0.643137 col
1 lw [4 2] 0 ld 2 lj 2 lc
np 136 457 m 1452 457 l 
st
gr
gs
np 136 706 m 1452 706 l 1452 83 l 136 83 l 136 706 l 
cp
0.627451 0.627451 0.643137 col
1 lw [4 2] 0 ld 2 lj 2 lc
np 136 488 m 1452 488 l 
st
gr
gs
np 136 706 m 1452 706 l 1452 83 l 136 83 l 136 706 l 
cp
0.627451 0.627451 0.643137 col
1 lw [4 2] 0 ld 2 lj 2 lc
np 136 504 m 1452 504 l 
st
gr
gs
np 136 706 m 1452 706 l 1452 83 l 136 83 l 136 706 l 
cp
0.627451 0.627451 0.643137 col
1 lw [4 2] 0 ld 2 lj 2 lc
np 136 519 m 1452 519 l 
st
gr
gs
np 136 706 m 1452 706 l 1452 83 l 136 83 l 136 706 l 
cp
0.627451 0.627451 0.643137 col
1 lw [4 2] 0 ld 2 lj 2 lc
np 136 535 m 1452 535 l 
st
gr
gs
np 136 706 m 1452 706 l 1452 83 l 136 83 l 136 706 l 
cp
0.627451 0.627451 0.643137 col
1 lw [4 2] 0 ld 2 lj 2 lc
np 136 566 m 1452 566 l 
st
gr
gs
np 136 706 m 1452 706 l 1452 83 l 136 83 l 136 706 l 
cp
0.627451 0.627451 0.643137 col
1 lw [4 2] 0 ld 2 lj 2 lc
np 136 581 m 1452 581 l 
st
gr
gs
np 136 706 m 1452 706 l 1452 83 l 136 83 l 136 706 l 
cp
0.627451 0.627451 0.643137 col
1 lw [4 2] 0 ld 2 lj 2 lc
np 136 597 m 1452 597 l 
st
gr
gs
np 136 706 m 1452 706 l 1452 83 l 136 83 l 136 706 l 
cp
0.627451 0.627451 0.643137 col
1 lw [4 2] 0 ld 2 lj 2 lc
np 136 613 m 1452 613 l 
st
gr
gs
np 136 706 m 1452 706 l 1452 83 l 136 83 l 136 706 l 
cp
0.627451 0.627451 0.643137 col
1 lw [4 2] 0 ld 2 lj 2 lc
np 136 644 m 1452 644 l 
st
gr
gs
np 136 706 m 1452 706 l 1452 83 l 136 83 l 136 706 l 
cp
0.627451 0.627451 0.643137 col
1 lw [4 2] 0 ld 2 lj 2 lc
np 136 659 m 1452 659 l 
st
gr
gs
np 136 706 m 1452 706 l 1452 83 l 136 83 l 136 706 l 
cp
0.627451 0.627451 0.643137 col
1 lw [4 2] 0 ld 2 lj 2 lc
np 136 675 m 1452 675 l 
st
gr
gs
np 136 706 m 1452 706 l 1452 83 l 136 83 l 136 706 l 
cp
0.627451 0.627451 0.643137 col
1 lw [4 2] 0 ld 2 lj 2 lc
np 136 690 m 1452 690 l 
st
gr
gs
np 136 706 m 1452 706 l 1452 83 l 136 83 l 136 706 l 
cp
0.627451 0.627451 0.643137 col
1 lw [] 0 ld 2 lj 2 lc
np 324 706 m 324 83 l 
st
gr
gs
np 136 706 m 1452 706 l 1452 83 l 136 83 l 136 706 l 
cp
0.627451 0.627451 0.643137 col
1 lw [] 0 ld 2 lj 2 lc
np 512 706 m 512 83 l 
st
gr
gs
np 136 706 m 1452 706 l 1452 83 l 136 83 l 136 706 l 
cp
0.627451 0.627451 0.643137 col
1 lw [] 0 ld 2 lj 2 lc
np 700 706 m 700 83 l 
st
gr
gs
np 136 706 m 1452 706 l 1452 83 l 136 83 l 136 706 l 
cp
0.627451 0.627451 0.643137 col
1 lw [] 0 ld 2 lj 2 lc
np 888 706 m 888 83 l 
st
gr
gs
np 136 706 m 1452 706 l 1452 83 l 136 83 l 136 706 l 
cp
0.627451 0.627451 0.643137 col
1 lw [] 0 ld 2 lj 2 lc
np 1076 706 m 1076 83 l 
st
gr
gs
np 136 706 m 1452 706 l 1452 83 l 136 83 l 136 706 l 
cp
0.627451 0.627451 0.643137 col
1 lw [] 0 ld 2 lj 2 lc
np 1264 706 m 1264 83 l 
st
gr
gs
np 136 706 m 1452 706 l 1452 83 l 136 83 l 136 706 l 
cp
0.627451 0.627451 0.643137 col
1 lw [] 0 ld 2 lj 2 lc
np 136 161 m 1452 161 l 
st
gr
gs
np 136 706 m 1452 706 l 1452 83 l 136 83 l 136 706 l 
cp
0.627451 0.627451 0.643137 col
1 lw [] 0 ld 2 lj 2 lc
np 136 239 m 1452 239 l 
st
gr
gs
np 136 706 m 1452 706 l 1452 83 l 136 83 l 136 706 l 
cp
0.627451 0.627451 0.643137 col
1 lw [] 0 ld 2 lj 2 lc
np 136 317 m 1452 317 l 
st
gr
gs
np 136 706 m 1452 706 l 1452 83 l 136 83 l 136 706 l 
cp
0.627451 0.627451 0.643137 col
1 lw [] 0 ld 2 lj 2 lc
np 136 394 m 1452 394 l 
st
gr
gs
np 136 706 m 1452 706 l 1452 83 l 136 83 l 136 706 l 
cp
0.627451 0.627451 0.643137 col
1 lw [] 0 ld 2 lj 2 lc
np 136 472 m 1452 472 l 
st
gr
gs
np 136 706 m 1452 706 l 1452 83 l 136 83 l 136 706 l 
cp
0.627451 0.627451 0.643137 col
1 lw [] 0 ld 2 lj 2 lc
np 136 550 m 1452 550 l 
st
gr
gs
np 136 706 m 1452 706 l 1452 83 l 136 83 l 136 706 l 
cp
0.627451 0.627451 0.643137 col
1 lw [] 0 ld 2 lj 2 lc
np 136 628 m 1452 628 l 
st
gr
gs
np 136 706 m 1452 706 l 1452 83 l 136 83 l 136 706 l 
cp
0 0 0 col
1 lw [] 0 ld 0 lj 2 ml 0 lc
np 333.4 160.875 m 342.8 160.875 l 352.2 160.875 l 361.6 160.875 l 371 160.875 l 380.4 160.875 l 389.8 160.875 l 399.2 160.875 l 408.6 160.875 l 418 160.875 l 427.4 160.875 l 436.8 160.875 l 446.2 160.875 l 455.6 160.875 l 465 160.875 l 474.4 160.875 l 
483.8 160.875 l 493.2 197.416 l 502.6 160.875 l 512 160.875 l 521.4 160.875 l 530.8 160.875 l 540.2 160.875 l 549.6 175.142 l 559 160.875 l 568.4 160.875 l 577.8 160.875 l 587.2 169.032 l 596.6 160.875 l 606 160.875 l 615.4 669.31 l 624.8 160.875 l 
634.2 160.875 l 643.6 160.875 l 653 160.875 l 662.4 165.738 l 671.8 160.875 l 681.2 160.875 l 690.6 160.875 l 700 160.875 l 709.4 123.669 l 718.8 160.875 l 728.2 185.9 l 737.6 160.875 l 747 160.875 l 756.4 190.565 l 765.8 149.534 l 775.2 160.875 l 
784.6 160.875 l 794 156.304 l 803.4 179.845 l 812.8 160.875 l 822.2 177.833 l 831.6 160.875 l 841 172.182 l 850.4 160.875 l 859.8 173.409 l 869.2 160.875 l 878.6 160.875 l 888 160.875 l 897.4 160.875 l 906.8 160.875 l 916.2 160.875 l 925.6 160.875 l 
935 160.875 l 944.4 160.875 l 953.8 160.875 l 963.2 160.875 l 972.6 160.875 l 982 126.036 l 991.4 151.806 l 1000.8 160.875 l 1010.2 160.875 l 1019.6 160.875 l 1029 160.875 l 1038.4 160.875 l 1047.8 160.875 l 1057.2 160.875 l 1066.6 160.875 l 
1076 160.875 l 1085.4 129.228 l 1094.8 160.875 l 1104.2 160.875 l 1113.6 160.875 l 1123 160.875 l 1132.4 160.875 l 1141.8 125.567 l 1151.2 160.875 l 1160.6 160.875 l 1170 160.875 l 1179.4 160.875 l 1188.8 160.875 l 1198.2 160.875 l 1207.6 160.875 l 
1217 160.875 l 1226.4 160.875 l 1235.8 160.875 l 1245.2 160.875 l 1254.6 160.875 l 1264 160.875 l 1273.4 160.875 l 1282.8 160.875 l 1292.2 160.875 l 1301.6 160.875 l 1311 160.875 l 1320.4 160.875 l 1329.8 160.875 l 1339.2 160.875 l 1348.6 160.875 l 
1358 160.875 l 1367.4 160.875 l 1376.8 160.875 l 
st
gr
gs
np 136 706 m 1452 706 l 1452 83 l 136 83 l 136 706 l 
cp
1 0 0 col
1 lw [] 0 ld 0 lj 2 ml 0 lc
np 333.4 160.875 m 342.8 160.875 l 352.2 160.875 l 361.6 160.875 l 371 160.875 l 380.4 160.875 l 389.8 160.875 l 399.2 160.875 l 408.6 160.875 l 418 160.875 l 427.4 160.875 l 436.8 160.875 l 446.2 160.875 l 455.6 160.875 l 465 160.875 l 474.4 160.875 l 
483.8 160.875 l 493.2 160.875 l 502.6 160.875 l 512 160.875 l 521.4 143.867 l 530.8 236.241 l 540.2 153.346 l 549.6 160.875 l 559 160.875 l 568.4 160.875 l 577.8 160.875 l 587.2 160.875 l 596.6 160.875 l 606 160.875 l 615.4 160.875 l 624.8 160.875 l 
634.2 160.875 l 643.6 179.466 l 653 160.875 l 662.4 160.875 l 671.8 160.875 l 681.2 160.875 l 690.6 160.875 l 700 160.875 l 709.4 160.875 l 718.8 152.118 l 728.2 204.886 l 737.6 160.875 l 747 150.068 l 756.4 210.237 l 765.8 160.875 l 775.2 160.875 l 
784.6 160.875 l 794 160.875 l 803.4 160.875 l 812.8 183.517 l 822.2 150.643 l 831.6 160.875 l 841 160.875 l 850.4 160.875 l 859.8 160.875 l 869.2 160.875 l 878.6 160.875 l 888 160.875 l 897.4 160.875 l 906.8 160.875 l 916.2 160.875 l 925.6 160.875 l 
935 160.875 l 944.4 175.694 l 953.8 142.891 l 963.2 147.126 l 972.6 160.875 l 982 160.875 l 991.4 160.875 l 1000.8 160.875 l 1010.2 160.875 l 1019.6 147.155 l 1029 180.097 l 1038.4 160.875 l 1047.8 160.875 l 1057.2 160.875 l 1066.6 136.187 l 
1076 160.875 l 1085.4 160.875 l 1094.8 160.875 l 1104.2 179.233 l 1113.6 160.875 l 1123 160.875 l 1132.4 160.875 l 1141.8 160.875 l 1151.2 160.875 l 1160.6 189.495 l 1170 150.437 l 1179.4 160.875 l 1188.8 160.875 l 1198.2 174.339 l 1207.6 145.132 l 
1217 160.875 l 1226.4 185.035 l 1235.8 160.875 l 1245.2 160.875 l 1254.6 160.875 l 1264 160.875 l 1273.4 148.146 l 1282.8 160.875 l 1292.2 160.875 l 1301.6 160.875 l 1311 160.875 l 1320.4 160.875 l 1329.8 160.875 l 1339.2 160.875 l 1348.6 160.875 l 
1358 160.875 l 1367.4 160.875 l 1376.8 160.875 l 
st
gr
gs
np 136 706 m 1452 706 l 1452 83 l 136 83 l 136 706 l 
cp
0 1 0 col
1 lw [] 0 ld 0 lj 2 ml 0 lc
np 333.4 160.875 m 342.8 169.23 l 352.2 160.875 l 361.6 160.875 l 371 160.875 l 380.4 160.875 l 389.8 160.875 l 399.2 160.875 l 408.6 160.875 l 418 160.875 l 427.4 160.875 l 436.8 160.875 l 446.2 160.875 l 455.6 160.875 l 465 225.087 l 474.4 177.209 l 
483.8 160.875 l 493.2 160.875 l 502.6 160.875 l 512 160.875 l 521.4 160.875 l 530.8 209.694 l 540.2 160.875 l 549.6 120.151 l 559 128.978 l 568.4 134.385 l 577.8 160.875 l 587.2 135.726 l 596.6 141.213 l 606 137.85 l 615.4 160.875 l 624.8 160.875 l 
634.2 160.875 l 643.6 160.875 l 653 160.875 l 662.4 160.875 l 671.8 140.212 l 681.2 160.875 l 690.6 160.875 l 700 160.875 l 709.4 160.875 l 718.8 160.875 l 728.2 160.875 l 737.6 160.875 l 747 160.875 l 756.4 140.661 l 765.8 172.595 l 775.2 160.875 l 
784.6 160.875 l 794 160.875 l 803.4 160.875 l 812.8 160.875 l 822.2 160.875 l 831.6 160.875 l 841 160.875 l 850.4 160.875 l 859.8 160.875 l 869.2 160.875 l 878.6 160.875 l 888 160.875 l 897.4 188.71 l 906.8 174.387 l 916.2 160.875 l 925.6 182.785 l 
935 160.875 l 944.4 160.875 l 953.8 160.875 l 963.2 160.875 l 972.6 160.875 l 982 181.914 l 991.4 160.875 l 1000.8 160.875 l 1010.2 160.875 l 1019.6 160.875 l 1029 160.875 l 1038.4 160.875 l 1047.8 676.569 l 1057.2 180.778 l 1066.6 160.875 l 
1076 160.875 l 1085.4 172.763 l 1094.8 160.875 l 1104.2 160.875 l 1113.6 160.875 l 1123 160.875 l 1132.4 152.552 l 1141.8 160.875 l 1151.2 154.146 l 1160.6 160.875 l 1170 160.875 l 1179.4 160.875 l 1188.8 160.875 l 1198.2 193.74 l 1207.6 160.875 l 
1217 160.875 l 1226.4 160.875 l 1235.8 160.875 l 1245.2 160.875 l 1254.6 160.875 l 1264 160.875 l 1273.4 160.875 l 1282.8 160.875 l 1292.2 160.875 l 1301.6 160.875 l 1311 160.875 l 1320.4 160.875 l 1329.8 160.875 l 1339.2 160.875 l 1348.6 160.875 l 
1358 160.875 l 1367.4 160.875 l 1376.8 160.875 l 
st
gr
gs
np 136 706 m 1452 706 l 1452 83 l 136 83 l 136 706 l 
cp
0 0 1 col
1 lw [] 0 ld 0 lj 2 ml 0 lc
np 333.4 160.875 m 342.8 160.875 l 352.2 160.875 l 361.6 160.875 l 371 160.875 l 380.4 160.878 l 389.8 160.875 l 399.2 160.875 l 408.6 160.875 l 418 160.875 l 427.4 160.875 l 436.8 160.875 l 446.2 160.875 l 455.6 160.875 l 465 160.875 l 474.4 160.875 l 
483.8 160.875 l 493.2 139.742 l 502.6 160.875 l 512 160.875 l 521.4 160.875 l 530.8 160.875 l 540.2 160.875 l 549.6 136.626 l 559 160.875 l 568.4 160.875 l 577.8 160.875 l 587.2 137.733 l 596.6 160.875 l 606 160.875 l 615.4 160.875 l 624.8 160.875 l 
634.2 138.229 l 643.6 137.88 l 653 179.995 l 662.4 138.247 l 671.8 137.166 l 681.2 160.875 l 690.6 160.875 l 700 160.875 l 709.4 181.604 l 718.8 160.875 l 728.2 139.382 l 737.6 140.954 l 747 160.875 l 756.4 160.875 l 765.8 138.248 l 775.2 160.875 l 
784.6 138.967 l 794 160.875 l 803.4 160.875 l 812.8 138.167 l 822.2 138.577 l 831.6 138.422 l 841 160.875 l 850.4 160.875 l 859.8 160.875 l 869.2 160.875 l 878.6 160.875 l 888 139.279 l 897.4 160.875 l 906.8 160.875 l 916.2 160.875 l 925.6 160.875 l 
935 137.616 l 944.4 137.703 l 953.8 139.266 l 963.2 160.875 l 972.6 160.875 l 982 179.6 l 991.4 160.875 l 1000.8 141.054 l 1010.2 160.875 l 1019.6 160.875 l 1029 160.875 l 1038.4 138.467 l 1047.8 160.875 l 1057.2 143.28 l 1066.6 160.875 l 1076 160.875 l 
1085.4 160.875 l 1094.8 138.043 l 1104.2 160.875 l 1113.6 160.875 l 1123 160.875 l 1132.4 139.875 l 1141.8 160.875 l 1151.2 138.228 l 1160.6 160.875 l 1170 160.875 l 1179.4 160.875 l 1188.8 139.563 l 1198.2 160.875 l 1207.6 136.849 l 1217 160.875 l 
1226.4 160.875 l 1235.8 160.875 l 1245.2 140.045 l 1254.6 141.88 l 1264 160.875 l 1273.4 160.875 l 1282.8 160.875 l 1292.2 160.875 l 1301.6 160.875 l 1311 160.875 l 1320.4 154.425 l 1329.8 160.875 l 1339.2 160.875 l 1348.6 160.875 l 1358 160.875 l 
1367.4 160.875 l 1376.8 160.875 l 
st
gr
gs
np 136 706 m 1452 706 l 1452 83 l 136 83 l 136 706 l 
cp
0 1 1 col
1 lw [] 0 ld 0 lj 2 ml 0 lc
np 333.4 160.875 m 342.8 160.875 l 352.2 160.875 l 361.6 154.04 l 371 160.875 l 380.4 160.875 l 389.8 160.875 l 399.2 160.875 l 408.6 160.875 l 418 160.875 l 427.4 160.875 l 436.8 160.875 l 446.2 160.875 l 455.6 160.875 l 465 160.875 l 474.4 160.875 l 
483.8 160.875 l 493.2 160.875 l 502.6 160.875 l 512 160.875 l 521.4 160.875 l 530.8 160.875 l 540.2 160.875 l 549.6 160.875 l 559 160.875 l 568.4 151.245 l 577.8 152.19 l 587.2 160.875 l 596.6 160.875 l 606 160.875 l 615.4 160.875 l 624.8 160.875 l 
634.2 152.268 l 643.6 160.875 l 653 160.875 l 662.4 160.875 l 671.8 160.875 l 681.2 160.875 l 690.6 160.875 l 700 160.875 l 709.4 160.875 l 718.8 160.875 l 728.2 160.875 l 737.6 160.875 l 747 160.875 l 756.4 160.875 l 765.8 149.936 l 775.2 160.875 l 
784.6 160.875 l 794 160.875 l 803.4 160.875 l 812.8 160.875 l 822.2 153.085 l 831.6 160.875 l 841 151.366 l 850.4 160.875 l 859.8 160.875 l 869.2 160.875 l 878.6 160.875 l 888 151.17 l 897.4 160.875 l 906.8 160.875 l 916.2 151.186 l 925.6 148.948 l 
935 160.875 l 944.4 160.875 l 953.8 152.523 l 963.2 160.875 l 972.6 160.875 l 982 150.093 l 991.4 160.875 l 1000.8 160.875 l 1010.2 160.875 l 1019.6 160.875 l 1029 160.875 l 1038.4 152.955 l 1047.8 151.135 l 1057.2 160.875 l 1066.6 160.875 l 
1076 160.875 l 1085.4 160.875 l 1094.8 160.875 l 1104.2 160.875 l 1113.6 151.895 l 1123 151.481 l 1132.4 160.875 l 1141.8 150.797 l 1151.2 160.875 l 1160.6 160.875 l 1170 160.875 l 1179.4 160.875 l 1188.8 160.875 l 1198.2 160.875 l 1207.6 160.875 l 
1217 152.404 l 1226.4 160.875 l 1235.8 152.238 l 1245.2 160.875 l 1254.6 160.875 l 1264 160.875 l 1273.4 160.875 l 1282.8 160.875 l 1292.2 160.875 l 1301.6 160.875 l 1311 160.875 l 1320.4 160.875 l 1329.8 160.875 l 1339.2 160.875 l 1348.6 160.875 l 
1358 160.875 l 1367.4 160.875 l 1376.8 160.875 l 
st
gr
gs
np 136 706 m 1452 706 l 1452 83 l 136 83 l 136 706 l 
cp
1 0 1 col
1 lw [] 0 ld 0 lj 2 ml 0 lc
np 333.4 160.875 m 342.8 160.875 l 352.2 160.875 l 361.6 160.875 l 371 160.875 l 380.4 160.875 l 389.8 160.875 l 399.2 160.875 l 408.6 160.875 l 418 160.875 l 427.4 160.875 l 436.8 160.875 l 446.2 160.875 l 455.6 160.875 l 465 160.875 l 474.4 160.875 l 
483.8 160.875 l 493.2 142.689 l 502.6 160.875 l 512 160.875 l 521.4 160.875 l 530.8 160.875 l 540.2 136.658 l 549.6 160.875 l 559 139.894 l 568.4 138.535 l 577.8 140.904 l 587.2 139.947 l 596.6 140.898 l 606 160.875 l 615.4 160.875 l 624.8 160.875 l 
634.2 160.875 l 643.6 160.875 l 653 175.006 l 662.4 160.875 l 671.8 160.875 l 681.2 160.875 l 690.6 143.451 l 700 143.357 l 709.4 174.548 l 718.8 160.875 l 728.2 143.97 l 737.6 160.875 l 747 144.428 l 756.4 142.698 l 765.8 160.875 l 775.2 160.875 l 
784.6 160.875 l 794 160.875 l 803.4 160.875 l 812.8 140.377 l 822.2 144.501 l 831.6 141.733 l 841 144.845 l 850.4 140.752 l 859.8 160.875 l 869.2 142.324 l 878.6 160.875 l 888 142.947 l 897.4 160.875 l 906.8 160.875 l 916.2 142.318 l 925.6 160.875 l 
935 139.83 l 944.4 160.875 l 953.8 160.875 l 963.2 143.149 l 972.6 160.875 l 982 160.875 l 991.4 160.875 l 1000.8 160.875 l 1010.2 160.875 l 1019.6 160.875 l 1029 160.875 l 1038.4 160.875 l 1047.8 142.936 l 1057.2 160.875 l 1066.6 160.875 l 
1076 160.875 l 1085.4 160.875 l 1094.8 141.116 l 1104.2 160.875 l 1113.6 160.875 l 1123 143.856 l 1132.4 160.875 l 1141.8 160.875 l 1151.2 140.623 l 1160.6 139.611 l 1170 147.292 l 1179.4 160.875 l 1188.8 144.477 l 1198.2 160.875 l 1207.6 160.875 l 
1217 160.875 l 1226.4 149.626 l 1235.8 160.875 l 1245.2 144.994 l 1254.6 146.41 l 1264 160.875 l 1273.4 160.875 l 1282.8 160.875 l 1292.2 160.875 l 1301.6 160.875 l 1311 160.875 l 1320.4 160.875 l 1329.8 160.875 l 1339.2 160.875 l 1348.6 160.875 l 
1358 160.875 l 1367.4 160.875 l 1376.8 160.875 l 
st
gr
0 0 0 col
/Helvetica-Bold f 28.4492 sf
692.359 732.703 m (data_04.11.2016 014343) s
0 0 0 col
/Helvetica-Bold f 24.385 sf
23.3906 365.516 m
gs
90 r
(AccX) s
gr
0 0 0 col
/ReEncode { % inFont outFont encoding | -
 /MyEncoding exch def
 exch findfont
 dup length dict
 begin
	{def} forall
	/Encoding MyEncoding def
	currentdict
 end
 definefont
} def
/Helvetica /Helvetica-Latin1 ISOLatin1Encoding ReEncode
/Helvetica-Latin1 f 24.385 sf
113.688 74.1562 m (\0551e+16) dup sw s
0 0 0 col
100 152.156 m (0) s
0 0 0 col
46 230.156 m (1e+16) s
0 0 0 col
46 308.156 m (2e+16) s
0 0 0 col
46 385.156 m (3e+16) s
0 0 0 col
46 463.156 m (4e+16) s
0 0 0 col
46 541.156 m (5e+16) s
0 0 0 col
46 619.156 m (6e+16) s
0 0 0 col
46 697.156 m (7e+16) s
0 0 0 col
1 lw [] 0 ld 2 lj 2 lc
np 136 99 m 126 99 l 
st
0 0 0 col
1 lw [] 0 ld 2 lj 2 lc
np 136 114 m 126 114 l 
st
0 0 0 col
1 lw [] 0 ld 2 lj 2 lc
np 136 130 m 126 130 l 
st
0 0 0 col
1 lw [] 0 ld 2 lj 2 lc
np 136 145 m 126 145 l 
st
0 0 0 col
1 lw [] 0 ld 2 lj 2 lc
np 136 176 m 126 176 l 
st
0 0 0 col
1 lw [] 0 ld 2 lj 2 lc
np 136 192 m 126 192 l 
st
0 0 0 col
1 lw [] 0 ld 2 lj 2 lc
np 136 208 m 126 208 l 
st
0 0 0 col
1 lw [] 0 ld 2 lj 2 lc
np 136 223 m 126 223 l 
st
0 0 0 col
1 lw [] 0 ld 2 lj 2 lc
np 136 254 m 126 254 l 
st
0 0 0 col
1 lw [] 0 ld 2 lj 2 lc
np 136 270 m 126 270 l 
st
0 0 0 col
1 lw [] 0 ld 2 lj 2 lc
np 136 285 m 126 285 l 
st
0 0 0 col
1 lw [] 0 ld 2 lj 2 lc
np 136 301 m 126 301 l 
st
0 0 0 col
1 lw [] 0 ld 2 lj 2 lc
np 136 332 m 126 332 l 
st
0 0 0 col
1 lw [] 0 ld 2 lj 2 lc
np 136 348 m 126 348 l 
st
0 0 0 col
1 lw [] 0 ld 2 lj 2 lc
np 136 363 m 126 363 l 
st
0 0 0 col
1 lw [] 0 ld 2 lj 2 lc
np 136 379 m 126 379 l 
st
0 0 0 col
1 lw [] 0 ld 2 lj 2 lc
np 136 410 m 126 410 l 
st
0 0 0 col
1 lw [] 0 ld 2 lj 2 lc
np 136 426 m 126 426 l 
st
0 0 0 col
1 lw [] 0 ld 2 lj 2 lc
np 136 441 m 126 441 l 
st
0 0 0 col
1 lw [] 0 ld 2 lj 2 lc
np 136 457 m 126 457 l 
st
0 0 0 col
1 lw [] 0 ld 2 lj 2 lc
np 136 488 m 126 488 l 
st
0 0 0 col
1 lw [] 0 ld 2 lj 2 lc
np 136 504 m 126 504 l 
st
0 0 0 col
1 lw [] 0 ld 2 lj 2 lc
np 136 519 m 126 519 l 
st
0 0 0 col
1 lw [] 0 ld 2 lj 2 lc
np 136 535 m 126 535 l 
st
0 0 0 col
1 lw [] 0 ld 2 lj 2 lc
np 136 566 m 126 566 l 
st
0 0 0 col
1 lw [] 0 ld 2 lj 2 lc
np 136 581 m 126 581 l 
st
0 0 0 col
1 lw [] 0 ld 2 lj 2 lc
np 136 597 m 126 597 l 
st
0 0 0 col
1 lw [] 0 ld 2 lj 2 lc
np 136 613 m 126 613 l 
st
0 0 0 col
1 lw [] 0 ld 2 lj 2 lc
np 136 644 m 126 644 l 
st
0 0 0 col
1 lw [] 0 ld 2 lj 2 lc
np 136 659 m 126 659 l 
st
0 0 0 col
1 lw [] 0 ld 2 lj 2 lc
np 136 675 m 126 675 l 
st
0 0 0 col
1 lw [] 0 ld 2 lj 2 lc
np 136 690 m 126 690 l 
st
0 0 0 col
1 lw [] 0 ld 2 lj 2 lc
np 136 83 m 118 83 l 
st
0 0 0 col
1 lw [] 0 ld 2 lj 2 lc
np 136 161 m 118 161 l 
st
0 0 0 col
1 lw [] 0 ld 2 lj 2 lc
np 136 239 m 118 239 l 
st
0 0 0 col
1 lw [] 0 ld 2 lj 2 lc
np 136 317 m 118 317 l 
st
0 0 0 col
1 lw [] 0 ld 2 lj 2 lc
np 136 394 m 118 394 l 
st
0 0 0 col
1 lw [] 0 ld 2 lj 2 lc
np 136 472 m 118 472 l 
st
0 0 0 col
1 lw [] 0 ld 2 lj 2 lc
np 136 550 m 118 550 l 
st
0 0 0 col
1 lw [] 0 ld 2 lj 2 lc
np 136 628 m 118 628 l 
st
0 0 0 col
1 lw [] 0 ld 2 lj 2 lc
np 136 706 m 118 706 l 
st
0 0 0 col
1 lw [] 0 ld 2 lj 2 lc
np 136 706 m 136 83 l 
st
0 0 0 col
/Helvetica-Bold f 24.385 sf
785.594 5.60938 m (Timestamp) s
0 0 0 col
/Helvetica f 24.385 sf
402 37.1562 m (04.11.2016 01:43:47) s
0 0 0 col
590 37.1562 m (04.11.2016 01:43:51) s
0 0 0 col
778 37.1562 m (04.11.2016 01:43:55) s
0 0 0 col
966 37.1562 m (04.11.2016 01:43:59) s
0 0 0 col
1154 37.1562 m (04.11.2016 01:44:03) s
0 0 0 col
1 lw [] 0 ld 2 lj 2 lc
np 174 83 m 174 73 l 
st
0 0 0 col
1 lw [] 0 ld 2 lj 2 lc
np 211 83 m 211 73 l 
st
0 0 0 col
1 lw [] 0 ld 2 lj 2 lc
np 249 83 m 249 73 l 
st
0 0 0 col
1 lw [] 0 ld 2 lj 2 lc
np 286 83 m 286 73 l 
st
0 0 0 col
1 lw [] 0 ld 2 lj 2 lc
np 362 83 m 362 73 l 
st
0 0 0 col
1 lw [] 0 ld 2 lj 2 lc
np 399 83 m 399 73 l 
st
0 0 0 col
1 lw [] 0 ld 2 lj 2 lc
np 437 83 m 437 73 l 
st
0 0 0 col
1 lw [] 0 ld 2 lj 2 lc
np 474 83 m 474 73 l 
st
0 0 0 col
1 lw [] 0 ld 2 lj 2 lc
np 550 83 m 550 73 l 
st
0 0 0 col
1 lw [] 0 ld 2 lj 2 lc
np 587 83 m 587 73 l 
st
0 0 0 col
1 lw [] 0 ld 2 lj 2 lc
np 625 83 m 625 73 l 
st
0 0 0 col
1 lw [] 0 ld 2 lj 2 lc
np 662 83 m 662 73 l 
st
0 0 0 col
1 lw [] 0 ld 2 lj 2 lc
np 738 83 m 738 73 l 
st
0 0 0 col
1 lw [] 0 ld 2 lj 2 lc
np 775 83 m 775 73 l 
st
0 0 0 col
1 lw [] 0 ld 2 lj 2 lc
np 813 83 m 813 73 l 
st
0 0 0 col
1 lw [] 0 ld 2 lj 2 lc
np 850 83 m 850 73 l 
st
0 0 0 col
1 lw [] 0 ld 2 lj 2 lc
np 926 83 m 926 73 l 
st
0 0 0 col
1 lw [] 0 ld 2 lj 2 lc
np 963 83 m 963 73 l 
st
0 0 0 col
1 lw [] 0 ld 2 lj 2 lc
np 1001 83 m 1001 73 l 
st
0 0 0 col
1 lw [] 0 ld 2 lj 2 lc
np 1038 83 m 1038 73 l 
st
0 0 0 col
1 lw [] 0 ld 2 lj 2 lc
np 1114 83 m 1114 73 l 
st
0 0 0 col
1 lw [] 0 ld 2 lj 2 lc
np 1151 83 m 1151 73 l 
st
0 0 0 col
1 lw [] 0 ld 2 lj 2 lc
np 1189 83 m 1189 73 l 
st
0 0 0 col
1 lw [] 0 ld 2 lj 2 lc
np 1226 83 m 1226 73 l 
st
0 0 0 col
1 lw [] 0 ld 2 lj 2 lc
np 1302 83 m 1302 73 l 
st
0 0 0 col
1 lw [] 0 ld 2 lj 2 lc
np 1339 83 m 1339 73 l 
st
0 0 0 col
1 lw [] 0 ld 2 lj 2 lc
np 1377 83 m 1377 73 l 
st
0 0 0 col
1 lw [] 0 ld 2 lj 2 lc
np 1414 83 m 1414 73 l 
st
0 0 0 col
1 lw [] 0 ld 2 lj 2 lc
np 136 83 m 136 65 l 
st
0 0 0 col
1 lw [] 0 ld 2 lj 2 lc
np 324 83 m 324 65 l 
st
0 0 0 col
1 lw [] 0 ld 2 lj 2 lc
np 512 83 m 512 65 l 
st
0 0 0 col
1 lw [] 0 ld 2 lj 2 lc
np 700 83 m 700 65 l 
st
0 0 0 col
1 lw [] 0 ld 2 lj 2 lc
np 888 83 m 888 65 l 
st
0 0 0 col
1 lw [] 0 ld 2 lj 2 lc
np 1076 83 m 1076 65 l 
st
0 0 0 col
1 lw [] 0 ld 2 lj 2 lc
np 1264 83 m 1264 65 l 
st
0 0 0 col
1 lw [] 0 ld 2 lj 2 lc
np 1452 83 m 1452 65 l 
st
0 0 0 col
1 lw [] 0 ld 2 lj 2 lc
np 136 83 m 1452 83 l 
st
0 0 0 col
1 lw [] 0 ld 0 lj 2 ml 2 lc
np 169 685 m 306 685 l 306 500 l 169 500 l 169 685 l 
st
0 0 0 col
1 lw [] 0 ld 0 lj 2 ml 0 lc
np 180 665 m 212 665 l 
st
0 0 0 col
222 656.156 m (AccX) s
1 0 0 col
1 lw [] 0 ld 0 lj 2 ml 0 lc
np 180 636 m 212 636 l 
st
0 0 0 col
222 627.156 m (AccY) s
0 1 0 col
1 lw [] 0 ld 0 lj 2 ml 0 lc
np 180 607 m 212 607 l 
st
0 0 0 col
222 598.156 m (AccZ) s
0 0 1 col
1 lw [] 0 ld 0 lj 2 ml 0 lc
np 180 578 m 212 578 l 
st
0 0 0 col
222 569.156 m (OrienX) s
0 1 1 col
1 lw [] 0 ld 0 lj 2 ml 0 lc
np 180 549 m 212 549 l 
st
0 0 0 col
222 540.156 m (OrienY) s
1 0 1 col
1 lw [] 0 ld 0 lj 2 ml 0 lc
np 180 520 m 212 520 l 
st
0 0 0 col
222 511.156 m (OrienZ) s
%%EOF