%!PS-Adobe-3.0 EPSF-3.0
%%BoundingBox: 0 0 1564 760
%%Pages: 0
%%Creator: QtiPlot
%%CreationDate: 2016-11-07
%%Title: /Users/vincentcuccu/fopra2016-17/NeglectDetect/Documents/Testdaten/data_04.11.2016/data_04.11.2016 014459.eps
%%BeginProlog
/bd {bind def} bind def
/c {curveto} bd
/f {findfont} bd
/l {lineto} bd
/m {moveto} bd
/r {rotate} bd
/s {show} bd
/cp {clip} bd
/fl {fill} bd
/rf {rectfill} bd
/np {newpath} bd
/lw {setlinewidth} bd
/lc {setlinecap} bd
/lj {setlinejoin} bd
/ml {setmiterlimit} bd
/ld {setdash} bd
/gl {glyphshow} bd
/gs {gsave} bd
/gr {grestore} bd
/st {stroke} bd
/sf {scalefont setfont} bd
/tr {translate} bd
/sw {stringwidth pop neg 0 rmoveto} bind def
/col {setrgbcolor} bd
%%EndProlog
gs
np 142 706 m 1453 706 l 1453 83 l 142 83 l 142 706 l 
cp
0.627451 0.627451 0.643137 col
1 lw [4 2] 0 ld 2 lj 2 lc
np 179 706 m 179 83 l 
st
gr
gs
np 142 706 m 1453 706 l 1453 83 l 142 83 l 142 706 l 
cp
0.627451 0.627451 0.643137 col
1 lw [4 2] 0 ld 2 lj 2 lc
np 217 706 m 217 83 l 
st
gr
gs
np 142 706 m 1453 706 l 1453 83 l 142 83 l 142 706 l 
cp
0.627451 0.627451 0.643137 col
1 lw [4 2] 0 ld 2 lj 2 lc
np 254 706 m 254 83 l 
st
gr
gs
np 142 706 m 1453 706 l 1453 83 l 142 83 l 142 706 l 
cp
0.627451 0.627451 0.643137 col
1 lw [4 2] 0 ld 2 lj 2 lc
np 292 706 m 292 83 l 
st
gr
gs
np 142 706 m 1453 706 l 1453 83 l 142 83 l 142 706 l 
cp
0.627451 0.627451 0.643137 col
1 lw [4 2] 0 ld 2 lj 2 lc
np 367 706 m 367 83 l 
st
gr
gs
np 142 706 m 1453 706 l 1453 83 l 142 83 l 142 706 l 
cp
0.627451 0.627451 0.643137 col
1 lw [4 2] 0 ld 2 lj 2 lc
np 404 706 m 404 83 l 
st
gr
gs
np 142 706 m 1453 706 l 1453 83 l 142 83 l 142 706 l 
cp
0.627451 0.627451 0.643137 col
1 lw [4 2] 0 ld 2 lj 2 lc
np 442 706 m 442 83 l 
st
gr
gs
np 142 706 m 1453 706 l 1453 83 l 142 83 l 142 706 l 
cp
0.627451 0.627451 0.643137 col
1 lw [4 2] 0 ld 2 lj 2 lc
np 479 706 m 479 83 l 
st
gr
gs
np 142 706 m 1453 706 l 1453 83 l 142 83 l 142 706 l 
cp
0.627451 0.627451 0.643137 col
1 lw [4 2] 0 ld 2 lj 2 lc
np 554 706 m 554 83 l 
st
gr
gs
np 142 706 m 1453 706 l 1453 83 l 142 83 l 142 706 l 
cp
0.627451 0.627451 0.643137 col
1 lw [4 2] 0 ld 2 lj 2 lc
np 591 706 m 591 83 l 
st
gr
gs
np 142 706 m 1453 706 l 1453 83 l 142 83 l 142 706 l 
cp
0.627451 0.627451 0.643137 col
1 lw [4 2] 0 ld 2 lj 2 lc
np 629 706 m 629 83 l 
st
gr
gs
np 142 706 m 1453 706 l 1453 83 l 142 83 l 142 706 l 
cp
0.627451 0.627451 0.643137 col
1 lw [4 2] 0 ld 2 lj 2 lc
np 666 706 m 666 83 l 
st
gr
gs
np 142 706 m 1453 706 l 1453 83 l 142 83 l 142 706 l 
cp
0.627451 0.627451 0.643137 col
1 lw [4 2] 0 ld 2 lj 2 lc
np 741 706 m 741 83 l 
st
gr
gs
np 142 706 m 1453 706 l 1453 83 l 142 83 l 142 706 l 
cp
0.627451 0.627451 0.643137 col
1 lw [4 2] 0 ld 2 lj 2 lc
np 779 706 m 779 83 l 
st
gr
gs
np 142 706 m 1453 706 l 1453 83 l 142 83 l 142 706 l 
cp
0.627451 0.627451 0.643137 col
1 lw [4 2] 0 ld 2 lj 2 lc
np 816 706 m 816 83 l 
st
gr
gs
np 142 706 m 1453 706 l 1453 83 l 142 83 l 142 706 l 
cp
0.627451 0.627451 0.643137 col
1 lw [4 2] 0 ld 2 lj 2 lc
np 854 706 m 854 83 l 
st
gr
gs
np 142 706 m 1453 706 l 1453 83 l 142 83 l 142 706 l 
cp
0.627451 0.627451 0.643137 col
1 lw [4 2] 0 ld 2 lj 2 lc
np 929 706 m 929 83 l 
st
gr
gs
np 142 706 m 1453 706 l 1453 83 l 142 83 l 142 706 l 
cp
0.627451 0.627451 0.643137 col
1 lw [4 2] 0 ld 2 lj 2 lc
np 966 706 m 966 83 l 
st
gr
gs
np 142 706 m 1453 706 l 1453 83 l 142 83 l 142 706 l 
cp
0.627451 0.627451 0.643137 col
1 lw [4 2] 0 ld 2 lj 2 lc
np 1004 706 m 1004 83 l 
st
gr
gs
np 142 706 m 1453 706 l 1453 83 l 142 83 l 142 706 l 
cp
0.627451 0.627451 0.643137 col
1 lw [4 2] 0 ld 2 lj 2 lc
np 1041 706 m 1041 83 l 
st
gr
gs
np 142 706 m 1453 706 l 1453 83 l 142 83 l 142 706 l 
cp
0.627451 0.627451 0.643137 col
1 lw [4 2] 0 ld 2 lj 2 lc
np 1116 706 m 1116 83 l 
st
gr
gs
np 142 706 m 1453 706 l 1453 83 l 142 83 l 142 706 l 
cp
0.627451 0.627451 0.643137 col
1 lw [4 2] 0 ld 2 lj 2 lc
np 1153 706 m 1153 83 l 
st
gr
gs
np 142 706 m 1453 706 l 1453 83 l 142 83 l 142 706 l 
cp
0.627451 0.627451 0.643137 col
1 lw [4 2] 0 ld 2 lj 2 lc
np 1191 706 m 1191 83 l 
st
gr
gs
np 142 706 m 1453 706 l 1453 83 l 142 83 l 142 706 l 
cp
0.627451 0.627451 0.643137 col
1 lw [4 2] 0 ld 2 lj 2 lc
np 1228 706 m 1228 83 l 
st
gr
gs
np 142 706 m 1453 706 l 1453 83 l 142 83 l 142 706 l 
cp
0.627451 0.627451 0.643137 col
1 lw [4 2] 0 ld 2 lj 2 lc
np 1303 706 m 1303 83 l 
st
gr
gs
np 142 706 m 1453 706 l 1453 83 l 142 83 l 142 706 l 
cp
0.627451 0.627451 0.643137 col
1 lw [4 2] 0 ld 2 lj 2 lc
np 1341 706 m 1341 83 l 
st
gr
gs
np 142 706 m 1453 706 l 1453 83 l 142 83 l 142 706 l 
cp
0.627451 0.627451 0.643137 col
1 lw [4 2] 0 ld 2 lj 2 lc
np 1378 706 m 1378 83 l 
st
gr
gs
np 142 706 m 1453 706 l 1453 83 l 142 83 l 142 706 l 
cp
0.627451 0.627451 0.643137 col
1 lw [4 2] 0 ld 2 lj 2 lc
np 1416 706 m 1416 83 l 
st
gr
gs
np 142 706 m 1453 706 l 1453 83 l 142 83 l 142 706 l 
cp
0.627451 0.627451 0.643137 col
1 lw [4 2] 0 ld 2 lj 2 lc
np 142 104 m 1453 104 l 
st
gr
gs
np 142 706 m 1453 706 l 1453 83 l 142 83 l 142 706 l 
cp
0.627451 0.627451 0.643137 col
1 lw [4 2] 0 ld 2 lj 2 lc
np 142 125 m 1453 125 l 
st
gr
gs
np 142 706 m 1453 706 l 1453 83 l 142 83 l 142 706 l 
cp
0.627451 0.627451 0.643137 col
1 lw [4 2] 0 ld 2 lj 2 lc
np 142 145 m 1453 145 l 
st
gr
gs
np 142 706 m 1453 706 l 1453 83 l 142 83 l 142 706 l 
cp
0.627451 0.627451 0.643137 col
1 lw [4 2] 0 ld 2 lj 2 lc
np 142 166 m 1453 166 l 
st
gr
gs
np 142 706 m 1453 706 l 1453 83 l 142 83 l 142 706 l 
cp
0.627451 0.627451 0.643137 col
1 lw [4 2] 0 ld 2 lj 2 lc
np 142 208 m 1453 208 l 
st
gr
gs
np 142 706 m 1453 706 l 1453 83 l 142 83 l 142 706 l 
cp
0.627451 0.627451 0.643137 col
1 lw [4 2] 0 ld 2 lj 2 lc
np 142 228 m 1453 228 l 
st
gr
gs
np 142 706 m 1453 706 l 1453 83 l 142 83 l 142 706 l 
cp
0.627451 0.627451 0.643137 col
1 lw [4 2] 0 ld 2 lj 2 lc
np 142 249 m 1453 249 l 
st
gr
gs
np 142 706 m 1453 706 l 1453 83 l 142 83 l 142 706 l 
cp
0.627451 0.627451 0.643137 col
1 lw [4 2] 0 ld 2 lj 2 lc
np 142 270 m 1453 270 l 
st
gr
gs
np 142 706 m 1453 706 l 1453 83 l 142 83 l 142 706 l 
cp
0.627451 0.627451 0.643137 col
1 lw [4 2] 0 ld 2 lj 2 lc
np 142 311 m 1453 311 l 
st
gr
gs
np 142 706 m 1453 706 l 1453 83 l 142 83 l 142 706 l 
cp
0.627451 0.627451 0.643137 col
1 lw [4 2] 0 ld 2 lj 2 lc
np 142 332 m 1453 332 l 
st
gr
gs
np 142 706 m 1453 706 l 1453 83 l 142 83 l 142 706 l 
cp
0.627451 0.627451 0.643137 col
1 lw [4 2] 0 ld 2 lj 2 lc
np 142 353 m 1453 353 l 
st
gr
gs
np 142 706 m 1453 706 l 1453 83 l 142 83 l 142 706 l 
cp
0.627451 0.627451 0.643137 col
1 lw [4 2] 0 ld 2 lj 2 lc
np 142 374 m 1453 374 l 
st
gr
gs
np 142 706 m 1453 706 l 1453 83 l 142 83 l 142 706 l 
cp
0.627451 0.627451 0.643137 col
1 lw [4 2] 0 ld 2 lj 2 lc
np 142 415 m 1453 415 l 
st
gr
gs
np 142 706 m 1453 706 l 1453 83 l 142 83 l 142 706 l 
cp
0.627451 0.627451 0.643137 col
1 lw [4 2] 0 ld 2 lj 2 lc
np 142 436 m 1453 436 l 
st
gr
gs
np 142 706 m 1453 706 l 1453 83 l 142 83 l 142 706 l 
cp
0.627451 0.627451 0.643137 col
1 lw [4 2] 0 ld 2 lj 2 lc
np 142 457 m 1453 457 l 
st
gr
gs
np 142 706 m 1453 706 l 1453 83 l 142 83 l 142 706 l 
cp
0.627451 0.627451 0.643137 col
1 lw [4 2] 0 ld 2 lj 2 lc
np 142 478 m 1453 478 l 
st
gr
gs
np 142 706 m 1453 706 l 1453 83 l 142 83 l 142 706 l 
cp
0.627451 0.627451 0.643137 col
1 lw [4 2] 0 ld 2 lj 2 lc
np 142 519 m 1453 519 l 
st
gr
gs
np 142 706 m 1453 706 l 1453 83 l 142 83 l 142 706 l 
cp
0.627451 0.627451 0.643137 col
1 lw [4 2] 0 ld 2 lj 2 lc
np 142 540 m 1453 540 l 
st
gr
gs
np 142 706 m 1453 706 l 1453 83 l 142 83 l 142 706 l 
cp
0.627451 0.627451 0.643137 col
1 lw [4 2] 0 ld 2 lj 2 lc
np 142 561 m 1453 561 l 
st
gr
gs
np 142 706 m 1453 706 l 1453 83 l 142 83 l 142 706 l 
cp
0.627451 0.627451 0.643137 col
1 lw [4 2] 0 ld 2 lj 2 lc
np 142 581 m 1453 581 l 
st
gr
gs
np 142 706 m 1453 706 l 1453 83 l 142 83 l 142 706 l 
cp
0.627451 0.627451 0.643137 col
1 lw [4 2] 0 ld 2 lj 2 lc
np 142 623 m 1453 623 l 
st
gr
gs
np 142 706 m 1453 706 l 1453 83 l 142 83 l 142 706 l 
cp
0.627451 0.627451 0.643137 col
1 lw [4 2] 0 ld 2 lj 2 lc
np 142 644 m 1453 644 l 
st
gr
gs
np 142 706 m 1453 706 l 1453 83 l 142 83 l 142 706 l 
cp
0.627451 0.627451 0.643137 col
1 lw [4 2] 0 ld 2 lj 2 lc
np 142 664 m 1453 664 l 
st
gr
gs
np 142 706 m 1453 706 l 1453 83 l 142 83 l 142 706 l 
cp
0.627451 0.627451 0.643137 col
1 lw [4 2] 0 ld 2 lj 2 lc
np 142 685 m 1453 685 l 
st
gr
gs
np 142 706 m 1453 706 l 1453 83 l 142 83 l 142 706 l 
cp
0.627451 0.627451 0.643137 col
1 lw [] 0 ld 2 lj 2 lc
np 329 706 m 329 83 l 
st
gr
gs
np 142 706 m 1453 706 l 1453 83 l 142 83 l 142 706 l 
cp
0.627451 0.627451 0.643137 col
1 lw [] 0 ld 2 lj 2 lc
np 517 706 m 517 83 l 
st
gr
gs
np 142 706 m 1453 706 l 1453 83 l 142 83 l 142 706 l 
cp
0.627451 0.627451 0.643137 col
1 lw [] 0 ld 2 lj 2 lc
np 704 706 m 704 83 l 
st
gr
gs
np 142 706 m 1453 706 l 1453 83 l 142 83 l 142 706 l 
cp
0.627451 0.627451 0.643137 col
1 lw [] 0 ld 2 lj 2 lc
np 891 706 m 891 83 l 
st
gr
gs
np 142 706 m 1453 706 l 1453 83 l 142 83 l 142 706 l 
cp
0.627451 0.627451 0.643137 col
1 lw [] 0 ld 2 lj 2 lc
np 1078 706 m 1078 83 l 
st
gr
gs
np 142 706 m 1453 706 l 1453 83 l 142 83 l 142 706 l 
cp
0.627451 0.627451 0.643137 col
1 lw [] 0 ld 2 lj 2 lc
np 1266 706 m 1266 83 l 
st
gr
gs
np 142 706 m 1453 706 l 1453 83 l 142 83 l 142 706 l 
cp
0.627451 0.627451 0.643137 col
1 lw [] 0 ld 2 lj 2 lc
np 142 187 m 1453 187 l 
st
gr
gs
np 142 706 m 1453 706 l 1453 83 l 142 83 l 142 706 l 
cp
0.627451 0.627451 0.643137 col
1 lw [] 0 ld 2 lj 2 lc
np 142 291 m 1453 291 l 
st
gr
gs
np 142 706 m 1453 706 l 1453 83 l 142 83 l 142 706 l 
cp
0.627451 0.627451 0.643137 col
1 lw [] 0 ld 2 lj 2 lc
np 142 394 m 1453 394 l 
st
gr
gs
np 142 706 m 1453 706 l 1453 83 l 142 83 l 142 706 l 
cp
0.627451 0.627451 0.643137 col
1 lw [] 0 ld 2 lj 2 lc
np 142 498 m 1453 498 l 
st
gr
gs
np 142 706 m 1453 706 l 1453 83 l 142 83 l 142 706 l 
cp
0.627451 0.627451 0.643137 col
1 lw [] 0 ld 2 lj 2 lc
np 142 602 m 1453 602 l 
st
gr
gs
np 142 706 m 1453 706 l 1453 83 l 142 83 l 142 706 l 
cp
0 0 0 col
1 lw [] 0 ld 0 lj 2 ml 0 lc
np 160.729 290.667 m 179.457 290.667 l 198.186 266.597 l 216.914 290.667 l 235.643 290.667 l 254.371 242.531 l 273.1 290.667 l 291.829 290.667 l 310.557 290.667 l 329.286 290.667 l 348.014 290.667 l 366.743 290.667 l 385.471 290.667 l 404.2 290.667 l 
422.929 290.667 l 441.657 290.667 l 460.386 290.667 l 479.114 290.667 l 497.843 290.667 l 516.571 290.667 l 535.3 276.713 l 554.029 290.667 l 572.757 290.667 l 591.486 290.667 l 610.214 248.856 l 628.943 290.667 l 647.671 290.667 l 666.4 290.667 l 
685.129 290.667 l 703.857 290.667 l 722.586 290.667 l 741.314 290.667 l 760.043 290.667 l 778.771 290.667 l 797.5 290.667 l 816.229 325.811 l 834.957 290.667 l 853.686 290.667 l 872.414 290.667 l 891.143 290.667 l 909.871 290.667 l 928.6 343.853 l 
947.329 197.466 l 966.057 290.667 l 984.786 290.667 l 1003.51 341.914 l 1022.24 290.667 l 1040.97 290.667 l 1059.7 198.332 l 1078.43 290.667 l 1097.16 290.667 l 1115.89 290.667 l 1134.61 290.667 l 1153.34 290.667 l 1172.07 210.774 l 1190.8 290.667 l 
1209.53 290.667 l 1228.26 290.667 l 1246.99 316.392 l 1265.71 279.591 l 1284.44 290.667 l 1303.17 290.667 l 1321.9 290.667 l 1340.63 290.667 l 1359.36 290.667 l 1378.09 290.667 l 1396.81 290.667 l 
st
gr
gs
np 142 706 m 1453 706 l 1453 83 l 142 83 l 142 706 l 
cp
1 0 0 col
1 lw [] 0 ld 0 lj 2 ml 0 lc
np 160.729 252.661 m 179.457 290.667 l 198.186 290.667 l 216.914 290.667 l 235.643 290.667 l 254.371 290.667 l 273.1 290.667 l 291.829 331.372 l 310.557 265.437 l 329.286 290.667 l 348.014 280.157 l 366.743 290.667 l 385.471 290.667 l 404.2 290.667 l 
422.929 290.667 l 441.657 290.667 l 460.386 256.52 l 479.114 290.667 l 497.843 290.667 l 516.571 246.974 l 535.3 290.667 l 554.029 290.667 l 572.757 290.667 l 591.486 290.667 l 610.214 290.667 l 628.943 290.667 l 647.671 290.667 l 666.4 255.96 l 
685.129 290.667 l 703.857 290.667 l 722.586 290.667 l 741.314 290.667 l 760.043 290.667 l 778.771 242.007 l 797.5 290.667 l 816.229 696.464 l 834.957 290.667 l 853.686 290.667 l 872.414 338.604 l 891.143 290.667 l 909.871 267.174 l 928.6 290.667 l 
947.329 290.667 l 966.057 290.667 l 984.786 419.127 l 1003.51 290.667 l 1022.24 290.667 l 1040.97 351.48 l 1059.7 290.667 l 1078.43 290.667 l 1097.16 412.958 l 1115.89 290.667 l 1134.61 290.667 l 1153.34 339 l 1172.07 290.667 l 1190.8 290.667 l 
1209.53 290.667 l 1228.26 262.041 l 1246.99 290.667 l 1265.71 290.667 l 1284.44 290.667 l 1303.17 191.136 l 1321.9 329.63 l 1340.63 290.667 l 1359.36 290.667 l 1378.09 290.667 l 1396.81 290.667 l 
st
gr
gs
np 142 706 m 1453 706 l 1453 83 l 142 83 l 142 706 l 
cp
0 1 0 col
1 lw [] 0 ld 0 lj 2 ml 0 lc
np 160.729 290.667 m 179.457 269.462 l 198.186 332.219 l 216.914 220.804 l 235.643 290.667 l 254.371 290.667 l 273.1 290.667 l 291.829 246.416 l 310.557 290.667 l 329.286 290.667 l 348.014 290.667 l 366.743 280.682 l 385.471 290.667 l 404.2 245.735 l 
422.929 290.667 l 441.657 290.667 l 460.386 290.667 l 479.114 290.667 l 497.843 290.667 l 516.571 290.667 l 535.3 290.667 l 554.029 290.667 l 572.757 290.667 l 591.486 290.667 l 610.214 344.451 l 628.943 290.667 l 647.671 290.667 l 666.4 290.667 l 
685.129 290.667 l 703.857 290.667 l 722.586 290.667 l 741.314 290.667 l 760.043 249.484 l 778.771 374.967 l 797.5 290.667 l 816.229 290.667 l 834.957 359.203 l 853.686 290.667 l 872.414 290.667 l 891.143 290.667 l 909.871 290.667 l 928.6 290.667 l 
947.329 290.667 l 966.057 290.667 l 984.786 290.667 l 1003.51 290.667 l 1022.24 290.667 l 1040.97 290.667 l 1059.7 337.822 l 1078.43 290.667 l 1097.16 290.667 l 1115.89 369.863 l 1134.61 290.667 l 1153.34 290.667 l 1172.07 290.667 l 1190.8 290.667 l 
1209.53 267.862 l 1228.26 290.667 l 1246.99 290.667 l 1265.71 290.667 l 1284.44 290.667 l 1303.17 502.253 l 1321.9 290.667 l 1340.63 290.667 l 1359.36 290.667 l 1378.09 290.667 l 1396.81 290.667 l 
st
gr
gs
np 142 706 m 1453 706 l 1453 83 l 142 83 l 142 706 l 
cp
0 0 1 col
1 lw [] 0 ld 0 lj 2 ml 0 lc
np 160.729 290.667 m 179.457 290.667 l 198.186 290.667 l 216.914 255.256 l 235.643 290.667 l 254.371 290.667 l 273.1 290.667 l 291.829 351.715 l 310.557 290.667 l 329.286 290.667 l 348.014 227.612 l 366.743 290.667 l 385.471 290.667 l 404.2 290.667 l 
422.929 290.667 l 441.657 230.939 l 460.386 241.08 l 479.114 290.667 l 497.843 290.667 l 516.571 235.533 l 535.3 290.667 l 554.029 231.191 l 572.757 290.667 l 591.486 290.667 l 610.214 290.667 l 628.943 258.334 l 647.671 290.667 l 666.4 290.667 l 
685.129 290.667 l 703.857 290.667 l 722.586 290.667 l 741.314 290.667 l 760.043 231.103 l 778.771 290.667 l 797.5 290.667 l 816.229 290.667 l 834.957 290.667 l 853.686 290.667 l 872.414 230.571 l 891.143 232.142 l 909.871 235.89 l 928.6 234.24 l 
947.329 290.667 l 966.057 340.362 l 984.786 231.942 l 1003.51 290.667 l 1022.24 234.113 l 1040.97 290.667 l 1059.7 290.667 l 1078.43 345.901 l 1097.16 290.667 l 1115.89 290.667 l 1134.61 290.667 l 1153.34 290.667 l 1172.07 290.667 l 1190.8 341.546 l 
1209.53 230.729 l 1228.26 290.667 l 1246.99 290.667 l 1265.71 290.667 l 1284.44 290.667 l 1303.17 278.759 l 1321.9 237.478 l 1340.63 290.667 l 1359.36 290.667 l 1378.09 290.667 l 1396.81 290.667 l 
st
gr
gs
np 142 706 m 1453 706 l 1453 83 l 142 83 l 142 706 l 
cp
0 1 1 col
1 lw [] 0 ld 0 lj 2 ml 0 lc
np 160.729 267.122 m 179.457 290.667 l 198.186 290.667 l 216.914 290.667 l 235.643 263.703 l 254.371 260.408 l 273.1 290.667 l 291.829 290.667 l 310.557 267.263 l 329.286 290.667 l 348.014 290.667 l 366.743 290.667 l 385.471 290.667 l 404.2 267.027 l 
422.929 290.667 l 441.657 290.667 l 460.386 290.667 l 479.114 290.667 l 497.843 290.667 l 516.571 265.254 l 535.3 290.667 l 554.029 290.667 l 572.757 265.774 l 591.486 290.667 l 610.214 290.667 l 628.943 290.667 l 647.671 290.667 l 666.4 290.667 l 
685.129 290.667 l 703.857 290.667 l 722.586 266.247 l 741.314 290.667 l 760.043 290.667 l 778.771 290.667 l 797.5 290.667 l 816.229 290.667 l 834.957 290.667 l 853.686 290.667 l 872.414 290.667 l 891.143 290.667 l 909.871 266.692 l 928.6 290.667 l 
947.329 290.667 l 966.057 290.667 l 984.786 290.667 l 1003.51 290.667 l 1022.24 290.667 l 1040.97 265.431 l 1059.7 290.667 l 1078.43 290.667 l 1097.16 290.667 l 1115.89 290.667 l 1134.61 290.667 l 1153.34 290.667 l 1172.07 269.351 l 1190.8 290.667 l 
1209.53 290.667 l 1228.26 290.667 l 1246.99 290.667 l 1265.71 290.667 l 1284.44 290.667 l 1303.17 290.667 l 1321.9 290.667 l 1340.63 290.667 l 1359.36 290.667 l 1378.09 290.667 l 1396.81 290.667 l 
st
gr
gs
np 142 706 m 1453 706 l 1453 83 l 142 83 l 142 706 l 
cp
1 0 1 col
1 lw [] 0 ld 0 lj 2 ml 0 lc
np 160.729 290.667 m 179.457 290.667 l 198.186 290.667 l 216.914 290.667 l 235.643 290.667 l 254.371 290.667 l 273.1 290.667 l 291.829 290.667 l 310.557 236.329 l 329.286 233.902 l 348.014 238.926 l 366.743 290.667 l 385.471 290.667 l 404.2 239.293 l 
422.929 235.858 l 441.657 237.995 l 460.386 290.667 l 479.114 290.667 l 497.843 243.216 l 516.571 290.667 l 535.3 248.155 l 554.029 290.667 l 572.757 290.667 l 591.486 290.667 l 610.214 244.498 l 628.943 265.957 l 647.671 290.667 l 666.4 290.667 l 
685.129 263.575 l 703.857 290.667 l 722.586 290.667 l 741.314 290.667 l 760.043 290.667 l 778.771 290.667 l 797.5 290.667 l 816.229 290.667 l 834.957 290.667 l 853.686 290.667 l 872.414 290.667 l 891.143 237.351 l 909.871 290.667 l 928.6 290.667 l 
947.329 290.667 l 966.057 290.667 l 984.786 243.159 l 1003.51 290.667 l 1022.24 258.316 l 1040.97 247.944 l 1059.7 290.667 l 1078.43 290.667 l 1097.16 241.228 l 1115.89 290.667 l 1134.61 290.667 l 1153.34 290.667 l 1172.07 247.27 l 1190.8 290.667 l 
1209.53 246.261 l 1228.26 236.443 l 1246.99 290.667 l 1265.71 290.667 l 1284.44 244.335 l 1303.17 290.667 l 1321.9 290.667 l 1340.63 290.667 l 1359.36 290.667 l 1378.09 290.667 l 1396.81 290.667 l 
st
gr
0 0 0 col
/Helvetica-Bold f 28.4492 sf
695.859 732.703 m (data_04.11.2016 014459) s
0 0 0 col
/Helvetica-Bold f 24.385 sf
23.3906 365.516 m
gs
90 r
(AccX) s
gr
0 0 0 col
/ReEncode { % inFont outFont encoding | -
 /MyEncoding exch def
 exch findfont
 dup length dict
 begin
	{def} forall
	/Encoding MyEncoding def
	currentdict
 end
 definefont
} def
/Helvetica /Helvetica-Latin1 ISOLatin1Encoding ReEncode
/Helvetica-Latin1 f 24.385 sf
119.688 74.1562 m (\0551e+16) dup sw s
0 0 0 col
/Helvetica-Latin1 f 24.385 sf
119.688 178.156 m (\0555e+15) dup sw s
0 0 0 col
106 282.156 m (0) s
0 0 0 col
52 385.156 m (5e+15) s
0 0 0 col
52 489.156 m (1e+16) s
0 0 0 col
32 593.156 m (1,5e+16) s
0 0 0 col
52 697.156 m (2e+16) s
0 0 0 col
1 lw [] 0 ld 2 lj 2 lc
np 142 104 m 132 104 l 
st
0 0 0 col
1 lw [] 0 ld 2 lj 2 lc
np 142 125 m 132 125 l 
st
0 0 0 col
1 lw [] 0 ld 2 lj 2 lc
np 142 145 m 132 145 l 
st
0 0 0 col
1 lw [] 0 ld 2 lj 2 lc
np 142 166 m 132 166 l 
st
0 0 0 col
1 lw [] 0 ld 2 lj 2 lc
np 142 208 m 132 208 l 
st
0 0 0 col
1 lw [] 0 ld 2 lj 2 lc
np 142 228 m 132 228 l 
st
0 0 0 col
1 lw [] 0 ld 2 lj 2 lc
np 142 249 m 132 249 l 
st
0 0 0 col
1 lw [] 0 ld 2 lj 2 lc
np 142 270 m 132 270 l 
st
0 0 0 col
1 lw [] 0 ld 2 lj 2 lc
np 142 311 m 132 311 l 
st
0 0 0 col
1 lw [] 0 ld 2 lj 2 lc
np 142 332 m 132 332 l 
st
0 0 0 col
1 lw [] 0 ld 2 lj 2 lc
np 142 353 m 132 353 l 
st
0 0 0 col
1 lw [] 0 ld 2 lj 2 lc
np 142 374 m 132 374 l 
st
0 0 0 col
1 lw [] 0 ld 2 lj 2 lc
np 142 415 m 132 415 l 
st
0 0 0 col
1 lw [] 0 ld 2 lj 2 lc
np 142 436 m 132 436 l 
st
0 0 0 col
1 lw [] 0 ld 2 lj 2 lc
np 142 457 m 132 457 l 
st
0 0 0 col
1 lw [] 0 ld 2 lj 2 lc
np 142 478 m 132 478 l 
st
0 0 0 col
1 lw [] 0 ld 2 lj 2 lc
np 142 519 m 132 519 l 
st
0 0 0 col
1 lw [] 0 ld 2 lj 2 lc
np 142 540 m 132 540 l 
st
0 0 0 col
1 lw [] 0 ld 2 lj 2 lc
np 142 561 m 132 561 l 
st
0 0 0 col
1 lw [] 0 ld 2 lj 2 lc
np 142 581 m 132 581 l 
st
0 0 0 col
1 lw [] 0 ld 2 lj 2 lc
np 142 623 m 132 623 l 
st
0 0 0 col
1 lw [] 0 ld 2 lj 2 lc
np 142 644 m 132 644 l 
st
0 0 0 col
1 lw [] 0 ld 2 lj 2 lc
np 142 664 m 132 664 l 
st
0 0 0 col
1 lw [] 0 ld 2 lj 2 lc
np 142 685 m 132 685 l 
st
0 0 0 col
1 lw [] 0 ld 2 lj 2 lc
np 142 83 m 124 83 l 
st
0 0 0 col
1 lw [] 0 ld 2 lj 2 lc
np 142 187 m 124 187 l 
st
0 0 0 col
1 lw [] 0 ld 2 lj 2 lc
np 142 291 m 124 291 l 
st
0 0 0 col
1 lw [] 0 ld 2 lj 2 lc
np 142 394 m 124 394 l 
st
0 0 0 col
1 lw [] 0 ld 2 lj 2 lc
np 142 498 m 124 498 l 
st
0 0 0 col
1 lw [] 0 ld 2 lj 2 lc
np 142 602 m 124 602 l 
st
0 0 0 col
1 lw [] 0 ld 2 lj 2 lc
np 142 706 m 124 706 l 
st
0 0 0 col
1 lw [] 0 ld 2 lj 2 lc
np 142 706 m 142 83 l 
st
0 0 0 col
/Helvetica-Bold f 24.385 sf
789.094 5.60938 m (Timestamp) s
0 0 0 col
/Helvetica f 24.385 sf
219 37.1562 m (04.11.2016 01:45:01) s
0 0 0 col
407 37.1562 m (04.11.2016 01:45:03) s
0 0 0 col
594 37.1562 m (04.11.2016 01:45:05) s
0 0 0 col
781 37.1562 m (04.11.2016 01:45:07) s
0 0 0 col
968 37.1562 m (04.11.2016 01:45:09) s
0 0 0 col
1156 37.1562 m (04.11.2016 01:45:11) s
0 0 0 col
1 lw [] 0 ld 2 lj 2 lc
np 179 83 m 179 73 l 
st
0 0 0 col
1 lw [] 0 ld 2 lj 2 lc
np 217 83 m 217 73 l 
st
0 0 0 col
1 lw [] 0 ld 2 lj 2 lc
np 254 83 m 254 73 l 
st
0 0 0 col
1 lw [] 0 ld 2 lj 2 lc
np 292 83 m 292 73 l 
st
0 0 0 col
1 lw [] 0 ld 2 lj 2 lc
np 367 83 m 367 73 l 
st
0 0 0 col
1 lw [] 0 ld 2 lj 2 lc
np 404 83 m 404 73 l 
st
0 0 0 col
1 lw [] 0 ld 2 lj 2 lc
np 442 83 m 442 73 l 
st
0 0 0 col
1 lw [] 0 ld 2 lj 2 lc
np 479 83 m 479 73 l 
st
0 0 0 col
1 lw [] 0 ld 2 lj 2 lc
np 554 83 m 554 73 l 
st
0 0 0 col
1 lw [] 0 ld 2 lj 2 lc
np 591 83 m 591 73 l 
st
0 0 0 col
1 lw [] 0 ld 2 lj 2 lc
np 629 83 m 629 73 l 
st
0 0 0 col
1 lw [] 0 ld 2 lj 2 lc
np 666 83 m 666 73 l 
st
0 0 0 col
1 lw [] 0 ld 2 lj 2 lc
np 741 83 m 741 73 l 
st
0 0 0 col
1 lw [] 0 ld 2 lj 2 lc
np 779 83 m 779 73 l 
st
0 0 0 col
1 lw [] 0 ld 2 lj 2 lc
np 816 83 m 816 73 l 
st
0 0 0 col
1 lw [] 0 ld 2 lj 2 lc
np 854 83 m 854 73 l 
st
0 0 0 col
1 lw [] 0 ld 2 lj 2 lc
np 929 83 m 929 73 l 
st
0 0 0 col
1 lw [] 0 ld 2 lj 2 lc
np 966 83 m 966 73 l 
st
0 0 0 col
1 lw [] 0 ld 2 lj 2 lc
np 1004 83 m 1004 73 l 
st
0 0 0 col
1 lw [] 0 ld 2 lj 2 lc
np 1041 83 m 1041 73 l 
st
0 0 0 col
1 lw [] 0 ld 2 lj 2 lc
np 1116 83 m 1116 73 l 
st
0 0 0 col
1 lw [] 0 ld 2 lj 2 lc
np 1153 83 m 1153 73 l 
st
0 0 0 col
1 lw [] 0 ld 2 lj 2 lc
np 1191 83 m 1191 73 l 
st
0 0 0 col
1 lw [] 0 ld 2 lj 2 lc
np 1228 83 m 1228 73 l 
st
0 0 0 col
1 lw [] 0 ld 2 lj 2 lc
np 1303 83 m 1303 73 l 
st
0 0 0 col
1 lw [] 0 ld 2 lj 2 lc
np 1341 83 m 1341 73 l 
st
0 0 0 col
1 lw [] 0 ld 2 lj 2 lc
np 1378 83 m 1378 73 l 
st
0 0 0 col
1 lw [] 0 ld 2 lj 2 lc
np 1416 83 m 1416 73 l 
st
0 0 0 col
1 lw [] 0 ld 2 lj 2 lc
np 142 83 m 142 65 l 
st
0 0 0 col
1 lw [] 0 ld 2 lj 2 lc
np 329 83 m 329 65 l 
st
0 0 0 col
1 lw [] 0 ld 2 lj 2 lc
np 517 83 m 517 65 l 
st
0 0 0 col
1 lw [] 0 ld 2 lj 2 lc
np 704 83 m 704 65 l 
st
0 0 0 col
1 lw [] 0 ld 2 lj 2 lc
np 891 83 m 891 65 l 
st
0 0 0 col
1 lw [] 0 ld 2 lj 2 lc
np 1078 83 m 1078 65 l 
st
0 0 0 col
1 lw [] 0 ld 2 lj 2 lc
np 1266 83 m 1266 65 l 
st
0 0 0 col
1 lw [] 0 ld 2 lj 2 lc
np 1453 83 m 1453 65 l 
st
0 0 0 col
1 lw [] 0 ld 2 lj 2 lc
np 142 83 m 1453 83 l 
st
0 0 0 col
1 lw [] 0 ld 0 lj 2 ml 2 lc
np 175 685 m 312 685 l 312 500 l 175 500 l 175 685 l 
st
0 0 0 col
1 lw [] 0 ld 0 lj 2 ml 0 lc
np 186 665 m 218 665 l 
st
0 0 0 col
228 656.156 m (AccX) s
1 0 0 col
1 lw [] 0 ld 0 lj 2 ml 0 lc
np 186 636 m 218 636 l 
st
0 0 0 col
228 627.156 m (AccY) s
0 1 0 col
1 lw [] 0 ld 0 lj 2 ml 0 lc
np 186 607 m 218 607 l 
st
0 0 0 col
228 598.156 m (AccZ) s
0 0 1 col
1 lw [] 0 ld 0 lj 2 ml 0 lc
np 186 578 m 218 578 l 
st
0 0 0 col
228 569.156 m (OrienX) s
0 1 1 col
1 lw [] 0 ld 0 lj 2 ml 0 lc
np 186 549 m 218 549 l 
st
0 0 0 col
228 540.156 m (OrienY) s
1 0 1 col
1 lw [] 0 ld 0 lj 2 ml 0 lc
np 186 520 m 218 520 l 
st
0 0 0 col
228 511.156 m (OrienZ) s
%%EOF