Timestamp,	AccX,	AccY,	AccZ,	OrienX,	OrienY,	OrienZ
04.11.2016 01:44:20,	1.1591229438781738,	-1.2763938903808594,	-0.044846534729003906,	3.134211778640747,	-0.8391379714012146,	0.1926947683095932
04.11.2016 01:44:20,	1.3798104524612427,	0.025061607360839844,	-0.04291820526123047,	-3.0160651206970215,	-0.648182213306427,	-0.14991198480129242
04.11.2016 01:44:20,	-0.6700611114501953,	0.10485458374023438,	0.2532920837402344,	-3.052673101425171,	-0.795020341873169,	-0.1837475299835205
04.11.2016 01:44:20,	0.7673570513725281,	0.7142086029052734,	-2.0266079902648926,	-2.9016921520233154,	-0.9817199110984802,	0.20590081810951233
04.11.2016 01:44:20,	0.6610496044158936,	0.3977518081665039,	-0.5495815277099609,	-1.9685187339782715,	-1.5182042121887207,	0.9539287090301514
04.11.2016 01:44:21,	0.7637381553649902,	0.12372112274169922,	0.32395482063293457,	-0.4116136133670807,	-1.311044692993164,	2.555368185043335
04.11.2016 01:44:21,	0.1318676471710205,	0.37164878845214844,	-0.3308061361312866,	-0.8552974462509155,	-1.1921710968017578,	2.2862131595611572
04.11.2016 01:44:21,	3.2393136024475098,	-2.6382503509521484,	-0.3266705870628357,	-0.9506711363792419,	-1.2344584465026855,	2.1870689392089844
04.11.2016 01:44:21,	1.3112895488739014,	0.4892587661743164,	-0.6486228704452515,	-1.2295734882354736,	-1.5135189294815063,	1.7966291904449463
04.11.2016 01:44:21,	8.34143352508545,	-2.4724960327148438,	1.344125747680664,	0.060376543551683426,	-1.374778151512146,	2.7903268337249756
04.11.2016 01:44:22,	2.7320375442504883,	3.174382209777832,	-0.2630777359008789,	1.914237380027771,	-0.921375572681427,	-1.582987904548645
04.11.2016 01:44:22,	-0.19642668962478638,	2.14852237701416,	-0.892611026763916,	0.6085285544395447,	-1.1664823293685913,	-2.5818023681640625
04.11.2016 01:44:22,	0.1393580436706543,	0.03562355041503906,	-0.9103751182556152,	-0.5091673135757446,	-1.142774224281311,	2.988591194152832
04.11.2016 01:44:22,	0.21247005462646484,	5.542537689208984,	2.327035427093506,	-0.5570403337478638,	-0.9865123629570007,	3.076565742492676
04.11.2016 01:44:22,	2.501411199569702,	-0.2685270309448242,	-0.08548235893249512,	-0.30642473697662354,	-1.5230674743652344,	-3.121359348297119
04.11.2016 01:44:23,	0.5529942512512207,	-0.36878204345703125,	-0.02376842498779297,	0.702929675579071,	-1.177032709121704,	-2.3353641033172607
04.11.2016 01:44:23,	1.584226131439209,	-0.23313426971435547,	-1.1896791458129883,	-0.04540296271443367,	-1.2650753259658813,	-2.7379367351531982
04.11.2016 01:44:23,	1.4475092887878418,	-1.0401802062988281,	-1.2823410034179688,	0.1649686098098755,	-1.1643524169921875,	-2.559802532196045
04.11.2016 01:44:23,	1.2241183519363403,	2.9035778045654297,	0.8237906694412231,	0.014915574342012405,	-1.1421198844909668,	-2.5929341316223145
04.11.2016 01:44:23,	2.6047563552856445,	-1.6336164474487305,	0.1338191032409668,	0.4788501560688019,	-1.3426249027252197,	-2.236541986465454
04.11.2016 01:44:24,	2.7199785709381104,	-1.0236434936523438,	-0.8775913715362549,	0.8260785341262817,	-1.0464932918548584,	-2.2391302585601807
04.11.2016 01:44:24,	3.738555669784546,	1.2922306060791016,	-1.5589747428894043,	0.7119262218475342,	-1.0109641551971436,	-2.378225326538086
04.11.2016 01:44:24,	-5.129620552062988,	0.07645797729492188,	2.6365456581115723,	0.6976746320724487,	-1.0201369524002075,	-2.3552823066711426
04.11.2016 01:44:24,	1.2634292840957642,	-1.9532170295715332,	1.0167484283447266,	-2.014951467514038,	-1.1821659803390503,	1.7416070699691772
04.11.2016 01:44:24,	1.129098892211914,	2.150893211364746,	-1.9721100330352783,	0.7914826273918152,	-1.1831986904144287,	-2.2929553985595703
04.11.2016 01:44:25,	2.0481491088867188,	-0.15774917602539063,	3.128709077835083,	0.37007108330726624,	-1.1120880842208862,	-2.688339948654175
04.11.2016 01:44:25,	1.779313325881958,	-1.3200592994689941,	0.6720173358917236,	1.5368009805679321,	-1.1901724338531494,	-1.6910899877548218
04.11.2016 01:44:25,	5.528276443481445,	4.623288154602051,	-1.788835048675537,	1.063231110572815,	-1.1307377815246582,	-2.259422540664673
04.11.2016 01:44:25,	-1.510329246520996,	-0.04250526428222656,	2.856987476348877,	0.9206713438034058,	-1.020226240158081,	-2.2123308181762695
04.11.2016 01:44:25,	-0.28580546379089355,	-1.1337270736694336,	1.2060346603393555,	0.2525987923145294,	-1.4534714221954346,	-2.399468183517456
04.11.2016 01:44:26,	4.524947643280029,	7.314509391784668,	0.49422621726989746,	0.15105293691158295,	-1.253820538520813,	-2.4648380279541016
04.11.2016 01:44:26,	-0.3689535856246948,	1.5398826599121094,	-1.0639002323150635,	1.03300142288208,	-1.1322553157806396,	-1.9522833824157715
04.11.2016 01:44:26,	2.9586739540100098,	-0.7837362289428711,	-0.9722650051116943,	-0.5135502815246582,	-1.1387784481048584,	-2.7621910572052
04.11.2016 01:44:26,	1.0978481769561768,	5.208239555358887,	-0.9418148994445801,	1.3948359489440918,	-0.9318453669548035,	-2.268813371658325
04.11.2016 01:44:26,	2.283520460128784,	-2.694427490234375,	1.1147010326385498,	-0.1502448469400406,	-1.2103734016418457,	-2.4787039756774902
04.11.2016 01:44:27,	0.7468936443328857,	-0.8939914703369141,	1.190832495689392,	1.5077224969863892,	-0.8762392401695251,	-2.068068742752075
04.11.2016 01:44:27,	-0.10080194473266602,	-1.738478183746338,	3.895473003387451,	0.3313603401184082,	-1.1630216836929321,	-2.1561074256896973
04.11.2016 01:44:27,	-1.1779086589813232,	-2.8523359298706055,	1.725139856338501,	1.4434587955474854,	-1.2197703123092651,	-1.3108867406845093
04.11.2016 01:44:27,	1.550980806350708,	0.6673545837402344,	0.33770179748535156,	-0.04522160068154335,	-1.285606861114502,	-2.467214584350586
04.11.2016 01:44:27,	-4.019365310668945,	-0.10719776153564453,	3.376518726348877,	0.4107605218887329,	-1.1492018699645996,	-2.255978584289551
04.11.2016 01:44:28,	1.45691978931427,	-2.46028470993042,	-0.498823881149292,	-2.6014010906219482,	-1.3841516971588135,	1.3266783952713013
04.11.2016 01:44:28,	0.9360530376434326,	1.8234624862670898,	-2.0446107387542725,	0.3195731043815613,	-0.9308045506477356,	-2.376561403274536
04.11.2016 01:44:28,	0.8987619876861572,	0.3437490463256836,	5.161092281341553,	-0.37874311208724976,	-1.059101939201355,	-2.5670156478881836
04.11.2016 01:44:28,	0.7848232984542847,	-2.425426959991455,	2.0409750938415527,	1.7429847717285156,	-1.1863455772399902,	-1.1289379596710205
04.11.2016 01:44:28,	3.515383243560791,	6.106152534484863,	-0.6817138195037842,	1.0810481309890747,	-1.1546406745910645,	-1.932417869567871
04.11.2016 01:44:29,	-3.255035400390625,	-0.23728466033935547,	2.950723886489868,	0.6506320238113403,	-1.146267294883728,	-2.1610543727874756
04.11.2016 01:44:29,	-0.7598282098770142,	1.2309226989746094,	-0.3532290458679199,	-1.6881810426712036,	-1.524476170539856,	2.1567094326019287
04.11.2016 01:44:29,	2.6678426265716553,	4.8284807205200195,	-0.05756187438964844,	-0.2579179108142853,	-1.2272987365722656,	-2.5996055603027344
04.11.2016 01:44:29,	0.5612409114837646,	-0.6214427947998047,	1.2249187231063843,	0.7793660163879395,	-1.1483882665634155,	-2.0330631732940674
04.11.2016 01:44:29,	1.609656810760498,	-1.7098884582519531,	0.6255097389221191,	0.7369868159294128,	-1.170703411102295,	-2.1470932960510254
04.11.2016 01:44:30,	1.819983720779419,	7.055940628051758,	-1.391679286956787,	1.0873339176177979,	-1.0764156579971313,	-2.0755932331085205
04.11.2016 01:44:30,	1.7587368488311768,	-1.7400970458984375,	1.983687162399292,	0.21339763700962067,	-1.2269810438156128,	-2.3532028198242188
04.11.2016 01:44:30,	-0.932449221611023,	0.3028421401977539,	0.2735404968261719,	1.505189061164856,	-1.0167886018753052,	-1.7235463857650757
04.11.2016 01:44:30,	-0.10647892951965332,	1.1034870147705078,	1.840900182723999,	0.03841307759284973,	-1.2880313396453857,	-2.430122137069702
04.11.2016 01:44:30,	-1.6520785093307495,	-1.0942811965942383,	0.517664909362793,	0.9424695372581482,	-1.2881473302841187,	-1.7781771421432495
04.11.2016 01:44:31,	1.7141883373260498,	0.4664573669433594,	-1.0901463031768799,	-0.15631422400474548,	-1.3406070470809937,	-2.656558036804199
04.11.2016 01:44:31,	-5.070651054382324,	-0.1575298309326172,	3.7895073890686035,	0.5849263072013855,	-1.0929070711135864,	-2.286869525909424
04.11.2016 01:44:31,	0.8813149929046631,	-2.362128734588623,	-1.6470425128936768,	-2.8731157779693604,	-1.2738275527954102,	0.9898120164871216
04.11.2016 01:44:31,	-0.3009021282196045,	1.9499950408935547,	-2.10959529876709,	0.13250604271888733,	-0.9362884759902954,	-2.4288530349731445
04.11.2016 01:44:31,	0.8036270141601563,	0.8003044128417969,	4.921794414520264,	-0.4051230549812317,	-1.129907250404358,	-2.6317431926727295
04.11.2016 01:44:32,	0.3392972946166992,	-2.400050640106201,	1.2026140689849854,	1.844131350517273,	-1.1689399480819702,	-1.0054845809936523
04.11.2016 01:44:32,	2.8074920177459717,	1.506495475769043,	0.711946964263916,	0.99699467420578,	-1.1743175983428955,	-1.9189622402191162
04.11.2016 01:44:32,	-5.071861267089844,	0.3771505355834961,	3.1215007305145264,	1.1260594129562378,	-1.0903902053833008,	-1.8791146278381348
04.11.2016 01:44:32,	-1.3379011154174805,	-1.5800714492797852,	0.6408376693725586,	-2.7238025665283203,	-1.3316010236740112,	1.1853268146514893
04.11.2016 01:44:32,	1.370154619216919,	6.250126838684082,	-0.9930927753448486,	0.02947944402694702,	-1.3411669731140137,	-2.407588481903076
04.11.2016 01:44:33,	0.6303508281707764,	0.3867015838623047,	1.5130641460418701,	0.3363276720046997,	-1.2492494583129883,	-2.209429979324341
04.11.2016 01:44:33,	1.2881832122802734,	-1.029012680053711,	0.22688448429107666,	0.9338775277137756,	-1.236180067062378,	-1.8574795722961426
04.11.2016 01:44:33,	2.8994877338409424,	6.178872108459473,	-2.3960013389587402,	0.9414029121398926,	-1.127748727798462,	-2.0260276794433594
04.11.2016 01:44:33,	-3.751194953918457,	-0.9978046417236328,	2.5070273876190186,	0.3290686011314392,	-1.1444628238677979,	-2.276643753051758
04.11.2016 01:44:33,	0.11425590515136719,	-0.4796581268310547,	0.5182324647903442,	-2.9728610515594482,	-1.4770164489746094,	0.8810114860534668
04.11.2016 01:44:34,	0.9464921951293945,	2.4075536727905273,	0.9044307470321655,	0.6722285747528076,	-1.2143372297286987,	-2.00525164604187
04.11.2016 01:44:34,	-1.0171759128570557,	-0.8433246612548828,	-0.10966968536376953,	0.9358759522438049,	-1.221490740776062,	-1.8085018396377563
04.11.2016 01:44:34,	2.17165470123291,	-0.38599586486816406,	-1.4195057153701782,	0.1596723049879074,	-1.2538535594940186,	-2.397521495819092
04.11.2016 01:44:34,	0.4020073413848877,	2.3879222869873047,	-1.1193838119506836,	1.0049611330032349,	-1.0149461030960083,	-2.180605888366699
04.11.2016 01:44:34,	2.019042730331421,	-1.9953680038452148,	-1.0829274654388428,	0.22098274528980255,	-1.1876850128173828,	-2.3193905353546143
04.11.2016 01:44:35,	-0.8942999839782715,	0.11213397979736328,	-0.3885713815689087,	1.4008560180664063,	-0.8674982786178589,	-2.123392105102539
04.11.2016 01:44:35,	-0.46270132064819336,	-1.0018949508666992,	2.1969642639160156,	0.1506703644990921,	-1.2584184408187866,	-2.3249590396881104
04.11.2016 01:44:35,	-1.8971489667892456,	-1.640091896057129,	1.4799041748046875,	1.3282771110534668,	-1.2435100078582764,	-1.4755855798721313
04.11.2016 01:44:35,	0.6423041820526123,	-0.49433422088623047,	-0.20003914833068848,	0.731820821762085,	-1.4315987825393677,	-1.8884316682815552
04.11.2016 01:44:35,	-0.7707786560058594,	-0.6126871109008789,	0.7794647216796875,	0.7659713625907898,	-1.1683681011199951,	-2.1203596591949463
04.11.2016 01:44:36,	0.7283082008361816,	-2.4689884185791016,	-1.5178163051605225,	0.6670511960983276,	-1.2711925506591797,	-2.0208539962768555
04.11.2016 01:44:36,	-0.5136029720306396,	-0.1333627700805664,	-0.218237042427063,	0.624152660369873,	-0.8924176096916199,	-2.329937219619751
04.11.2016 01:44:36,	-0.8167502880096436,	0.12932872772216797,	1.4035112857818604,	0.40436217188835144,	-1.1914844512939453,	-2.201991081237793
04.11.2016 01:44:36,	-1.643457293510437,	0.1820240020751953,	0.6282389163970947,	0.8620243668556213,	-1.2697579860687256,	-1.8511208295822144
04.11.2016 01:44:36,	0.22428250312805176,	-0.8383722305297852,	0.33644425868988037,	0.14975856244564056,	-1.332226276397705,	-2.4212005138397217
04.11.2016 01:44:37,	0.6881740093231201,	4.946463584899902,	-1.3018786907196045,	0.6751320958137512,	-1.1673858165740967,	-2.157345771789551
04.11.2016 01:44:37,	0.35594654083251953,	1.2887897491455078,	0.3876526355743408,	0.16164986789226532,	-1.1997370719909668,	-2.385786533355713
04.11.2016 01:44:37,	-0.37709879875183105,	0.3686065673828125,	0.8896404504776001,	0.7197450399398804,	-1.225048542022705,	-1.974073886871338
04.11.2016 01:44:37,	-1.2695444822311401,	-0.16022491455078125,	0.4284486770629883,	0.4657796025276184,	-1.2460508346557617,	-2.177727460861206
04.11.2016 01:44:37,	-0.21399760246276855,	0.0685567855834961,	0.1950054168701172,	0.09721975028514862,	-1.2746816873550415,	-2.434002161026001
04.11.2016 01:44:38,	-1.6018242835998535,	3.167057991027832,	0.27063536643981934,	0.3663821518421173,	-1.22892427444458,	-2.2473065853118896
04.11.2016 01:44:38,	2.7055258750915527,	-0.03713035583496094,	-1.574638843536377,	1.5324937105178833,	-1.4590791463851929,	-2.8314709663391113
04.11.2016 01:44:38,	-0.015578269958496094,	-4.3694748878479,	0.7254676818847656,	0.5832505822181702,	-1.3820104598999023,	0.765204131603241
04.11.2016 01:44:38,	0.3127197027206421,	-0.5622396469116211,	2.249053955078125,	3.007937431335449,	0.11012391746044159,	0.227303609251976
04.11.2016 01:44:38,	0.1695796400308609,	0.9511699676513672,	2.503706932067871,	-2.9861221313476563,	-0.37083902955055237,	-0.08408650755882263
04.11.2016 01:44:39,	1.3694088459014893,	1.173469066619873,	-1.7212390899658203,	-3.131164073944092,	-0.42818009853363037,	0.01218486949801445
04.11.2016 01:44:39,	-0.7447249293327332,	-0.43502378463745117,	-0.7254743576049805,	-3.070756435394287,	-0.7250341176986694,	-0.1957254409790039
04.11.2016 01:44:39,	0.21308571100234985,	-0.27051353454589844,	-0.638725757598877,	2.9596102237701416,	-0.525179386138916,	0.005651406478136778
