Timestamp,	AccX,	AccY,	AccZ,	OrienX,	OrienY,	OrienZ
04.11.2016 01:43:43,	-0.012618422508239746,	0.1255035400390625,	0.0504910945892334,	0.1328413188457489,	-1.1776950359344482,	0.24494054913520813
04.11.2016 01:43:44,	0.48699796199798584,	0.11201095581054688,	1.072824478149414,	-0.2105587124824524,	-1.0011080503463745,	-0.02317993901669979
04.11.2016 01:43:44,	1.4226531982421875,	-1.1213622093200684,	0.8175168037414551,	-0.6285590529441833,	-0.9270700812339783,	-0.18249687552452087
04.11.2016 01:43:44,	0.9726540446281433,	-0.017350196838378906,	0.44130754470825195,	-0.27574217319488525,	-0.877656102180481,	-0.08147286623716354
04.11.2016 01:43:44,	1.2289738655090332,	1.7483148574829102,	-0.18580102920532227,	-0.1982736438512802,	-0.8945735692977905,	-0.0790058821439743
04.11.2016 01:43:44,	0.5116501450538635,	-1.1605329513549805,	1.39253568649292,	3.313574125058949E-4,	-0.6078787446022034,	0.035889800637960434
04.11.2016 01:43:45,	0.7824920415878296,	-0.8424649238586426,	-1.1562047004699707,	-0.01944896951317787,	-0.8586892485618591,	0.005578589625656605
04.11.2016 01:43:45,	1.5089964866638184,	-0.5193700790405273,	0.07065868377685547,	-0.22377052903175354,	-0.7858967185020447,	-0.09164080768823624
04.11.2016 01:43:45,	0.7081844806671143,	2.0005688667297363,	1.19419527053833,	0.18430167436599731,	-0.7903519868850708,	0.10196903347969055
04.11.2016 01:43:45,	0.4386237859725952,	-0.2944669723510742,	1.0441389083862305,	0.25796693563461304,	-0.9046033620834351,	0.20319455862045288
04.11.2016 01:43:45,	1.5652767419815063,	-0.3932981491088867,	1.3087563514709473,	-0.33519500494003296,	-0.8903137445449829,	-0.0630309134721756
04.11.2016 01:43:46,	1.1386393308639526,	-0.5664258003234863,	-0.9490938186645508,	-0.2259591966867447,	-0.9853019714355469,	-0.14285248517990112
04.11.2016 01:43:46,	1.6002589464187622,	0.08449125289916992,	1.8847460746765137,	-0.23231343924999237,	-0.8078402876853943,	0.1582377851009369
04.11.2016 01:43:46,	0.4591941833496094,	-0.051260948181152344,	1.7801523208618164,	0.034628428518772125,	-0.6727869510650635,	0.21791931986808777
04.11.2016 01:43:46,	2.4014430046081543,	1.6574416160583496,	8.245536804199219,	-0.5145444273948669,	-0.5637699365615845,	-0.0826987698674202
04.11.2016 01:43:46,	0.43643832206726074,	-1.3876686096191406,	2.097421169281006,	0.20787961781024933,	-0.8396344184875488,	0.045162368565797806
04.11.2016 01:43:47,	2.3688528537750244,	-2.1734418869018555,	-1.5325675010681152,	-1.2320319414138794,	-1.4335894584655762,	-1.1185359954833984
04.11.2016 01:43:47,	4.692265033721924,	-2.4393463134765625,	-1.9862027168273926,	-2.713679552078247,	-1.0806447267532349,	-2.335340976715088
04.11.2016 01:43:47,	0.30421900749206543,	0.04737663269042969,	0.8975399732589722,	1.9716811180114746,	-1.3942227363586426,	1.8082914352416992
04.11.2016 01:43:47,	0.8737237453460693,	0.6040372848510742,	1.7213212251663208,	2.7335762977600098,	-1.3654024600982666,	2.77777361869812
04.11.2016 01:43:47,	3.8726963996887207,	-2.184016227722168,	-0.1056060791015625,	3.1281280517578125,	-0.9100688695907593,	-2.6641414165496826
04.11.2016 01:43:48,	-1.61798894405365,	9.677833557128906,	6.268906116485596,	1.5295424461364746,	-1.4350197315216064,	0.8592122197151184
04.11.2016 01:43:48,	0.23917964100837708,	-0.966862678527832,	-10.35158920288086,	2.8903565406799316,	-0.7943465709686279,	-3.109729051589966
04.11.2016 01:43:48,	1.831990361213684,	0.4712715148925781,	-5.229419708251953,	-3.113898754119873,	-1.1491317749023438,	-2.6637346744537354
04.11.2016 01:43:48,	1.2181034088134766,	-0.8876962661743164,	-4.095948219299316,	3.1395416259765625,	-1.1642296314239502,	-2.694174289703369
04.11.2016 01:43:48,	0.4019237160682678,	-0.24222755432128906,	-3.401566505432129,	-3.1007094383239746,	-1.236595869064331,	-2.868722915649414
04.11.2016 01:43:49,	1.5969970226287842,	-1.1663103103637695,	-3.3180103302001953,	-3.0180814266204834,	-1.115286946296692,	-2.564450263977051
04.11.2016 01:43:49,	1.047480821609497,	0.08201122283935547,	-3.229398250579834,	-2.971742630004883,	-1.1593796014785767,	-2.687366485595703
04.11.2016 01:43:49,	1.2567358016967773,	-1.1310157775878906,	-2.524794101715088,	-2.9322190284729004,	-1.1206284761428833,	-2.565284013748169
04.11.2016 01:43:49,	1.4751648902893066,	0.8720235824584961,	-2.956648111343384,	-2.9311025142669678,	-1.1649131774902344,	-2.5536630153656006
04.11.2016 01:43:49,	0.0065288543701171875,	-0.7464160919189453,	0.4448702931404114,	-2.5975754261016846,	-1.3924356698989868,	-2.1713502407073975
04.11.2016 01:43:50,	0.05929088592529297,	0.10240459442138672,	-0.8767629861831665,	-2.9289321899414063,	-1.2632263898849487,	-2.6210639476776123
04.11.2016 01:43:50,	1.72134268283844,	-1.2750205993652344,	-1.55415940284729,	-2.908017873764038,	-1.105201244354248,	-2.4078969955444336
04.11.2016 01:43:50,	2.6358585357666016,	2.387287139892578,	-2.8167152404785156,	-2.952799081802368,	-1.0994784832000732,	-2.4621169567108154
04.11.2016 01:43:50,	-3.3308820724487305,	-0.06186389923095703,	1.5204637050628662,	2.455242872238159,	-1.3633368015289307,	1.814605474472046
04.11.2016 01:43:50,	0.624521017074585,	-1.8383636474609375,	-0.07164216041564941,	-2.905717372894287,	-1.2476073503494263,	-2.3920044898986816
04.11.2016 01:43:51,	0.7413984537124634,	2.4671754837036133,	-2.653296947479248,	-3.044529914855957,	-1.1650375127792358,	-2.7066545486450195
04.11.2016 01:43:51,	2.4403505325317383,	0.8601341247558594,	0.6820565462112427,	-2.8717870712280273,	-1.1673409938812256,	-2.0251011848449707
04.11.2016 01:43:51,	1.8023853302001953,	-0.8740730285644531,	2.6035308837890625E-4,	-2.9182517528533936,	-1.1701033115386963,	-2.237438440322876
04.11.2016 01:43:51,	3.4810173511505127,	2.9819183349609375,	-1.4265797138214111,	-2.91281795501709,	-1.1134837865829468,	-2.249488353729248
04.11.2016 01:43:51,	-4.777716159820557,	0.2153635025024414,	1.8423783779144287,	2.661775588989258,	-1.2568320035934448,	1.755753517150879
04.11.2016 01:43:52,	0.5438219308853149,	-1.124542236328125,	0.10757088661193848,	-2.8050003051757813,	-1.2216531038284302,	-2.3233871459960938
04.11.2016 01:43:52,	3.213486671447754,	5.651457786560059,	-1.3416402339935303,	-2.759965181350708,	-1.1794309616088867,	-2.170766830444336
04.11.2016 01:43:52,	0.8454784154891968,	-0.3735466003417969,	1.5883736610412598,	-2.558044195175171,	-1.2744760513305664,	-1.8768507242202759
04.11.2016 01:43:52,	1.3715310096740723,	-1.387740135192871,	0.6059384346008301,	-2.7474467754364014,	-1.2016435861587524,	-2.111971378326416
04.11.2016 01:43:52,	3.812572479248047,	6.338652610778809,	-2.595707416534424,	-2.8808860778808594,	-1.1405153274536133,	-2.334108591079712
04.11.2016 01:43:53,	-1.456294059753418,	-0.9706354141235352,	1.504988431930542,	-2.905559539794922,	-1.404733657836914,	-2.6273553371429443
04.11.2016 01:43:53,	-0.5334295034408569,	-0.5553712844848633,	0.2025160789489746,	-2.9199562072753906,	-1.2614901065826416,	-2.5690643787384033
04.11.2016 01:43:53,	2.3586926460266113,	5.17678165435791,	-1.0298197269439697,	-2.813206195831299,	-1.1698026657104492,	-2.2403674125671387
04.11.2016 01:43:53,	-0.587006688117981,	-0.43717098236083984,	0.010798454284667969,	-2.9342870712280273,	-1.2085953950881958,	-2.7275381088256836
04.11.2016 01:43:53,	2.435896396636963,	-0.2847414016723633,	-0.04277205467224121,	-2.8445425033569336,	-1.0934157371520996,	-2.1957743167877197
04.11.2016 01:43:54,	-0.16582131385803223,	2.907435417175293,	0.12141942977905273,	-2.915982961654663,	-1.2994362115859985,	-2.632188320159912
04.11.2016 01:43:54,	2.177549123764038,	-1.313863754272461,	0.4865560531616211,	-2.863302230834961,	-1.000342845916748,	-2.102550745010376
04.11.2016 01:43:54,	-0.12393736839294434,	-0.3937530517578125,	-0.06528496742248535,	-2.883251190185547,	-1.2003836631774902,	-2.458059549331665
04.11.2016 01:43:54,	1.451913833618164,	3.3780012130737305,	0.6897592544555664,	-2.7155601978302,	-1.221022367477417,	-2.058375597000122
04.11.2016 01:43:54,	-0.45687103271484375,	-0.4017620086669922,	0.1337587833404541,	-2.92236065864563,	-1.1982603073120117,	-2.584062099456787
04.11.2016 01:43:55,	1.609554648399353,	-0.6315059661865234,	-0.32386279106140137,	-2.8752970695495605,	-1.0803829431533813,	-2.2954814434051514
04.11.2016 01:43:55,	-0.09899282455444336,	1.9129104614257813,	0.7745323181152344,	-2.7895262241363525,	-1.3052737712860107,	-2.382199287414551
04.11.2016 01:43:55,	1.6013193130493164,	-2.1406002044677734,	0.11940646171569824,	-2.8951666355133057,	-0.9362373352050781,	-2.1834495067596436
04.11.2016 01:43:55,	-0.43437862396240234,	-0.42966651916503906,	0.7558084726333618,	-2.773195505142212,	-1.246288776397705,	-2.302110433578491
04.11.2016 01:43:55,	-0.20037484169006348,	-1.5357003211975098,	3.574338674545288,	-2.4394593238830566,	-1.2443921566009521,	-1.3373180627822876
04.11.2016 01:43:56,	-0.3493318557739258,	-1.9343037605285645,	1.735080361366272,	-2.67170786857605,	-1.2741245031356812,	-2.1277458667755127
04.11.2016 01:43:56,	0.6007814407348633,	0.44594478607177734,	0.41073012351989746,	-2.8256170749664307,	-1.244199275970459,	-2.382866859436035
04.11.2016 01:43:56,	-2.3137762546539307,	-1.1564288139343262,	2.813476085662842,	2.5443062782287598,	-1.531612515449524,	2.4421653747558594
04.11.2016 01:43:56,	-0.5174453258514404,	-1.8368754386901855,	-0.26905322074890137,	-2.986731767654419,	-1.1296724081039429,	-2.702468156814575
04.11.2016 01:43:56,	-0.6416181325912476,	1.902963638305664,	-1.6460416316986084,	-2.975558280944824,	-1.1528997421264648,	-2.7760872840881348
04.11.2016 01:43:57,	0.48049449920654297,	-2.309353828430176,	4.9429030418396,	-2.774780511856079,	-1.072453498840332,	-1.0980924367904663
04.11.2016 01:43:57,	-0.4468177556991577,	-1.765477180480957,	1.4348140954971313,	-2.7168731689453125,	-1.2745921611785889,	-2.276154041290283
04.11.2016 01:43:57,	2.8885467052459717,	3.9875898361206055,	-0.67441725730896,	-2.7894623279571533,	-1.1282291412353516,	-2.1781578063964844
04.11.2016 01:43:57,	-4.473743438720703,	-0.12176132202148438,	2.701667308807373,	2.404494524002075,	-1.384521722793579,	1.6962696313858032
04.11.2016 01:43:57,	-1.164515733718872,	-1.0996408462524414,	1.5997779369354248,	-2.57283878326416,	-1.3886864185333252,	-2.1456563472747803
04.11.2016 01:43:58,	1.4686956405639648,	8.47452163696289,	0.9696871042251587,	-2.545182466506958,	-1.3321654796600342,	-1.9324443340301514
04.11.2016 01:43:58,	0.040637969970703125,	1.2276582717895508,	-2.7307186126708984,	-2.9859111309051514,	-1.1238751411437988,	-2.7148094177246094
04.11.2016 01:43:58,	1.4385664463043213,	-1.761793613433838,	-0.9650623798370361,	-2.9067981243133545,	-1.0102721452713013,	-2.2534308433532715
04.11.2016 01:43:58,	-0.38289427757263184,	2.468356132507324,	0.5478487014770508,	-2.6938424110412598,	-1.3833855390548706,	-2.2322134971618652
04.11.2016 01:43:58,	2.4261627197265625,	-0.4927196502685547,	-0.5345505475997925,	-2.877440929412842,	-1.017029047012329,	-2.0505692958831787
04.11.2016 01:43:59,	-0.1937696933746338,	-0.37154579162597656,	0.0066220760345458984,	-2.8433403968811035,	-1.250678539276123,	-2.303551197052002
04.11.2016 01:43:59,	-0.8068474531173706,	-1.9124131202697754,	2.555802822113037,	-2.259446620941162,	-1.3390637636184692,	-1.1019634008407593
04.11.2016 01:43:59,	-1.4845917224884033,	-3.170220375061035,	0.38577544689178467,	-2.9671781063079834,	-1.3145866394042969,	-2.6160407066345215
04.11.2016 01:43:59,	1.0686213970184326,	-0.22161293029785156,	-0.7030578851699829,	-2.9108948707580566,	-1.1568763256072998,	-2.2470195293426514
04.11.2016 01:43:59,	-4.063799858093262,	0.2018136978149414,	1.526586890220642,	2.1587140560150146,	-1.3911552429199219,	1.7210850715637207
04.11.2016 01:44:00,	0.20115041732788086,	-0.9142313003540039,	-1.5710350275039673,	-2.931814193725586,	-1.1345722675323486,	-2.537210464477539
04.11.2016 01:44:00,	-0.06856369972229004,	2.357328414916992,	-2.83274507522583,	-2.9513354301452637,	-1.1472171545028687,	-2.7042040824890137
04.11.2016 01:44:00,	1.5500807762145996,	-0.28175926208496094,	3.3722214698791504,	-2.3887319564819336,	-1.153126835823059,	-1.3029086589813232
04.11.2016 01:44:00,	0.7201120853424072,	-1.1024093627929688,	0.09403908252716064,	-2.6610727310180664,	-1.206237554550171,	-2.185441255569458
04.11.2016 01:44:00,	3.2622861862182617,	2.6276445388793945,	-1.068701982498169,	-2.696571111679077,	-1.0755279064178467,	-2.1300177574157715
04.11.2016 01:44:01,	-4.533904075622559,	-0.6226902008056641,	1.5205904245376587,	2.6647512912750244,	-1.294108510017395,	2.1836228370666504
04.11.2016 01:44:01,	-0.15476512908935547,	-0.7944259643554688,	-0.864037275314331,	-2.908121347427368,	-1.1375046968460083,	-2.600621223449707
04.11.2016 01:44:01,	-0.3575284481048584,	3.675135612487793,	-2.0559470653533936,	-2.9608731269836426,	-1.1581639051437378,	-2.730581521987915
04.11.2016 01:44:01,	1.1138782501220703,	-1.340348243713379,	3.42022967338562,	-2.8830978870391846,	-1.0875681638717651,	-1.744209885597229
04.11.2016 01:44:01,	-0.6027035713195801,	-0.6112642288208008,	1.3488245010375977,	-2.9055519104003906,	-1.3158183097839355,	-2.6151559352874756
04.11.2016 01:44:02,	1.6011080741882324,	-0.2505836486816406,	0.6160190105438232,	-2.736747980117798,	-1.2347619533538818,	-2.105733633041382
04.11.2016 01:44:02,	-1.2046260833740234,	1.728928565979004,	4.220260143280029,	-3.1407933235168457,	-1.4703264236450195,	-2.0589513778686523
04.11.2016 01:44:02,	0.2060222625732422,	-2.021627902984619,	-0.2686614990234375,	-3.085183620452881,	-0.7379786372184753,	-2.5851917266845703
04.11.2016 01:44:02,	-0.8343837261199951,	0.6108722686767578,	-0.08916378021240234,	-3.01786470413208,	-1.087819218635559,	-2.7172493934631348
04.11.2016 01:44:02,	0.5359607934951782,	3.102412223815918,	1.1578528881072998,	-2.0985326766967773,	-1.3839523792266846,	-1.444523572921753
04.11.2016 01:44:03,	-0.04912829399108887,	-0.21779727935791016,	0.8570535182952881,	-3.0005178451538086,	-1.109086513519287,	-2.4866394996643066
04.11.2016 01:44:03,	-0.09339761734008789,	-0.30532264709472656,	1.0927557945251465,	-2.674783706665039,	-1.1768100261688232,	-2.039344072341919
04.11.2016 01:44:03,	-0.8115251064300537,	-0.2692394256591797,	0.8875900506973267,	-2.439171314239502,	-1.2215089797973633,	-1.857452392578125
04.11.2016 01:44:03,	-0.0853261947631836,	0.9723324775695801,	0.025740623474121094,	-0.8385434150695801,	-0.8707069158554077,	-0.24572739005088806
04.11.2016 01:44:03,	0.8458970189094543,	-1.634570837020874,	0.9172554016113281,	-0.90294349193573,	-0.03821428492665291,	0.06558912247419357
04.11.2016 01:44:04,	-0.10532134771347046,	-0.12588649988174438,	-1.1446399688720703,	-0.8127931952476501,	-0.10529951006174088,	-0.08017122000455856
04.11.2016 01:44:04,	0.6219533085823059,	-0.6494708061218262,	1.0720977783203125,	-1.1057522296905518,	-0.06947591155767441,	-0.14682157337665558
04.11.2016 01:44:04,	0.19523945450782776,	0.2082822322845459,	3.3551025390625,	-0.9308415651321411,	-0.15937532484531403,	-0.03670107200741768
04.11.2016 01:44:04,	-0.8150124549865723,	-0.5534530878067017,	1.5810518264770508,	-0.9218230843544006,	-0.14570969343185425,	0.0919148400425911
04.11.2016 01:44:04,	-0.15052030980587006,	0.4357588291168213,	-1.2656669616699219,	-0.828259289264679,	-0.3998521566390991,	0.02481890842318535
04.11.2016 01:44:05,	-0.8364986181259155,	0.3090634346008301,	1.1390094757080078,	-0.7949418425559998,	-0.27784037590026855,	0.18187066912651062
04.11.2016 01:44:05,	-0.5099066495895386,	0.4449911117553711,	0.40465450286865234,	-0.8661324977874756,	-0.3833397924900055,	0.17618371546268463
04.11.2016 01:44:05,	-0.11615359783172607,	-0.46836400032043457,	-0.10326480865478516,	-1.1371005773544312,	-0.30487060546875,	0.18312275409698486
04.11.2016 01:44:05,	0.22035467624664307,	0.22658586502075195,	0.15343379974365234,	-1.16199791431427,	-0.4220617711544037,	0.07267901301383972
04.11.2016 01:44:05,	0.2043178677558899,	0.38791370391845703,	0.015030860900878906,	-1.1849772930145264,	-0.46457064151763916,	0.02737203799188137
04.11.2016 01:44:06,	0.1589260995388031,	-0.020366668701171875,	0.17973804473876953,	-1.2591819763183594,	-0.42895469069480896,	0.028299320489168167
