Index	Timestamp	AccX	AccY	AccZ	OrienX	OrienY	OrienZ	AverageAccX
1	14.11.2016_03.41.07	-5.016594886779785	-2.5653421878814697	0.8722533583641052	-0.3240235149860382	-0.7757892608642578	-1.6510213613510132	0.0
2	14.11.2016_03.41.07	-2.1001858711242676	-0.002731800079345703	0.7549997568130493	-0.7083157300949097	-0.6529392004013062	-1.8455092906951904	0.0
3	14.11.2016_03.41.07	-3.1384201049804688	-1.3821468353271484	0.19323647022247314	-0.49684494733810425	-0.7141464352607727	-1.7388637065887451	0.0
4	14.11.2016_03.41.08	-5.343439102172852	-3.981278419494629	-0.9855557680130005	-0.7138827443122864	-0.6828750371932983	-1.8679856061935425	0.0
5	14.11.2016_03.41.08	-3.263164520263672	-3.4069857597351074	2.1487958431243896	-1.4124696254730225	-0.4564444422721863	-2.3930745124816895	0.0
6	14.11.2016_03.41.08	2.2598280906677246	2.6997857093811035	1.6241085529327393	-0.15237483382225037	-0.5279607772827148	-1.5120567083358765	0.0
7	14.11.2016_03.41.08	3.837069511413574	6.444079875946045	-0.28801774978637695	-0.25562623143196106	-0.7210378050804138	-1.5967282056808472	0.0
8	14.11.2016_03.41.08	-2.946575164794922	0.2616119384765625	-0.654992938041687	-0.4383481740951538	-0.8190792202949524	-1.7397611141204834	0.0
9	14.11.2016_03.41.08	-3.7816624641418457	-2.601064443588257	-1.8520421981811523	-0.7359681725502014	-0.907770037651062	-2.0076398849487305	0.0
10	14.11.2016_03.41.08	-2.7331247329711914	-3.9450862407684326	0.48450684547424316	-1.4793349504470825	-0.6797614693641663	-2.3196752071380615	0.0
11	14.11.2016_03.41.08	-8.801129341125488	-2.156259536743164	2.6953234672546387	-1.2994648218154907	-0.529052734375	-1.8414301872253418	0.0
12	14.11.2016_03.41.08	7.0164337158203125	-4.758853435516357	0.04586613178253174	2.529646158218384	-1.1583722829818726	1.1110780239105225	0.0
13	14.11.2016_03.41.08	2.4323487281799316	0.5327053070068359	-0.5065228939056396	-2.129755973815918	-0.18110506236553192	-1.691867470741272	0.0
14	14.11.2016_03.41.08	2.4928789138793945	2.581251621246338	2.0603508949279785	-1.1194981336593628	-0.5860790014266968	-1.783180594444275	0.0
15	14.11.2016_03.41.08	3.897319793701172	1.293626308441162	3.339822292327881	-0.4673987030982971	-0.6836349964141846	-1.538764238357544	0.0
16	14.11.2016_03.41.08	8.328311920166016	-1.695307731628418	-1.13161039352417	-0.21414771676063538	-0.5359158515930176	-1.4112240076065063	0.0
17	14.11.2016_03.41.08	-5.710114479064941	0.016885757446289063	-1.8222018480300903	-1.996935248374939	-0.23446252942085266	-1.6934442520141602	0.0
18	14.11.2016_03.41.08	-0.7632427215576172	7.6243109703063965	1.833493709564209	-1.2798800468444824	-0.9581042528152466	-2.3403375148773193	0.0
19	14.11.2016_03.41.08	4.039597511291504	4.440025329589844	0.014650821685791016	-0.09470314532518387	-1.0427166223526	-1.4235317707061768	0.0
20	14.11.2016_03.41.08	1.8688220977783203	2.128598213195801	-0.9157983660697937	-0.5697806477546692	-0.7109358310699463	-1.6125810146331787	0.0
21	14.11.2016_03.41.08	1.9545626640319824	1.0505766868591309	-1.3979361057281494	-0.7675362825393677	-0.6986503005027771	-1.7152246236801147	0.0
22	14.11.2016_03.41.08	2.4737653732299805	3.2585434913635254	1.4991388320922852	-0.9336598515510559	-0.6395006775856018	-1.7692289352416992	0.0
23	14.11.2016_03.41.08	1.2527804374694824	1.1308894157409668	1.5944454669952393	-0.27588945627212524	-0.7617413997650146	-1.4868404865264893	0.0
24	14.11.2016_03.41.08	0.5447335243225098	-4.976922988891602	-1.9970629215240479	-0.26336708664894104	-0.7122505307197571	-1.4683231115341187	0.0
25	14.11.2016_03.41.08	-6.921612739562988	-8.838980674743652	-1.8335298299789429	-1.8623764514923096	-0.18125809729099274	-1.880598545074463	0.0
26	14.11.2016_03.41.08	-3.7891006469726563	-5.322948932647705	1.1677323579788208	-1.8092012405395508	0.8224959373474121	-2.8850600719451904	0.0
27	14.11.2016_03.41.08	-2.2936034202575684	-2.0818166732788086	2.865845203399658	-2.510828971862793	-0.07168293744325638	-1.5327385663986206	0.0
28	14.11.2016_03.41.08	-3.726043701171875	1.569654941558838	0.786704421043396	-0.7725194096565247	-0.4418729543685913	-1.2878401279449463	0.0
29	14.11.2016_03.41.08	0.3496837615966797	4.670377731323242	2.626112222671509	-0.5456126928329468	-0.920348048210144	-1.5556384325027466	0.0
30	14.11.2016_03.41.08	2.2793312072753906	4.687435150146484	-0.12028484791517258	-0.17338110506534576	-0.8179553151130676	-1.3237013816833496	0.0
31	14.11.2016_03.41.08	4.2419843673706055	3.4879331588745117	0.03658321499824524	-0.7039361596107483	-0.7840558886528015	-1.565577745437622	0.0
32	14.11.2016_03.41.08	3.4169607162475586	0.9389200210571289	-2.652358293533325	-0.8518414497375488	-0.6620559096336365	-1.5395317077636719	0.0
33	14.11.2016_03.41.08	1.2247347831726074	0.459505558013916	-1.1915785074234009	-1.4080778360366821	-0.5439339280128479	-1.7733917236328125	0.0
34	14.11.2016_03.41.08	0.8705520629882813	0.8303894996643066	1.5924686193466187	-1.1696447134017944	-0.6130983233451843	-1.6728920936584473	0.0
35	14.11.2016_03.41.08	-1.7763323783874512	0.5668573379516602	-0.07724974304437637	-0.4607025682926178	-0.6468077898025513	-1.3753029108047485	0.0
36	14.11.2016_03.41.08	-0.668940544128418	0.3073420524597168	-1.1001975536346436	-0.6727504134178162	-0.8126543760299683	-1.5680426359176636	0.0
37	14.11.2016_03.41.08	-2.737964630126953	0.3825860023498535	-1.4419000148773193	-0.9855635762214661	-0.7141410708427429	-1.7147836685180664	0.0
38	14.11.2016_03.41.08	-2.256882667541504	0.05939531326293945	-0.5323443412780762	-0.9590270519256592	-0.8845265507698059	-1.8470808267593384	0.0
39	14.11.2016_03.41.08	0.005273342132568359	-0.8639721870422363	1.4113574028015137	-0.7914875149726868	-0.8623029589653015	-1.6999034881591797	0.0
40	14.11.2016_03.41.08	0.9369163513183594	-0.7919654846191406	0.8851815462112427	-0.5349571108818054	-0.6391498446464539	-1.4118698835372925	0.0
41	14.11.2016_03.41.08	1.0181159973144531	-0.37151193618774414	1.8608413934707642	-0.7708922624588013	-0.5985202193260193	-1.4768861532211304	0.0
42	14.11.2016_03.41.08	2.2412657737731934	-0.6187405586242676	-0.7611021995544434	-0.3956497311592102	-0.6186962127685547	-1.3533984422683716	0.0
43	14.11.2016_03.41.08	1.8498659133911133	-0.9761333465576172	-0.06297162175178528	-1.172788143157959	-0.5413246154785156	-1.6312909126281738	0.0
44	14.11.2016_03.41.08	-0.05244159698486328	-0.725043773651123	0.4152899384498596	-1.12873375415802	-0.5136851668357849	-1.5540887117385864	0.0
45	14.11.2016_03.41.08	-0.6687636375427246	-0.213836669921875	-0.7219461798667908	-0.7771382331848145	-0.6079615950584412	-1.4880436658859253	0.0
46	14.11.2016_03.41.08	-0.9578886032104492	0.03484773635864258	0.5682733058929443	-1.1324354410171509	-0.6788012981414795	-1.6400340795516968	0.0
47	14.11.2016_03.41.08	-0.9981174468994141	0.9031424522399902	0.9456137418746948	-0.824421763420105	-0.7140216827392578	-1.4588342905044556	0.0
48	14.11.2016_03.41.08	-0.3600025177001953	2.4851059913635254	-1.4763097763061523	-0.6326487064361572	-0.7829448580741882	-1.4005924463272095	0.0
49	14.11.2016_03.41.08	0.40335893630981445	-0.04026508331298828	2.9356913566589355	-1.0223404169082642	-0.8525217175483704	-1.7271225452423096	0.0
50	14.11.2016_03.41.08	-0.17067623138427734	-0.7927227020263672	-1.2402675151824951	-0.3250146210193634	-0.6265295147895813	-1.1934295892715454	0.0
51	14.11.2016_03.41.09	-0.5827178955078125	-0.15145492553710938	0.41535645723342896	-1.2268688678741455	-0.6455138921737671	-1.682388424873352	0.0
52	14.11.2016_03.41.09	0.0061626434326171875	-1.0201411247253418	0.5897913575172424	-0.783443808555603	-0.7302684783935547	-1.4484777450561523	0.0
53	14.11.2016_03.41.09	0.04464101791381836	-1.3119392395019531	0.23111706972122192	-0.934231698513031	-0.6179243326187134	-1.4268070459365845	0.0
54	14.11.2016_03.41.09	-0.8411941528320313	0.4715132713317871	0.361339807510376	-1.0576637983322144	-0.5867651104927063	-1.461854338645935	0.0
55	14.11.2016_03.41.09	-0.7077794075012207	1.978682041168213	0.035365939140319824	-0.6450647711753845	-0.7825519442558289	-1.4087022542953491	0.0
56	14.11.2016_03.41.09	0.4892892837524414	2.326645851135254	-0.4623100459575653	-0.6046485900878906	-0.8779829740524292	-1.4417121410369873	0.0
57	14.11.2016_03.41.09	0.3074960708618164	0.32030439376831055	-0.5074261426925659	-0.7702105641365051	-0.8340859413146973	-1.5210574865341187	0.0
58	14.11.2016_03.41.09	1.3787832260131836	-1.9914484024047852	0.9607513546943665	-0.9142333269119263	-0.7328309416770935	-1.5332863330841064	0.0
59	14.11.2016_03.41.09	2.804640769958496	-1.4804835319519043	0.6363824605941772	-1.2025645971298218	-0.4862156808376312	-1.3839006423950195	0.0
60	14.11.2016_03.41.09	5.99996280670166	0.4034414291381836	0.545319676399231	-1.348132848739624	-0.4643877446651459	-1.44467031955719	0.0
61	14.11.2016_03.41.09	1.8089995384216309	1.6521964073181152	0.21122217178344727	-1.3889590501785278	-0.460340291261673	-1.4754756689071655	0.0
62	14.11.2016_03.41.09	-5.872296333312988	1.781261920928955	-1.382027506828308	-0.9118966460227966	-0.6691305041313171	-1.4685261249542236	0.0
63	14.11.2016_03.41.09	-6.02035665512085	7.144291877746582	-1.4124741554260254	-0.8821229338645935	-1.3254151344299316	-1.897790551185608	0.0
64	14.11.2016_03.41.09	2.235718250274658	-1.7877793312072754	0.5368697643280029	-0.9882805347442627	-1.458282709121704	-2.011680841445923	0.0
65	14.11.2016_03.41.09	-4.698312759399414	-5.47768497467041	-1.636324405670166	-1.1185599565505981	-0.5946774482727051	-1.4576897621154785	0.0
66	14.11.2016_03.41.09	-4.1461896896362305	-4.643464088439941	-1.6891661882400513	-1.5508790016174316	-0.8044880032539368	-2.212472677230835	0.0
67	14.11.2016_03.41.09	-6.210963249206543	-4.730956554412842	-0.6519189476966858	-1.4463406801223755	-0.8792746663093567	-2.141101598739624	0.0
68	14.11.2016_03.41.09	-4.389267444610596	-2.2193260192871094	-0.16717377305030823	-2.2530150413513184	-1.3825658559799194	3.016167640686035	0.0
69	14.11.2016_03.41.09	7.971491813659668	4.256563186645508	3.8839058876037598	-0.8468924164772034	-1.306604266166687	-1.813489317893982	0.0
70	14.11.2016_03.41.09	12.575368881225586	6.5238356590271	4.512120246887207	-0.6221946477890015	-0.7333743572235107	-1.3184127807617188	0.0
71	14.11.2016_03.41.09	1.7376232147216797	-0.7485032081604004	1.5352444648742676	-0.7838679552078247	-0.648942232131958	-1.3308829069137573	0.0
72	14.11.2016_03.41.09	-1.0363101959228516	-1.5543904304504395	-1.5452401638031006	-0.7247353196144104	-0.6611567139625549	-1.3140760660171509	0.0
73	14.11.2016_03.41.09	-0.19694995880126953	0.5662369728088379	-1.709623098373413	-1.181726336479187	-0.7729402184486389	-1.6732715368270874	0.0
74	14.11.2016_03.41.09	-5.609156131744385	3.7417654991149902	0.21904832124710083	-1.0879820585250854	-0.851868212223053	-1.6757677793502808	0.0
75	14.11.2016_03.41.09	0.7306461334228516	1.8772287368774414	5.040519714355469	0.23615947365760803	-1.4174139499664307	-0.8247238397598267	0.0
76	14.11.2016_03.41.09	4.644833087921143	-5.360720634460449	-9.264647483825684	0.3695378601551056	-0.8037213087081909	-0.8868551254272461	0.0
77	14.11.2016_03.41.09	1.27077054977417	-2.2777156829833984	-1.3587898015975952	-1.9575774669647217	-0.17459848523139954	-2.2277579307556152	0.0
78	14.11.2016_03.41.09	-1.223048210144043	-0.43964338302612305	2.152064085006714	-1.5397032499313354	-0.5495064854621887	-1.7310700416564941	0.0
79	14.11.2016_03.41.09	-0.7402286529541016	0.7462821006774902	1.646151065826416	-0.5078945755958557	-0.8112867474555969	-1.2653030157089233	0.0
80	14.11.2016_03.41.09	-0.45023059844970703	1.816474437713623	0.4070892632007599	-0.6294193863868713	-0.860219419002533	-1.3584386110305786	0.0
81	14.11.2016_03.41.09	0.2643871307373047	0.0228271484375	-1.3974636793136597	-0.8274564743041992	-0.918087899684906	-1.5281723737716675	0.0
82	14.11.2016_03.41.09	1.609135627746582	-1.1211695671081543	-2.642625570297241	-1.319549798965454	-0.7578890919685364	-1.7686073780059814	0.0
83	14.11.2016_03.41.09	1.3542046546936035	-1.1296935081481934	-1.3925397396087646	-1.6201339960098267	-0.5793611407279968	-1.883442759513855	0.0
84	14.11.2016_03.41.09	0.705113410949707	-1.0971035957336426	-0.12214827537536621	-1.5481276512145996	-0.5933948755264282	-1.7822134494781494	0.0
85	14.11.2016_03.41.09	0.17720890045166016	-0.2540740966796875	-0.7307671904563904	-1.439679741859436	-0.6198399066925049	-1.6773860454559326	0.0
86	14.11.2016_03.41.09	-4.687073707580566	0.6445760726928711	-1.6323180198669434	-1.4201855659484863	-0.6936549544334412	-1.7894823551177979	0.0
87	14.11.2016_03.41.09	3.5700864791870117	0.26300525665283203	-0.4575486183166504	-1.587357759475708	-1.0849887132644653	-2.387876272201538	0.0
88	14.11.2016_03.41.09	0.41742372512817383	-1.6574115753173828	-0.30926644802093506	-1.5594394207000732	-0.5716701149940491	-1.7490904331207275	0.0
89	14.11.2016_03.41.09	0.31349849700927734	-1.225548267364502	-0.7805111408233643	-1.5864996910095215	-0.5771393775939941	-1.812787652015686	0.0
90	14.11.2016_03.41.09	0.20466041564941406	-1.3775548934936523	0.06968224048614502	-1.5956758260726929	-0.5962275266647339	-1.8735167980194092	0.0
91	14.11.2016_03.41.09	-0.155517578125	-0.7405972480773926	0.2978290319442749	-1.59877610206604	-0.5798197388648987	-1.773019552230835	0.0
92	14.11.2016_03.41.09	-1.651627540588379	0.24785375595092773	0.36110174655914307	-1.4845449924468994	-0.6411880254745483	-1.7470420598983765	0.0
93	14.11.2016_03.41.09	-1.881202220916748	1.7897791862487793	1.765326738357544	-1.2166701555252075	-0.82257080078125	-1.7565401792526245	0.0
94	14.11.2016_03.41.09	-1.00248384475708	2.4427542686462402	2.2368662357330322	-0.673198401927948	-0.9577080011367798	-1.4853395223617554	0.0
95	14.11.2016_03.41.09	-0.47304248809814453	2.464543342590332	0.8413538932800293	-0.5203253626823425	-0.940724790096283	-1.3837628364562988	0.0
96	14.11.2016_03.41.09	0.0654301643371582	1.2978472709655762	-0.27374348044395447	-0.7789859175682068	-0.947181224822998	-1.546746015548706	0.0
97	14.11.2016_03.41.09	1.5046792030334473	-0.21351289749145508	-0.480283260345459	-1.0483624935150146	-0.8769161701202393	-1.676930546760559	0.0
98	14.11.2016_03.41.10	1.0236153602600098	-0.7569680213928223	-0.10423493385314941	-1.31648850440979	-0.7057489156723022	-1.6781800985336304	0.0
99	14.11.2016_03.41.10	0.48793935775756836	-0.6792445182800293	0.19742560386657715	-1.276099443435669	-0.70320725440979	-1.6347291469573975	0.0
100	14.11.2016_03.41.10	0.5291223526000977	-0.01878499984741211	0.22045515477657318	-1.1982700824737549	-0.7408080101013184	-1.5971457958221436	0.0
101	14.11.2016_03.41.10	1.265660285949707	0.6657500267028809	-0.14498686790466309	-1.1266674995422363	-0.7773532271385193	-1.5932867527008057	0.0
102	14.11.2016_03.41.10	2.0507054328918457	1.2194223403930664	-0.1892344355583191	-1.1952747106552124	-0.767615020275116	-1.6348494291305542	0.0
103	14.11.2016_03.41.10	2.529984951019287	2.0786261558532715	0.6319755911827087	-1.223313808441162	-0.7505362033843994	-1.633316159248352	0.0
104	14.11.2016_03.41.10	2.6922521591186523	3.198780059814453	1.4445888996124268	-1.072144627571106	-0.7695164084434509	-1.5428485870361328	0.0
105	14.11.2016_03.41.10	1.4208049774169922	3.524847984313965	2.3975296020507813	-0.8550500273704529	-0.812346875667572	-1.4561759233474731	0.0
106	14.11.2016_03.41.10	-0.07612371444702148	3.1722617149353027	2.2362992763519287	-0.482930451631546	-0.8834185600280762	-1.3175163269042969	0.0
107	14.11.2016_03.41.10	-1.323988914489746	2.147245407104492	0.8522018194198608	-0.2890825569629669	-0.958163321018219	-1.2508454322814941	0.0
108	14.11.2016_03.41.10	-2.9715616703033447	0.2900090217590332	-0.29300329089164734	-0.4182050824165344	-1.034706473350525	-1.351492166519165	0.0
109	14.11.2016_03.41.10	-3.1615705490112305	-0.7735624313354492	-0.3990788757801056	-0.6771735548973083	-1.1380363702774048	-1.4894894361495972	0.0
110	14.11.2016_03.41.10	-2.3892407417297363	-1.1992950439453125	-0.7710816860198975	-0.6521815657615662	-1.1502878665924072	-1.4781767129898071	0.0
111	14.11.2016_03.41.10	-1.1549830436706543	-1.0896177291870117	-0.9020498991012573	-0.863778829574585	-1.0833570957183838	-1.592665672302246	0.0
112	14.11.2016_03.41.10	-0.31635189056396484	-1.1008110046386719	-0.8734548091888428	-1.0210002660751343	-0.9890574812889099	-1.6324399709701538	0.0
113	14.11.2016_03.41.10	-0.015705585479736328	-1.1003713607788086	-0.3601323366165161	-1.121374487876892	-0.9219134449958801	-1.642378807067871	0.0
114	14.11.2016_03.41.10	0.16112422943115234	-1.0826258659362793	0.1010662317276001	-1.066206455230713	-0.8980706334114075	-1.5705806016921997	0.0
115	14.11.2016_03.41.10	0.45003557205200195	-1.448312759399414	-0.2185152769088745	-1.010863184928894	-0.8776988387107849	-1.5063360929489136	0.0
116	14.11.2016_03.41.10	0.7062430381774902	-1.9216241836547852	-0.49525186419487	-1.1969473361968994	-0.8175963759422302	-1.5706011056900024	0.0
117	14.11.2016_03.41.10	0.5144672393798828	-2.139425277709961	-0.4064570963382721	-1.3885642290115356	-0.7398593425750732	-1.621541142463684	0.0
118	14.11.2016_03.41.10	-0.4109363555908203	-1.9447531700134277	0.5990322828292847	-1.4497191905975342	-0.7040295004844666	-1.6201906204223633	0.0
119	14.11.2016_03.41.10	-0.5528063774108887	-1.143364429473877	0.7183946371078491	-1.1979649066925049	-0.7524147629737854	-1.4687799215316772	0.0
120	14.11.2016_03.41.10	-0.6355838775634766	-0.03935098648071289	-0.14362220466136932	-1.0669060945510864	-0.7983621954917908	-1.443185567855835	0.0
121	14.11.2016_03.41.10	-0.7553820610046387	-0.7671394348144531	-1.9268507957458496	-1.1147916316986084	-0.8700121641159058	-1.5711932182312012	0.0
122	14.11.2016_03.41.10	-1.1356472969055176	-1.7755951881408691	-3.2674448490142822	-1.5023725032806396	-0.7956109046936035	-1.8568803071975708	0.0
123	14.11.2016_03.41.10	-1.0437626838684082	-2.600269317626953	-1.935840129852295	-1.763900876045227	-0.6854779124259949	-2.09601092338562	0.0
124	14.11.2016_03.41.10	-0.6311893463134766	-2.0887107849121094	-0.027366995811462402	-1.769035816192627	-0.6172518134117126	-1.9764659404754639	0.0
125	14.11.2016_03.41.10	-0.09852313995361328	-1.0024070739746094	0.32375818490982056	-1.6210514307022095	-0.6479758024215698	-1.7406542301177979	0.0
126	14.11.2016_03.41.10	1.1083645820617676	0.4116535186767578	0.3325716257095337	-1.5347914695739746	-0.6905064582824707	-1.704450011253357	0.0
127	14.11.2016_03.41.10	2.166656494140625	1.8290395736694336	0.1728733777999878	-1.5076936483383179	-0.7075232267379761	-1.6880829334259033	0.0
128	14.11.2016_03.41.10	1.5189661979675293	1.955195426940918	-0.39000117778778076	-1.4727047681808472	-0.7295539975166321	-1.6862083673477173	0.0
129	14.11.2016_03.41.10	1.681386947631836	2.097773551940918	-0.8820445537567139	-1.4759693145751953	-0.7620159387588501	-1.7502762079238892	0.0
130	14.11.2016_03.41.10	4.10506010055542	3.2022018432617188	0.23415517807006836	-1.5250216722488403	-0.7533090710639954	-1.8000324964523315	0.0
131	14.11.2016_03.41.10	4.575740337371826	5.377270221710205	2.5838966369628906	-1.4930803775787354	-0.7042821049690247	-1.661228060722351	0.0
132	14.11.2016_03.41.10	1.8186979293823242	2.9739365577697754	3.689469337463379	-1.153238296508789	-0.7804317474365234	-1.4605379104614258	0.0
133	14.11.2016_03.41.10	-0.7084956169128418	0.10357952117919922	3.4243836402893066	-0.8534618020057678	-0.784100353717804	-1.2845242023468018	0.0
134	14.11.2016_03.41.10	-0.45717716217041016	-1.0125117301940918	2.627300500869751	-0.5811902284622192	-0.7566707730293274	-1.1527255773544312	0.0
135	14.11.2016_03.41.10	0.19168710708618164	-1.0143852233886719	2.506718635559082	-0.9570016264915466	-0.6738076210021973	-1.1940099000930786	0.0
136	14.11.2016_03.41.10	0.38247013092041016	-0.2776212692260742	2.083993673324585	-0.8352043032646179	-0.6301832795143127	-1.1799577474594116	0.0
137	14.11.2016_03.41.10	0.01683187484741211	0.18459701538085938	0.8697032928466797	-0.7144297957420349	-0.6705570816993713	-1.1848450899124146	0.0
138	14.11.2016_03.41.10	-1.1064362525939941	0.15110254287719727	-1.3645821809768677	-0.7728637456893921	-0.7377882599830627	-1.2680929899215698	0.0
139	14.11.2016_03.41.10	-1.7358107566833496	-0.2532968521118164	-2.3103604316711426	-1.036557674407959	-0.8421922922134399	-1.532077670097351	0.0
140	14.11.2016_03.41.10	-2.2144060134887695	-0.8447980880737305	-1.8304136991500854	-1.1944708824157715	-0.8687813878059387	-1.6942108869552612	0.0
141	14.11.2016_03.41.10	-2.5183539390563965	-1.2495827674865723	-0.7173655033111572	-1.1147748231887817	-0.8858485817909241	-1.6432961225509644	0.0
142	14.11.2016_03.41.10	-2.198625087738037	-1.5508594512939453	-0.5700967311859131	-0.8440722823143005	-0.9045025706291199	-1.4587606191635132	0.0
143	14.11.2016_03.41.10	-1.6940484046936035	-2.0462212562561035	-0.5067319869995117	-0.9130523204803467	-0.868119478225708	-1.4715406894683838	0.0
144	14.11.2016_03.41.10	-0.8778371810913086	-2.2659435272216797	-0.34443071484565735	-1.066735029220581	-0.7901841998100281	-1.4929077625274658	0.0
145	14.11.2016_03.41.10	0.009898662567138672	-1.6992340087890625	-0.14806246757507324	-1.0862962007522583	-0.7018786668777466	-1.4911229610443115	0.0
146	14.11.2016_03.41.11	0.5288271903991699	-1.1883606910705566	-0.23904597759246826	-1.114006519317627	-0.6811872124671936	-1.4817181825637817	0.0
147	14.11.2016_03.41.11	0.576444149017334	-1.1742005348205566	-0.6751572489738464	-1.1588504314422607	-0.6748932600021362	-1.505369782447815	0.0
148	14.11.2016_03.41.11	0.2348623275756836	-1.002427577972412	-0.8900320529937744	-1.2743823528289795	-0.6540244817733765	-1.5685595273971558	0.0
149	14.11.2016_03.41.11	0.2684502601623535	-0.6442275047302246	-0.7760165929794312	-1.290265679359436	-0.6676402688026428	-1.6076467037200928	0.0
150	14.11.2016_03.41.11	0.7369766235351563	-0.07428312301635742	-0.6934054493904114	-1.274702548980713	-0.675798773765564	-1.606358289718628	0.0
151	14.11.2016_03.41.11	1.117156982421875	0.29670143127441406	-0.2654268443584442	-1.2745132446289063	-0.6769922375679016	-1.6081690788269043	0.0
152	14.11.2016_03.41.11	1.3736824989318848	0.01146554946899414	-0.1494181752204895	-1.2412644624710083	-0.672586977481842	-1.5699501037597656	0.0
153	14.11.2016_03.41.11	1.464189052581787	0.24353504180908203	-0.14401492476463318	-1.315714716911316	-0.6306069493293762	-1.5649428367614746	0.0
154	14.11.2016_03.41.11	1.6534318923950195	2.165642261505127	0.7253992557525635	-1.2522408962249756	-0.634145200252533	-1.571465253829956	0.0
155	14.11.2016_03.41.11	3.0453338623046875	5.195751190185547	1.1011875867843628	-0.9377651810646057	-0.7402134537696838	-1.4837995767593384	0.0
156	14.11.2016_03.41.11	2.4796218872070313	5.306173324584961	0.8507007360458374	-0.7740247845649719	-0.8225970268249512	-1.4591457843780518	0.0
157	14.11.2016_03.41.11	2.6286754608154297	5.138944149017334	0.7545521259307861	-0.7389466166496277	-0.8633029460906982	-1.4687180519104004	0.0
158	14.11.2016_03.41.11	-2.313352584838867	1.3839664459228516	0.4051354229450226	-0.5483334064483643	-0.9874951243400574	-1.4225549697875977	0.0
159	14.11.2016_03.41.11	-2.3981661796569824	1.566755771636963	0.9752258062362671	-0.49632102251052856	-1.0391817092895508	-1.4115806818008423	0.0
160	14.11.2016_03.41.11	-0.834376335144043	1.6985793113708496	0.43809789419174194	-0.24902090430259705	-1.0817660093307495	-1.2570284605026245	0.0
161	14.11.2016_03.41.11	0.7475466728210449	1.0990629196166992	-0.2640323042869568	-0.476024866104126	-1.0114946365356445	-1.3859527111053467	0.0
162	14.11.2016_03.41.11	1.6780385971069336	-0.43710947036743164	-0.5161466598510742	-0.7598161697387695	-0.8972187638282776	-1.5070420503616333	0.0
163	14.11.2016_03.41.11	1.1684150695800781	-2.1537928581237793	-0.4238792061805725	-1.0309333801269531	-0.7494654655456543	-1.5459634065628052	0.0
164	14.11.2016_03.41.11	-0.05569648742675781	-2.4110355377197266	-0.0044672489166259766	-1.2124139070510864	-0.6456118226051331	-1.5351207256317139	0.0
165	14.11.2016_03.41.11	-1.5585803985595703	-2.2504076957702637	-0.1266757845878601	-1.0355685949325562	-0.6848665475845337	-1.4684771299362183	0.0
166	14.11.2016_03.41.11	-2.2469325065612793	-2.303415298461914	-0.7849061489105225	-0.8278353214263916	-0.8019454479217529	-1.4689054489135742	0.0
167	14.11.2016_03.41.11	-2.4675254821777344	-2.318824291229248	-0.9528498649597168	-0.9625089168548584	-0.8521232008934021	-1.6059327125549316	0.0
168	14.11.2016_03.41.11	-2.129863739013672	-2.388896942138672	-0.879278302192688	-1.0119709968566895	-0.8648208379745483	-1.6561790704727173	0.0
169	14.11.2016_03.41.11	-1.1230583190917969	-2.128354549407959	-0.8394205570220947	-1.0696207284927368	-0.8164991736412048	-1.6518930196762085	0.0
170	14.11.2016_03.41.11	-0.2928948402404785	-1.581803321838379	-0.9979468584060669	-1.1805270910263062	-0.7398675084114075	-1.6511424779891968	0.0
171	14.11.2016_03.41.11	0.47848033905029297	-1.0441293716430664	-1.1516708135604858	-1.2654860019683838	-0.7102388739585876	-1.6871371269226074	0.0
172	14.11.2016_03.41.11	0.5010004043579102	-0.6249194145202637	-1.0995087623596191	-1.3922398090362549	-0.682612419128418	-1.719573974609375	0.0
173	14.11.2016_03.41.11	-0.12694358825683594	-0.6144156455993652	-0.7321528792381287	-1.3924399614334106	-0.693268358707428	-1.7387027740478516	0.0
174	14.11.2016_03.41.11	-1.0155673027038574	-0.5137410163879395	-0.2987517714500427	-1.344187617301941	-0.7203577756881714	-1.7289471626281738	0.0
175	14.11.2016_03.41.11	-0.83233642578125	0.05651712417602539	-0.23939013481140137	-1.2264022827148438	-0.7860188484191895	-1.7052422761917114	0.0
176	14.11.2016_03.41.11	-0.1686549186706543	0.6208453178405762	0.18475598096847534	-1.1910840272903442	-0.8117464184761047	-1.7054542303085327	0.0
177	14.11.2016_03.41.11	0.2901301383972168	1.5497283935546875	0.38536709547042847	-1.1236927509307861	-0.8068853616714478	-1.64084792137146	0.0
178	14.11.2016_03.41.11	0.7238998413085938	2.0165529251098633	-1.016732096672058	-1.0405763387680054	-0.8386638760566711	-1.6104977130889893	0.0
179	14.11.2016_03.41.11	2.300225257873535	1.7178435325622559	-1.2617480754852295	-1.2434924840927124	-0.8334341049194336	-1.7815016508102417	0.0
180	14.11.2016_03.41.11	4.753073215484619	2.281322479248047	0.7305279970169067	-1.3727014064788818	-0.732690691947937	-1.780394196510315	0.0
181	14.11.2016_03.41.11	3.668426990509033	3.713186264038086	2.8063583374023438	-1.3264670372009277	-0.6602091789245605	-1.5785465240478516	0.0
182	14.11.2016_03.41.11	2.2139220237731934	3.5302720069885254	3.3192319869995117	-0.8587799072265625	-0.7643280625343323	-1.3877254724502563	0.0
183	14.11.2016_03.41.11	0.7150230407714844	1.2996916770935059	2.6322996616363525	-0.5816407203674316	-0.8117093443870544	-1.2873716354370117	0.0
184	14.11.2016_03.41.11	0.639927864074707	-0.2123427391052246	2.634122848510742	-0.5841655731201172	-0.7786771059036255	-1.2673265933990479	0.0
185	14.11.2016_03.41.11	0.7059669494628906	-0.4571199417114258	2.3779425621032715	-0.6323416829109192	-0.6811498403549194	-1.2172199487686157	0.0
186	14.11.2016_03.41.11	0.3063931465148926	-0.20307493209838867	1.8376216888427734	-0.6425774693489075	-0.6567001342773438	-1.2016586065292358	0.0
187	14.11.2016_03.41.11	-0.22557401657104492	0.49569034576416016	0.9210819005966187	-0.5460146069526672	-0.6960354447364807	-1.2001020908355713	0.0
188	14.11.2016_03.41.11	-1.1233782768249512	0.4379606246948242	-0.4325540065765381	-0.5230340957641602	-0.788647472858429	-1.2475132942199707	0.0
189	14.11.2016_03.41.11	-1.6616120338439941	-0.07234477996826172	-1.7608978748321533	-0.670793890953064	-0.8764064908027649	-1.3766716718673706	0.0
190	14.11.2016_03.41.11	-1.6851463317871094	-0.746558666229248	-2.115516185760498	-0.9391028881072998	-0.9087636470794678	-1.5852316617965698	0.0
191	14.11.2016_03.41.11	-1.608086109161377	-1.2455086708068848	-1.4797489643096924	-1.0764368772506714	-0.8767755031585693	-1.6645278930664063	0.0
192	14.11.2016_03.41.11	-1.9713845252990723	-2.4118857383728027	-0.7579661011695862	-1.0077852010726929	-0.8511537313461304	-1.583062767982483	0.0
193	14.11.2016_03.41.12	-1.8196210861206055	-2.643385887145996	-0.23245245218276978	-0.9512011408805847	-0.7920794486999512	-1.4813908338546753	0.0
194	14.11.2016_03.41.12	-1.3664956092834473	-2.2742443084716797	0.2803853154182434	-0.9046268463134766	-0.7525278329849243	-1.4107651710510254	0.0
195	14.11.2016_03.41.12	-0.749018669128418	-1.9218029975891113	0.3397085666656494	-0.8123940229415894	-0.7368882298469543	-1.3450285196304321	0.0
196	14.11.2016_03.41.12	-0.002182483673095703	-1.5620293617248535	-0.369361937046051	-0.8909333944320679	-0.7091110944747925	-1.3570964336395264	0.0
197	14.11.2016_03.41.12	-0.11779642105102539	-1.031447410583496	-1.3262076377868652	-1.143707036972046	-0.6794142127037048	-1.4744302034378052	0.0
198	14.11.2016_03.41.12	-0.35063838958740234	-0.33600807189941406	-1.0292332172393799	-1.2405444383621216	-0.716983437538147	-1.6122692823410034	0.0
199	14.11.2016_03.41.12	-0.12597417831420898	-0.30413198471069336	-0.34117916226387024	-1.095490574836731	-0.7743980884552002	-1.584877371788025	0.0
200	14.11.2016_03.41.12	0.37430286407470703	-0.11900758743286133	-0.220797598361969	-1.0249643325805664	-0.7521589994430542	-1.5054124593734741	0.0
201	14.11.2016_03.41.12	1.3066697120666504	0.5662684440612793	-0.08215755224227905	-1.0670939683914185	-0.7279871702194214	-1.5062041282653809	0.0
202	14.11.2016_03.41.12	2.080763816833496	0.8691573143005371	-0.18273916840553284	-1.0891332626342773	-0.71495121717453	-1.5054768323898315	0.0
203	14.11.2016_03.41.12	2.0809192657470703	0.716151237487793	-0.7028207182884216	-1.1667646169662476	-0.6882700324058533	-1.527791142463684	0.0
204	14.11.2016_03.41.12	1.1712932586669922	1.5104784965515137	-0.4878423810005188	-1.2682666778564453	-0.6723748445510864	-1.5918607711791992	0.0
205	14.11.2016_03.41.12	2.411357879638672	4.134209632873535	0.9183439016342163	-1.1054821014404297	-0.7657334208488464	-1.5824484825134277	0.0
206	14.11.2016_03.41.12	3.056826114654541	5.0587239265441895	1.340017318725586	-0.8197387456893921	-0.831698477268219	-1.4494086503982544	0.0
207	14.11.2016_03.41.12	-0.26277637481689453	2.2277588844299316	0.23654869198799133	-0.7606084942817688	-0.8422235250473022	-1.4215993881225586	0.0
208	14.11.2016_03.41.12	-2.7718758583068848	-0.1989603042602539	-0.2502855658531189	-0.7898211479187012	-0.912297785282135	-1.496748447418213	0.0
209	14.11.2016_03.41.12	-3.2437350749969482	-0.08551692962646484	0.7887459397315979	-0.7690814137458801	-1.001406192779541	-1.5465688705444336	0.0
210	14.11.2016_03.41.12	-1.4148759841918945	1.6856064796447754	0.8790338039398193	-0.29450681805610657	-1.0710257291793823	-1.2539472579956055	0.0
211	14.11.2016_03.41.12	0.7249679565429688	2.2393832206726074	0.18581777811050415	-0.3991212844848633	-1.0336124897003174	-1.3105700016021729	0.0
212	14.11.2016_03.41.12	1.4804959297180176	1.025909423828125	-0.44486162066459656	-0.6953527331352234	-0.9445931911468506	-1.456782579421997	0.0
213	14.11.2016_03.41.12	1.5949053764343262	-0.8829646110534668	-0.9506716132164001	-0.9343043565750122	-0.8490800261497498	-1.5424931049346924	0.0
214	14.11.2016_03.41.12	0.14745378494262695	-2.992340087890625	-0.8174974918365479	-1.211996078491211	-0.721137523651123	-1.6090537309646606	0.0
215	14.11.2016_03.41.12	-0.8493728637695313	-3.117720127105713	-0.25126850605010986	-1.3660316467285156	-0.6304030418395996	-1.6060490608215332	0.0
216	14.11.2016_03.41.12	-1.7987103462219238	-2.9167847633361816	-0.4377087354660034	-1.2177678346633911	-0.6669448614120483	-1.5299317836761475	0.0
217	14.11.2016_03.41.12	-2.1468443870544434	-2.6550259590148926	-0.4612467586994171	-1.1597651243209839	-0.7411928772926331	-1.5783357620239258	0.0
218	14.11.2016_03.41.12	-2.0179662704467773	-2.163208484649658	-0.6012462973594666	-1.1218838691711426	-0.776914119720459	-1.5954502820968628	0.0
219	14.11.2016_03.41.12	-1.2881927490234375	-1.4050102233886719	-0.734123706817627	-1.1392308473587036	-0.795198917388916	-1.6327325105667114	0.0
220	14.11.2016_03.41.12	-0.5256080627441406	-0.9985694885253906	-1.1138026714324951	-1.1814087629318237	-0.7857910990715027	-1.6569414138793945	0.0
221	14.11.2016_03.41.12	0.11855936050415039	-0.7376961708068848	-1.3744572401046753	-1.3006534576416016	-0.7478379011154175	-1.717268466949463	0.0
222	14.11.2016_03.41.12	0.29497432708740234	-0.5390009880065918	-1.4937559366226196	-1.3918845653533936	-0.7114689350128174	-1.7605454921722412	0.0
223	14.11.2016_03.41.12	-0.03058004379272461	-0.7965841293334961	-0.9373003244400024	-1.4391026496887207	-0.7008035778999329	-1.800743818283081	0.0
224	14.11.2016_03.41.12	-0.5318422317504883	-1.1352739334106445	-0.12862813472747803	-1.4248677492141724	-0.6940855383872986	-1.7710672616958618	0.0
225	14.11.2016_03.41.12	-0.7147045135498047	-0.6913266181945801	0.046548306941986084	-1.3606270551681519	-0.6955846548080444	-1.6975830793380737	0.0
226	14.11.2016_03.41.12	-0.03552532196044922	0.01683330535888672	0.123035728931427	-1.3103163242340088	-0.7376708984375	-1.690028429031372	0.0
227	14.11.2016_03.41.12	0.7118453979492188	1.215315818786621	0.520207405090332	-1.2923041582107544	-0.7395565509796143	-1.674684762954712	0.0
228	14.11.2016_03.41.12	0.9546899795532227	2.1275882720947266	-0.7749521732330322	-1.1765226125717163	-0.7722651362419128	-1.6152782440185547	0.0
229	14.11.2016_03.41.12	2.0906453132629395	1.4677820205688477	-1.3172160387039185	-1.289068579673767	-0.8031104207038879	-1.762384057044983	0.0
230	14.11.2016_03.41.12	4.67873477935791	1.8613862991333008	0.1116875410079956	-1.4586093425750732	-0.6992294788360596	-1.7986834049224854	0.0
231	14.11.2016_03.41.12	4.424897193908691	4.019816875457764	2.5255041122436523	-1.4733867645263672	-0.6141758561134338	-1.6420537233352661	0.0
232	14.11.2016_03.41.12	2.553865909576416	4.07098388671875	3.1474475860595703	-1.0335341691970825	-0.7238019108772278	-1.4442716836929321	0.0
233	14.11.2016_03.41.12	0.052439212799072266	0.9880843162536621	2.0779733657836914	-0.7116402983665466	-0.7972069978713989	-1.3436460494995117	0.0
234	14.11.2016_03.41.12	-0.8719863891601563	-0.4289278984069824	2.3707141876220703	-0.7726902365684509	-0.7759575843811035	-1.3560789823532104	0.0
235	14.11.2016_03.41.12	-0.11492109298706055	-0.04571962356567383	2.4706625938415527	-0.5595496892929077	-0.7332473397254944	-1.2353510856628418	0.0
236	14.11.2016_03.41.12	0.9254179000854492	0.8283777236938477	2.1424670219421387	-0.5105410814285278	-0.7134770750999451	-1.2064812183380127	0.0
237	14.11.2016_03.41.12	1.1256422996520996	0.9238619804382324	1.1752312183380127	-0.5973914265632629	-0.7192293405532837	-1.239621639251709	0.0
238	14.11.2016_03.41.12	0.3111305236816406	0.27385759353637695	0.07600772380828857	-0.7674779295921326	-0.7278616428375244	-1.3139300346374512	0.0
239	14.11.2016_03.41.12	-0.8324346542358398	-0.37819433212280273	-1.4906286001205444	-0.8973264098167419	-0.7465763688087463	-1.3965767621994019	0.0
240	14.11.2016_03.41.13	-1.9085383415222168	-1.3671059608459473	-2.335665702819824	-1.1121928691864014	-0.7921479344367981	-1.5938957929611206	0.0
241	14.11.2016_03.41.13	-2.458004951477051	-2.096614360809326	-1.557115077972412	-1.2899577617645264	-0.7993754744529724	-1.7649447917938232	0.0
242	14.11.2016_03.41.13	-2.589015483856201	-2.4600729942321777	-0.878233790397644	-1.1869971752166748	-0.7993411421775818	-1.6663084030151367	0.0
243	14.11.2016_03.41.13	-2.065223217010498	-2.1009421348571777	-0.23022645711898804	-1.0928633213043213	-0.7851247191429138	-1.5699769258499146	0.0
244	14.11.2016_03.41.13	-1.1286063194274902	-1.6909608840942383	-0.28136348724365234	-0.9511728882789612	-0.7718035578727722	-1.471903920173645	0.0
245	14.11.2016_03.41.13	-0.5223021507263184	-1.4289946556091309	-0.17190566658973694	-1.0736298561096191	-0.7305341958999634	-1.5065549612045288	0.0
246	14.11.2016_03.41.13	-0.27893972396850586	-0.9547252655029297	0.0907829999923706	-1.1149004697799683	-0.7042274475097656	-1.5011849403381348	0.0
247	14.11.2016_03.41.13	0.11729097366333008	-0.4675159454345703	-0.28231281042099	-1.0406508445739746	-0.7192174196243286	-1.4692192077636719	0.0
248	14.11.2016_03.41.13	0.04251384735107422	-0.49596691131591797	-0.6048548817634583	-1.1106452941894531	-0.7255477905273438	-1.5272727012634277	0.0
249	14.11.2016_03.41.13	-0.3136730194091797	-0.37476348876953125	-0.8874841928482056	-1.1760990619659424	-0.72270667552948	-1.5755077600479126	0.0
250	14.11.2016_03.41.13	0.22917509078979492	0.21007204055786133	-0.44603288173675537	-1.190095067024231	-0.7506101131439209	-1.6263532638549805	0.0
251	14.11.2016_03.41.13	1.1150836944580078	0.9141392707824707	0.2884142994880676	-1.1276259422302246	-0.7536472678184509	-1.577616572380066	0.0
252	14.11.2016_03.41.13	2.095825672149658	1.0822720527648926	0.5943537950515747	-1.0428428649902344	-0.7431176900863647	-1.5005487203598022	0.0
253	14.11.2016_03.41.13	2.175633430480957	0.6297225952148438	-0.17479541897773743	-1.1053014993667603	-0.6974021196365356	-1.4795647859573364	0.0
254	14.11.2016_03.41.13	2.5349974632263184	3.03878116607666	-0.20543670654296875	-1.2749531269073486	-0.6631892919540405	-1.5614532232284546	0.0
255	14.11.2016_03.41.13	2.5102663040161133	4.63909387588501	0.9686198234558105	-1.0791484117507935	-0.7800353765487671	-1.5684670209884644	0.0
256	14.11.2016_03.41.13	0.15613365173339844	3.3156728744506836	1.0813703536987305	-0.8053820729255676	-0.8534507751464844	-1.4554117918014526	0.0
257	14.11.2016_03.41.13	-2.01522159576416	0.8053579330444336	0.3988828659057617	-0.6241154074668884	-0.9294664263725281	-1.3989150524139404	0.0
258	14.11.2016_03.41.13	-2.363701820373535	0.41603994369506836	-0.09256753325462341	-0.6218539476394653	-0.9830601215362549	-1.4295992851257324	0.0
259	14.11.2016_03.41.13	-0.9047470092773438	1.749929428100586	0.0942588746547699	-0.6848341226577759	-1.0256385803222656	-1.4983705282211304	0.0
260	14.11.2016_03.41.13	1.8196229934692383	2.4511356353759766	-0.06388217210769653	-0.6755646467208862	-0.9998899698257446	-1.4759925603866577	0.0
261	14.11.2016_03.41.13	2.6822104454040527	1.100125789642334	0.21281340718269348	-0.8811823725700378	-0.8737349510192871	-1.52273690700531	0.0
262	14.11.2016_03.41.13	1.667628288269043	-1.3754901885986328	-0.6415916085243225	-1.0370607376098633	-0.7575943470001221	-1.4976046085357666	0.0
263	14.11.2016_03.41.13	0.35979747772216797	-2.5302634239196777	-0.8450455665588379	-1.3680698871612549	-0.6468827724456787	-1.5925482511520386	0.0
264	14.11.2016_03.41.13	-1.1202216148376465	-2.256714344024658	-0.3329351842403412	-1.4652860164642334	-0.6125320792198181	-1.6302188634872437	0.0
265	14.11.2016_03.41.13	-2.054283618927002	-2.422429084777832	-0.25607311725616455	-1.1963239908218384	-0.7223930954933167	-1.5673562288284302	0.0
266	14.11.2016_03.41.13	-2.441317558288574	-2.5202341079711914	-0.4154869318008423	-1.1095819473266602	-0.7666253447532654	-1.5612800121307373	0.0
267	14.11.2016_03.41.13	-2.3137454986572266	-2.199695110321045	-0.6300903558731079	-1.1411631107330322	-0.7786990404129028	-1.6020528078079224	0.0
268	14.11.2016_03.41.13	-1.6739439964294434	-1.7442970275878906	-0.6804141998291016	-1.1876871585845947	-0.7871808409690857	-1.6525765657424927	0.0
269	14.11.2016_03.41.13	-0.703681468963623	-1.0987367630004883	-0.9942392110824585	-1.2342979907989502	-0.7637245655059814	-1.662023663520813	0.0
270	14.11.2016_03.41.13	0.153961181640625	-1.1753387451171875	-1.2477853298187256	-1.3311866521835327	-0.7330830693244934	-1.711207628250122	0.0
271	14.11.2016_03.41.13	0.37064504623413086	-0.9904885292053223	-0.9496827125549316	-1.531287431716919	-0.6555725932121277	-1.7496707439422607	0.0
272	14.11.2016_03.41.13	0.11528491973876953	-0.8396515846252441	-0.6899713277816772	-1.5378401279449463	-0.6444352269172668	-1.7334380149841309	0.0
273	14.11.2016_03.41.13	-0.5088682174682617	-0.6404247283935547	-0.03856629133224487	-1.5171558856964111	-0.6565344333648682	-1.730694055557251	0.0
274	14.11.2016_03.41.13	-0.6737041473388672	-0.04173851013183594	0.01660066843032837	-1.3950756788253784	-0.7044690251350403	-1.6735368967056274	0.0
275	14.11.2016_03.41.13	-0.10845661163330078	0.47561073303222656	0.17442095279693604	-1.3140616416931152	-0.7560211420059204	-1.677380919456482	0.0
276	14.11.2016_03.41.13	0.4936704635620117	1.2033352851867676	0.44218963384628296	-1.29142427444458	-0.753687858581543	-1.651233196258545	0.0
277	14.11.2016_03.41.13	0.8700919151306152	2.0074262619018555	-0.05059707164764404	-1.2262381315231323	-0.766146719455719	-1.6105265617370605	0.0
278	14.11.2016_03.41.13	2.954929828643799	3.3933205604553223	0.36780306696891785	-1.2384437322616577	-0.794395387172699	-1.6630136966705322	0.0
279	14.11.2016_03.41.13	4.676877498626709	4.753169536590576	1.647830605506897	-1.2198461294174194	-0.7651199698448181	-1.603392243385315	0.0
280	14.11.2016_03.41.13	3.5444822311401367	4.283950328826904	2.2910590171813965	-1.1181551218032837	-0.7540619373321533	-1.4900480508804321	0.0
281	14.11.2016_03.41.13	1.0526084899902344	1.7537999153137207	1.3836033344268799	-0.9375694394111633	-0.7804298996925354	-1.409024953842163	0.0
282	14.11.2016_03.41.13	-0.46083641052246094	-0.4425816535949707	1.5929597616195679	-0.9695495367050171	-0.7880032658576965	-1.436690092086792	0.0
283	14.11.2016_03.41.13	-0.7212982177734375	-1.359640121459961	1.6774295568466187	-0.9121651649475098	-0.7392961382865906	-1.3478915691375732	0.0
284	14.11.2016_03.41.13	-0.09617185592651367	-1.2361278533935547	1.2647180557250977	-0.9511321783065796	-0.6821261048316956	-1.2948987483978271	0.0
285	14.11.2016_03.41.13	0.29203224182128906	-0.4365544319152832	1.5543692111968994	-1.1344648599624634	-0.6542275547981262	-1.3403059244155884	0.0
286	14.11.2016_03.41.14	0.7328891754150391	0.7342557907104492	1.6770687103271484	-0.939361035823822	-0.6808367371559143	-1.288265347480774	0.0
287	14.11.2016_03.41.14	0.23432350158691406	0.5842680931091309	0.23751258850097656	-0.7402659058570862	-0.726267397403717	-1.2605878114700317	0.0
288	14.11.2016_03.41.14	-0.606074333190918	-0.004924297332763672	-1.190524935722351	-0.9382764101028442	-0.7625401020050049	-1.388693928718567	0.0
289	14.11.2016_03.41.14	-1.421215534210205	-0.29593801498413086	-2.32167649269104	-1.0872302055358887	-0.7910196185112	-1.559795618057251	0.0
290	14.11.2016_03.41.14	-1.625326156616211	-0.6384902000427246	-2.030183792114258	-1.2494919300079346	-0.8329945802688599	-1.7528573274612427	0.0
291	14.11.2016_03.41.14	-1.2466602325439453	-1.3802413940429688	-0.650004506111145	-1.2359799146652222	-0.8367162942886353	-1.7446366548538208	0.0
292	14.11.2016_03.41.14	-0.8542037010192871	-1.78989839553833	0.01968008279800415	-1.1289767026901245	-0.7615921497344971	-1.5526317358016968	0.0
293	14.11.2016_03.41.14	-0.7519454956054688	-1.9856510162353516	0.2997611165046692	-1.1637383699417114	-0.6939437389373779	-1.4775018692016602	0.0
294	14.11.2016_03.41.14	-0.7937231063842773	-1.6271095275878906	0.02775511145591736	-1.2027363777160645	-0.6623226404190063	-1.4513901472091675	0.0
295	14.11.2016_03.41.14	-0.8761839866638184	-1.34193754196167	-0.15044620633125305	-1.200369954109192	-0.6911548972129822	-1.5002375841140747	0.0
296	14.11.2016_03.41.14	-1.008204460144043	-1.181520938873291	-0.045701563358306885	-1.1938914060592651	-0.7122595906257629	-1.5299596786499023	0.0
297	14.11.2016_03.41.14	-0.7553224563598633	-1.0018267631530762	-0.564663290977478	-1.1436569690704346	-0.7268514633178711	-1.5139753818511963	0.0
298	14.11.2016_03.41.14	-0.15131855010986328	-0.3117203712463379	-1.027026653289795	-1.2172977924346924	-0.7171969413757324	-1.5973060131072998	0.0
299	14.11.2016_03.41.14	0.5236501693725586	0.09059715270996094	-0.9790186882019043	-1.2819346189498901	-0.7235156297683716	-1.6667358875274658	0.0
300	14.11.2016_03.41.14	0.6652865409851074	-0.02927112579345703	-0.8850745558738708	-1.3101886510849	-0.706061840057373	-1.666400671005249	0.07409541511535644
301	14.11.2016_03.41.14	0.6653199195861816	-0.3673114776611328	-1.0562949180603027	-1.3496571779251099	-0.6849092841148376	-1.67083740234375	0.07409541511535644
302	14.11.2016_03.41.14	0.6427865028381348	-0.6057968139648438	-0.6694595813751221	-1.4374500513076782	-0.6524198651313782	-1.7112655639648438	0.07409541511535644
303	14.11.2016_03.41.14	0.6900320053100586	-0.19001388549804688	0.0161912739276886	-1.457138180732727	-0.6291071176528931	-1.6866035461425781	0.07409541511535644
304	14.11.2016_03.41.14	1.3428115844726563	1.7874250411987305	0.8527899980545044	-1.3617032766342163	-0.6521273255348206	-1.6210638284683228	0.07409541511535644
305	14.11.2016_03.41.14	2.203075408935547	3.3277478218078613	1.2980321645736694	-1.0850210189819336	-0.743239164352417	-1.530644178390503	0.07409541511535644
306	14.11.2016_03.41.14	1.4266180992126465	3.818559169769287	0.45609673857688904	-0.9518324732780457	-0.7814154624938965	-1.4870927333831787	0.07409541511535644
307	14.11.2016_03.41.14	-0.7340373992919922	1.3874177932739258	-0.14873693883419037	-0.8911978006362915	-0.8539113998413086	-1.5613563060760498	0.07409541511535644
308	14.11.2016_03.41.14	-1.7849483489990234	0.4954843521118164	-0.5149744153022766	-0.9629854559898376	-0.8722324371337891	-1.6288726329803467	0.07409541511535644
309	14.11.2016_03.41.14	-2.1119327545166016	0.9071712493896484	0.07711304724216461	-0.989723801612854	-0.9172870516777039	-1.6928428411483765	0.07409541511535644
310	14.11.2016_03.41.14	-0.928532600402832	1.8876399993896484	0.46473583579063416	-0.7473897337913513	-1.0018473863601685	-1.5834016799926758	0.07409541511535644
311	14.11.2016_03.41.14	0.571232795715332	1.8054685592651367	0.8906670808792114	-0.6590781211853027	-0.9867715835571289	-1.5129693746566772	0.07409541511535644
312	14.11.2016_03.41.14	1.0964508056640625	1.0102038383483887	1.1271570920944214	-0.6600849032402039	-0.9001528024673462	-1.456815481185913	0.07409541511535644
313	14.11.2016_03.41.14	1.0378174781799316	0.47540760040283203	-0.13067959249019623	-0.6785831451416016	-0.8347572684288025	-1.4206321239471436	0.07409541511535644
314	14.11.2016_03.41.14	0.6422691345214844	0.39818429946899414	-0.8674901723861694	-0.9571532607078552	-0.8191790580749512	-1.5704731941223145	0.07409541511535644
315	14.11.2016_03.41.14	-0.14937829971313477	0.7437725067138672	-0.734066367149353	-1.059322476387024	-0.840343177318573	-1.6677234172821045	0.07409541511535644
316	14.11.2016_03.41.14	-0.5689144134521484	0.2943711280822754	-0.5846105217933655	-0.9403961300849915	-0.9191855788230896	-1.6605545282363892	0.07409541511535644
317	14.11.2016_03.41.14	-0.7902016639709473	-0.5407118797302246	-0.5271417498588562	-0.9149287343025208	-0.9282950758934021	-1.6504454612731934	0.07409541511535644
318	14.11.2016_03.41.14	-1.0086355209350586	-1.0906586647033691	-0.543526291847229	-0.9621226191520691	-0.8978849053382874	-1.6559268236160278	0.07409541511535644
319	14.11.2016_03.41.14	-0.9542546272277832	-1.597303867340088	-0.3887123465538025	-1.0134881734848022	-0.8813209533691406	-1.6772435903549194	0.07409541511535644
320	14.11.2016_03.41.14	-0.9659452438354492	-1.5544490814208984	0.02267947793006897	-1.0568153858184814	-0.8393325805664063	-1.6638123989105225	0.07409541511535644
321	14.11.2016_03.41.14	-1.039412021636963	-1.2133116722106934	-0.030844658613204956	-0.9635475873947144	-0.8442585468292236	-1.6021206378936768	0.07409541511535644
322	14.11.2016_03.41.14	-0.7655425071716309	-1.024829387664795	0.014656305313110352	-0.9449152946472168	-0.8742449283599854	-1.6201305389404297	0.07409541511535644
323	14.11.2016_03.41.14	-0.2759547233581543	-0.4794278144836426	0.0903875082731247	-0.9542160034179688	-0.8601903915405273	-1.6123313903808594	0.07409541511535644
324	14.11.2016_03.41.14	-0.9157133102416992	-0.24662303924560547	-0.9134101867675781	-0.9395009279251099	-0.854851484298706	-1.5967952013015747	0.07409541511535644
325	14.11.2016_03.41.14	-0.6493191719055176	-0.28981924057006836	-0.3545023500919342	-1.0993117094039917	-0.9098424911499023	-1.7765060663223267	0.07409541511535644
326	14.11.2016_03.41.14	-0.3544731140136719	-0.8584790229797363	-0.1549549698829651	-1.00729501247406	-0.8914898037910461	-1.6836522817611694	0.07409541511535644
327	14.11.2016_03.41.14	0.16645050048828125	-1.4943270683288574	0.08540806174278259	-1.0691614151000977	-0.8279532790184021	-1.6594302654266357	0.07409541511535644
328	14.11.2016_03.41.14	2.127601146697998	-0.3134474754333496	0.8156188726425171	-1.192830204963684	-0.7330436110496521	-1.6252448558807373	0.07409541511535644
329	14.11.2016_03.41.14	3.1278138160705566	0.6941986083984375	2.0578196048736572	-1.1750962734222412	-0.684636116027832	-1.5321507453918457	0.07409541511535644
330	14.11.2016_03.41.14	2.026338577270508	1.0586142539978027	2.1744191646575928	-0.9887141585350037	-0.6723887920379639	-1.407335877418518	0.07409541511535644
331	14.11.2016_03.41.14	0.9243087768554688	0.00725555419921875	1.503695011138916	-0.7148314118385315	-0.7238771319389343	-1.3539944887161255	0.07409541511535644
332	14.11.2016_03.41.14	-0.5843706130981445	-0.7185969352722168	0.4199714660644531	-0.8139965534210205	-0.7028223872184753	-1.37125563621521	0.07409541511535644
333	14.11.2016_03.41.15	1.9933934211730957	0.7142782211303711	0.40353620052337646	-0.8945911526679993	-0.7416465282440186	-1.4488800764083862	0.07409541511535644
334	14.11.2016_03.41.15	-0.5328536033630371	-0.3526601791381836	-0.08769893646240234	-1.0029231309890747	-0.6768175959587097	-1.4671926498413086	0.07409541511535644
335	14.11.2016_03.41.15	-1.68458890914917	-1.1113090515136719	-0.07956826686859131	-0.8740729093551636	-0.7483481764793396	-1.483587384223938	0.07409541511535644
336	14.11.2016_03.41.15	1.2372488975524902	-0.31911563873291016	0.4908537268638611	-0.7892832159996033	-0.7675787210464478	-1.4586113691329956	0.07409541511535644
337	14.11.2016_03.41.15	0.1890735626220703	-0.19631719589233398	0.05510842800140381	-1.0754430294036865	-0.6250498294830322	-1.4285647869110107	0.07409541511535644
338	14.11.2016_03.41.15	0.6340928077697754	0.3608269691467285	-0.030511021614074707	-0.9466466903686523	-0.6937999725341797	-1.4598066806793213	0.07409541511535644
339	14.11.2016_03.41.15	0.47133541107177734	1.527900218963623	0.028772711753845215	-0.9425755143165588	-0.7052360773086548	-1.471529245376587	0.07409541511535644
340	14.11.2016_03.41.15	-0.03502988815307617	1.111159324645996	-0.3456931710243225	-0.7463330030441284	-0.7916131019592285	-1.4579716920852661	0.07409541511535644
341	14.11.2016_03.41.15	-0.43340158462524414	-0.27975034713745117	0.001120150089263916	-0.8032964468002319	-0.8022547960281372	-1.4974133968353271	0.07409541511535644
342	14.11.2016_03.41.15	0.5812430381774902	-0.3274264335632324	0.7012616395950317	-0.825764000415802	-0.7333683371543884	-1.4439698457717896	0.07409541511535644
343	14.11.2016_03.41.15	-0.13614797592163086	-1.7656397819519043	1.8007304668426514	-0.6611050367355347	-0.6599206328392029	-1.371023416519165	0.07409541511535644
344	14.11.2016_03.41.15	-4.338517189025879	-7.056683540344238	-1.3953661918640137	-0.2087634652853012	-0.5552099943161011	-1.199702501296997	0.07409541511535644
345	14.11.2016_03.41.15	-5.429805755615234	-0.1468639373779297	-1.7580533027648926	-2.4953577518463135	0.21088555455207825	-1.637391209602356	0.07409541511535644
346	14.11.2016_03.41.15	3.6824984550476074	11.827892303466797	-0.8531101942062378	-0.749575674533844	-1.2241867780685425	-1.7823152542114258	0.07409541511535644
347	14.11.2016_03.41.15	3.0069570541381836	2.3071441650390625	1.7939066886901855	-0.5790042877197266	-1.0247716903686523	-1.5476278066635132	0.07409541511535644
348	14.11.2016_03.41.15	2.195338726043701	-2.6267404556274414	0.40787506103515625	-0.4148949384689331	-0.7458831071853638	-1.3227455615997314	0.07409541511535644
349	14.11.2016_03.41.15	1.8643112182617188	-3.9648959636688232	0.14571213722229004	-1.3933476209640503	-0.46674996614456177	-1.451765775680542	0.07409541511535644
350	14.11.2016_03.41.15	-0.9474191665649414	-2.811086893081665	-0.6585549116134644	-1.8433542251586914	-0.3400866687297821	-1.4694288969039917	0.09442585182189941
351	14.11.2016_03.41.15	1.0036120414733887	0.751706600189209	-0.37884604930877686	-1.2533477544784546	-0.5464079976081848	-1.537449836730957	0.09442585182189941
352	14.11.2016_03.41.15	0.3540306091308594	1.1889009475708008	-1.1269752979278564	-0.811899721622467	-0.6952069401741028	-1.5109782218933105	0.09442585182189941
353	14.11.2016_03.41.15	-0.3496260643005371	0.5917596817016602	-1.2850587368011475	-0.8877038359642029	-0.7513325810432434	-1.6080292463302612	0.09442585182189941
354	14.11.2016_03.41.15	-0.38134765625	0.5834465026855469	-1.3114697933197021	-0.9474863409996033	-0.750958263874054	-1.6492642164230347	0.09442585182189941
355	14.11.2016_03.41.15	-1.8044590950012207	1.0889806747436523	-1.892369270324707	-0.9808223247528076	-0.754163384437561	-1.6769558191299438	0.09442585182189941
356	14.11.2016_03.41.15	-2.2315382957458496	1.2247204780578613	0.5379441380500793	-1.0205786228179932	-0.8917703628540039	-1.8351914882659912	0.09442585182189941
357	14.11.2016_03.41.15	2.663512706756592	0.05837297439575195	0.9260761141777039	-0.44975268840789795	-0.9744288921356201	-1.463292121887207	0.09442585182189941
358	14.11.2016_03.41.15	0.26383304595947266	-0.31336450576782227	1.5122694969177246	-0.9475356340408325	-0.5988094210624695	-1.4863364696502686	0.09442585182189941
359	14.11.2016_03.41.15	1.6312274932861328	-0.6512851715087891	0.09250674396753311	-0.5447725057601929	-0.6895974278450012	-1.3786842823028564	0.09442585182189941
360	14.11.2016_03.41.15	1.734241008758545	0.6168842315673828	-1.2891395092010498	-1.084628701210022	-0.5872148871421814	-1.5529171228408813	0.09442585182189941
361	14.11.2016_03.41.15	1.8959131240844727	1.771613597869873	-2.2806665897369385	-1.0786300897598267	-0.655792236328125	-1.6961854696273804	0.09442585182189941
362	14.11.2016_03.41.15	-1.4940037727355957	1.144869327545166	-0.9203590154647827	-1.137331485748291	-0.6995236873626709	-1.7983498573303223	0.09442585182189941
363	14.11.2016_03.41.15	-0.5949630737304688	-0.44617509841918945	-1.3123122453689575	-0.8676355481147766	-0.8777437210083008	-1.7365856170654297	0.09442585182189941
364	14.11.2016_03.41.15	0.6210503578186035	-0.8894357681274414	0.15882739424705505	-1.1517980098724365	-0.6908706426620483	-1.8016936779022217	0.09442585182189941
365	14.11.2016_03.41.15	-0.46511316299438477	-2.3372762203216553	1.1060376167297363	-1.0833446979522705	-0.5917925238609314	-1.618857502937317	0.09442585182189941
366	14.11.2016_03.41.15	-1.3159542083740234	-2.6258466243743896	0.6334372758865356	-1.0893465280532837	-0.5149694681167603	-1.5124510526657104	0.09442585182189941
367	14.11.2016_03.41.15	0.5925140380859375	-2.235959768295288	-0.10628217458724976	-1.1722418069839478	-0.5247594118118286	-1.585028886795044	0.09442585182189941
368	14.11.2016_03.41.15	-0.49390077590942383	-1.4766931533813477	0.5429449081420898	-1.4454363584518433	-0.4349493682384491	-1.6652482748031616	0.09442585182189941
369	14.11.2016_03.41.15	-0.07068252563476563	-0.029033660888671875	0.2905997335910797	-1.1495287418365479	-0.5352623462677002	-1.5851136445999146	0.09442585182189941
370	14.11.2016_03.41.15	0.3211216926574707	0.13525724411010742	1.0192538499832153	-0.9629582762718201	-0.6231008768081665	-1.607204556465149	0.09442585182189941
371	14.11.2016_03.41.15	1.5051283836364746	-1.345062255859375	0.4401150643825531	-0.8162502646446228	-0.6124950051307678	-1.508899211883545	0.09442585182189941
372	14.11.2016_03.41.15	-0.026490211486816406	-1.5975251197814941	1.2679941654205322	-1.2991137504577637	-0.4305669069290161	-1.5601879358291626	0.09442585182189941
373	14.11.2016_03.41.15	1.6174249649047852	0.7092247009277344	-0.8116793632507324	-1.0580018758773804	-0.45196738839149475	-1.442147970199585	0.09442585182189941
374	14.11.2016_03.41.15	-3.4821057319641113	0.40787506103515625	-0.15143632888793945	-1.1526488065719604	-0.5480746626853943	-1.652750849723816	0.09442585182189941
375	14.11.2016_03.41.15	-1.9955534934997559	1.3203387260437012	2.689998149871826	-0.651682436466217	-0.8590591549873352	-1.5861492156982422	0.09442585182189941
376	14.11.2016_03.41.15	4.224034309387207	2.449601650238037	-0.08179382979869843	0.10655916482210159	-0.7668798565864563	-1.152696132659912	0.09442585182189941
377	14.11.2016_03.41.15	1.5769290924072266	-1.41864013671875	-4.20882511138916	-0.9617485404014587	-0.576473593711853	-1.554744005203247	0.09442585182189941
378	14.11.2016_03.41.15	-2.1754188537597656	-2.3382136821746826	-3.5974197387695313	-1.613768458366394	-0.3830473721027374	-1.9674077033996582	0.09442585182189941
379	14.11.2016_03.41.15	-0.46904468536376953	0.07007265090942383	2.610220193862915	-1.6283599138259888	-0.4260043799877167	-2.135706901550293	0.09442585182189941
380	14.11.2016_03.41.16	-2.1746115684509277	1.8024520874023438	1.2968497276306152	-0.3671160638332367	-0.5957267880439758	-1.3301931619644165	0.09442585182189941
381	14.11.2016_03.41.16	-1.6595187187194824	3.5488715171813965	-0.8153244256973267	-0.4173359274864197	-0.8544666767120361	-1.451886534690857	0.09442585182189941
382	14.11.2016_03.41.16	0.5985770225524902	3.032883644104004	-2.696556568145752	-0.8059422373771667	-0.9348223209381104	-1.7615971565246582	0.09442585182189941
383	14.11.2016_03.41.16	0.5678887367248535	-0.6980347633361816	1.9815738201141357	-1.126523494720459	-0.7864249348640442	-1.9244472980499268	0.09442585182189941
384	14.11.2016_03.41.16	1.6669344902038574	-3.059365749359131	1.4701863527297974	-0.5734508633613586	-0.6007618308067322	-1.4053585529327393	0.09442585182189941
385	14.11.2016_03.41.16	0.4379725456237793	-2.9634459018707275	1.711890697479248	-1.4731537103652954	-0.3487780690193176	-1.4698894023895264	0.09442585182189941
386	14.11.2016_03.41.16	0.38129234313964844	-0.36002540588378906	0.6831361055374146	-1.2741217613220215	-0.37816697359085083	-1.4133217334747314	0.09442585182189941
387	14.11.2016_03.41.16	0.7449502944946289	0.6995086669921875	1.4486830234527588	-0.8467006087303162	-0.5819763541221619	-1.5105482339859009	0.09442585182189941
388	14.11.2016_03.41.16	1.6622161865234375	0.36199378967285156	-2.698406934738159	-0.5374341011047363	-0.6199492812156677	-1.4085055589675903	0.09442585182189941
389	14.11.2016_03.41.16	2.1037893295288086	0.9412946701049805	-1.6313663721084595	-1.318550944328308	-0.532335102558136	-1.8210033178329468	0.09442585182189941
390	14.11.2016_03.41.16	2.3982162475585938	0.7767295837402344	1.3314932584762573	-1.1805015802383423	-0.5562803149223328	-1.715690016746521	0.09442585182189941
391	14.11.2016_03.41.16	2.2100648880004883	0.8222227096557617	1.3621822595596313	-0.7728353142738342	-0.5264711380004883	-1.4341365098953247	0.09442585182189941
392	14.11.2016_03.41.16	1.8392257690429688	1.8804874420166016	0.1732320785522461	-0.6868714690208435	-0.5324838757514954	-1.4071604013442993	0.09442585182189941
393	14.11.2016_03.41.16	1.80267333984375	2.116234302520752	1.5638015270233154	-0.7271662950515747	-0.6283522844314575	-1.4992337226867676	0.09442585182189941
394	14.11.2016_03.41.16	0.8448796272277832	1.6737942695617676	3.9085917472839355	-0.3867875635623932	-0.6472064852714539	-1.3616715669631958	0.09442585182189941
395	14.11.2016_03.41.16	1.559699535369873	1.9747314453125	1.7494789361953735	0.3410293161869049	-0.6414195895195007	-1.1003187894821167	0.09442585182189941
396	14.11.2016_03.41.16	-0.4078984260559082	1.000955581665039	-1.8241705894470215	-0.1848214566707611	-0.6797975897789001	-1.2923105955123901	0.09442585182189941
397	14.11.2016_03.41.16	-2.158313751220703	0.717780590057373	-0.5452360510826111	-1.0747580528259277	-0.7789264917373657	-1.6608392000198364	0.09442585182189941
398	14.11.2016_03.41.16	2.146895408630371	2.2412314414978027	-6.554158687591553	-0.5930440425872803	-0.9413987398147583	-1.4451844692230225	0.09442585182189941
399	14.11.2016_03.41.16	10.742314338684082	4.417855739593506	-5.4652485847473145	-1.5530030727386475	-0.7009053826332092	-2.1096389293670654	0.09442585182189941
400	14.11.2016_03.41.16	1.6687431335449219	4.181653022766113	4.16890811920166	-1.5473510026931763	-0.5530818700790405	-1.8610830307006836	0.1972018632888794
401	14.11.2016_03.41.16	-5.9361982345581055	0.6557903289794922	9.106511116027832	-0.21121565997600555	-0.8553165793418884	-1.1965216398239136	0.1972018632888794
402	14.11.2016_03.41.16	-1.689100742340088	5.196599960327148	4.980678558349609	1.514233946800232	-0.7288128137588501	-0.10459241271018982	0.1972018632888794
403	14.11.2016_03.41.16	-0.3130640983581543	1.918825626373291	-2.7957653999328613	0.5989809632301331	-1.0454086065292358	-0.6876713037490845	0.1972018632888794
404	14.11.2016_03.41.16	-1.6243507862091064	-5.271822929382324	-3.979701519012451	-0.9816734790802002	-1.0674573183059692	-1.8267853260040283	0.1972018632888794
405	14.11.2016_03.41.16	-13.368719100952148	-22.79879379272461	-8.902332305908203	-1.693137764930725	-0.635045051574707	-2.2688450813293457	0.1972018632888794
406	14.11.2016_03.41.16	-12.12428092956543	-1.8070473670959473	8.610572814941406	2.6723523139953613	0.8823862671852112	2.321169137954712	0.1972018632888794
407	14.11.2016_03.41.16	1.32974374294281	0.3106060028076172	1.3853225708007813	2.7105698585510254	-0.517614483833313	1.1569063663482666	0.1972018632888794
408	14.11.2016_03.41.16	6.6860456466674805	10.311141967773438	0.26329493522644043	2.405463218688965	-1.457764744758606	1.888062596321106	0.1972018632888794
409	14.11.2016_03.41.16	0.5529747605323792	5.247479438781738	-6.107610702514648	-2.0404131412506104	-1.3378369808197021	-1.8134243488311768	0.1972018632888794
410	14.11.2016_03.41.16	-3.578028678894043	-2.9935336112976074	6.775513648986816	-2.9396936893463135	-1.1353845596313477	-3.066805362701416	0.1972018632888794
411	14.11.2016_03.41.16	-14.743919372558594	-18.159557342529297	8.083187103271484	2.5995900630950928	-0.8048439621925354	0.6048986315727234	0.1972018632888794
412	14.11.2016_03.41.16	-10.982952117919922	-14.327638626098633	-6.952369689941406	2.738590717315674	0.4546378254890442	1.1362115144729614	0.1972018632888794
413	14.11.2016_03.41.16	8.227034568786621	10.937864303588867	-6.3930559158325195	2.7645654678344727	0.40079888701438904	1.8102682828903198	0.1972018632888794
414	14.11.2016_03.41.16	14.151206970214844	17.139556884765625	1.8532931804656982	-3.096317768096924	-1.0892246961593628	2.908806800842285	0.1972018632888794
415	14.11.2016_03.41.16	9.191438674926758	11.45024585723877	0.5645105838775635	-2.4440038204193115	-1.308192253112793	-1.5776166915893555	0.1972018632888794
416	14.11.2016_03.41.16	4.613381385803223	3.13773250579834	1.4060773849487305	-2.5337021350860596	-1.280798077583313	-1.6750948429107666	0.1972018632888794
417	14.11.2016_03.41.16	-0.26168930530548096	-2.5658702850341797	2.350202798843384	-2.3086633682250977	-1.3162951469421387	-1.4124956130981445	0.1972018632888794
418	14.11.2016_03.41.16	-1.7817217111587524	-8.017875671386719	-3.960911512374878	-0.3666866719722748	-1.2986581325531006	0.4282523989677429	0.1972018632888794
419	14.11.2016_03.41.16	-2.7142937183380127	-8.649882316589355	-2.140162944793701	2.555755615234375	-0.35548898577690125	2.5820837020874023	0.1972018632888794
420	14.11.2016_03.41.16	-2.6477298736572266	-7.295280933380127	6.151259422302246	2.494877576828003	-0.23398388922214508	2.1689693927764893	0.1972018632888794
421	14.11.2016_03.41.16	-0.9831786155700684	-7.748878479003906	4.644964694976807	3.048322916030884	-0.3225341737270355	0.7416635155677795	0.1972018632888794
422	14.11.2016_03.41.16	-2.883810043334961	-10.159364700317383	0.629021167755127	3.0700948238372803	-0.24158181250095367	0.7277436256408691	0.1972018632888794
423	14.11.2016_03.41.16	-1.88539457321167	-9.495616912841797	-0.8327558040618896	2.794954538345337	0.22029374539852142	1.2311652898788452	0.1972018632888794
424	14.11.2016_03.41.16	1.523818016052246	-3.0545654296875	3.7791504859924316	2.2335236072540283	0.4025743901729584	1.3096543550491333	0.1972018632888794
425	14.11.2016_03.41.16	4.89487886428833	1.8938531875610352	6.103708267211914	2.538966655731201	0.12362398952245712	0.8052684664726257	0.1972018632888794
426	14.11.2016_03.41.16	4.080413818359375	3.7338666915893555	1.875875473022461	-1.8863362073898315	-0.2593063414096832	0.3324834108352661	0.1972018632888794
427	14.11.2016_03.41.17	2.8798725605010986	2.8139379024505615	-1.5370936393737793	-0.4254089891910553	-0.5264206528663635	0.4003472924232483	0.1972018632888794
428	14.11.2016_03.41.17	8.560415267944336	6.06479549407959	22.630451202392578	0.22869913280010223	-0.6423933506011963	0.5819491147994995	0.1972018632888794
429	14.11.2016_03.41.17	-0.20509767532348633	8.1582612991333	4.362770080566406	-1.6959251165390015	-0.28761762380599976	-0.09262578934431076	0.1972018632888794
430	14.11.2016_03.41.17	0.4149669408798218	4.2915263175964355	-0.6339597702026367	-0.6492306590080261	-0.7011569738388062	0.21357190608978271	0.1972018632888794
431	14.11.2016_03.41.17	-1.220127820968628	0.5490236282348633	-0.012300491333007813	-0.5639083385467529	-0.7592408657073975	0.2259960174560547	0.1972018632888794
432	14.11.2016_03.41.17	-2.365605115890503	-2.3966774940490723	2.9390392303466797	-0.712681233882904	-0.4701451361179352	0.3596053421497345	0.1972018632888794
433	14.11.2016_03.41.17	-2.0942399501800537	-2.304581880569458	2.968550682067871	1.8466365337371826	-0.14453153312206268	0.3611152172088623	0.1972018632888794
434	14.11.2016_03.41.17	3.4235687255859375	3.2265706062316895	1.7178354263305664	1.8758779764175415	-0.13441088795661926	0.3383556604385376	0.1972018632888794
435	14.11.2016_03.41.17	-0.7185944318771362	2.7265360355377197	0.0869894027709961	-0.03621303290128708	-0.5840889811515808	-0.11971188336610794	0.1972018632888794
436	14.11.2016_03.41.17	-1.086360216140747	2.174579620361328	-2.6080479621887207	0.8446842432022095	-0.6301601529121399	0.28065526485443115	0.1972018632888794
437	14.11.2016_03.41.17	-3.638474225997925	0.6041140556335449	-0.7410740852355957	0.9089697599411011	-0.762334942817688	0.4367891550064087	0.1972018632888794
438	14.11.2016_03.41.17	0.39071059226989746	1.3690037727355957	1.007925033569336	1.366807222366333	-0.5003175139427185	0.6059293746948242	0.1972018632888794
439	14.11.2016_03.41.17	1.5425050258636475	0.013814449310302734	-1.3000688552856445	0.7528079152107239	-0.5732278227806091	0.17974057793617249	0.1972018632888794
440	14.11.2016_03.41.17	0.8097648024559021	0.30289363861083984	-1.5262627601623535	0.4296201169490814	-0.6084151864051819	0.054199814796447754	0.1972018632888794
441	14.11.2016_03.41.17	0.6414893865585327	-0.24306869506835938	0.06762504577636719	0.5613276362419128	-0.6574881076812744	0.13866804540157318	0.1972018632888794
442	14.11.2016_03.41.17	1.0774333477020264	-0.516118049621582	1.2380943298339844	1.0798447132110596	-0.5216760635375977	0.12740767002105713	0.1972018632888794
443	14.11.2016_03.41.17	1.6568821668624878	-0.916450023651123	1.0055208206176758	1.1170796155929565	-0.4433712959289551	0.05881495401263237	0.1972018632888794
444	14.11.2016_03.41.17	2.404768943786621	-0.935347318649292	0.26105213165283203	1.0795104503631592	-0.40856263041496277	-0.021276112645864487	0.1972018632888794
445	14.11.2016_03.41.17	1.8703657388687134	-1.1024200916290283	1.0767650604248047	0.8747088313102722	-0.4193510413169861	-0.130214661359787	0.1972018632888794
446	14.11.2016_03.41.17	2.6644866466522217	-1.3345952033996582	2.9419689178466797	1.0794090032577515	-0.3551262319087982	-0.10184434801340103	0.1972018632888794
447	14.11.2016_03.41.17	2.7666852474212646	-0.8869376182556152	4.155352592468262	1.2557846307754517	-0.25949910283088684	-0.18535415828227997	0.1972018632888794
448	14.11.2016_03.41.17	0.13759976625442505	0.23558759689331055	2.103302001953125	1.3070836067199707	-0.24037820100784302	-0.20863421261310577	0.1972018632888794
449	14.11.2016_03.41.17	8.298754692077637E-4	0.9253478050231934	-0.31490230560302734	1.1587995290756226	-0.3504815101623535	-0.05572514608502388	0.1972018632888794
450	14.11.2016_03.41.17	0.3219348192214966	0.9660470485687256	-1.594531536102295	0.8347169756889343	-0.49468177556991577	-0.07752887904644012	0.1743875141143799
451	14.11.2016_03.41.17	0.7089148163795471	0.7113137245178223	-1.202195644378662	0.6642486453056335	-0.5801632404327393	-0.1470135599374771	0.1743875141143799
452	14.11.2016_03.41.17	-0.08225178718566895	0.6960015296936035	-0.8883404731750488	0.6034260988235474	-0.5512325763702393	-0.19811592996120453	0.1743875141143799
453	14.11.2016_03.41.17	-0.551589846611023	0.5899906158447266	0.13762474060058594	0.7616755366325378	-0.5578144192695618	-0.1041983887553215	0.1743875141143799
454	14.11.2016_03.41.17	0.04097706079483032	0.5358443260192871	-0.059927940368652344	0.9129374027252197	-0.5102908611297607	-0.04522107169032097	0.1743875141143799
455	14.11.2016_03.41.17	-0.17859101295471191	0.6043176651000977	-1.555668830871582	0.7871872782707214	-0.5222711563110352	-0.11639964580535889	0.1743875141143799
456	14.11.2016_03.41.17	-1.3342370986938477	0.6732039451599121	-1.6350932121276855	0.6693403720855713	-0.6283881664276123	-0.1136678010225296	0.1743875141143799
457	14.11.2016_03.41.17	-0.8702957034111023	0.3998684883117676	1.508620262145996	0.8732340335845947	-0.6638323068618774	0.056660883128643036	0.1743875141143799
458	14.11.2016_03.41.17	0.34432536363601685	0.21953296661376953	-0.8664345741271973	1.0097813606262207	-0.4913845360279083	0.008179777301847935	0.1743875141143799
459	14.11.2016_03.41.17	0.3926860988140106	0.2186565399169922	-2.6609597206115723	0.678286612033844	-0.6042214632034302	-0.12327950447797775	0.1743875141143799
460	14.11.2016_03.41.17	-0.1420283317565918	0.3639254570007324	-3.051884651184082	0.5364351868629456	-0.7573421597480774	-0.15285632014274597	0.1743875141143799
461	14.11.2016_03.41.17	0.06734415888786316	0.5919904708862305	-2.0308709144592285	0.6139273643493652	-0.8407509326934814	-0.061024878174066544	0.1743875141143799
462	14.11.2016_03.41.17	0.40486353635787964	-0.30991411209106445	1.346726894378662	0.5974347591400146	-0.8000143766403198	-0.09294500201940536	0.1743875141143799
463	14.11.2016_03.41.17	0.12179595232009888	-0.9282393455505371	3.267934799194336	0.8829903602600098	-0.5357432961463928	-0.10526882112026215	0.1743875141143799
464	14.11.2016_03.41.17	0.7191872596740723	-0.8021740913391113	2.2593297958374023	1.2091292142868042	-0.40236780047416687	-0.06426570564508438	0.1743875141143799
